{
  "b": 209,
  "disableInputWhenNotFocused": true,
  "mangledName": "R2_95tutorPronounceScene_954_9516",
  "name": "R2_tutorPronounceScene_4_16",
  "r": 209,
  "standardSortMethod": true,
  "stopSoundsOnStartup": true,
  "title": "",
  "v": 209,
  "uiSettings": {
    "grid": false,
    "gridType": "rectangular",
    "gridWidth": 32,
    "gridHeight": 32,
    "gridOffsetX": 0,
    "gridOffsetY": 0,
    "gridColor": 10401023,
    "gridAlpha": 0.8,
    "snap": false,
    "zoomFactor": 0.5117784035210173,
    "windowMask": false
  },
  "objectsGroups": [],
  "variables": [],
  "instances": [
    {
      "angle": 0,
      "customSize": true,
      "depth": 0,
      "height": 804,
      "layer": "",
      "name": "tutor_bg",
      "persistentUuid": "4ba66f21-7fac-4694-92b4-dd66ed6bf048",
      "width": 1373,
      "x": -51,
      "y": -39,
      "zOrder": 1,
      "numberProperties": [],
      "stringProperties": [],
      "initialVariables": []
    },
    {
      "angle": 0,
      "customSize": false,
      "height": 0,
      "layer": "",
      "name": "titleGameTutor_txt",
      "persistentUuid": "3c56d56e-8221-42f6-bf64-0d262a43b60b",
      "width": 0,
      "x": 331,
      "y": 41,
      "zOrder": 2,
      "numberProperties": [],
      "stringProperties": [],
      "initialVariables": []
    },
    {
      "angle": 0,
      "customSize": true,
      "depth": 0,
      "height": 123,
      "layer": "",
      "name": "informGameTutor_txt",
      "persistentUuid": "3be6b5af-e7b7-4269-8ce9-3b88b0779d2a",
      "width": 292,
      "x": 140,
      "y": 127,
      "zOrder": 3,
      "numberProperties": [],
      "stringProperties": [],
      "initialVariables": []
    },
    {
      "angle": 0,
      "customSize": true,
      "depth": 32,
      "height": 69,
      "layer": "",
      "name": "playPronounce_btn",
      "persistentUuid": "78527283-e488-4c2c-b2ae-efb1f308fe87",
      "width": 231,
      "x": 506,
      "y": 568,
      "zOrder": 4,
      "numberProperties": [],
      "stringProperties": [],
      "initialVariables": []
    },
    {
      "angle": 0,
      "customSize": true,
      "depth": 0,
      "height": 350,
      "layer": "",
      "name": "NewSprite",
      "persistentUuid": "e7661e6a-6df6-452b-a48e-508c70431eec",
      "width": 625,
      "x": 323,
      "y": 192,
      "zOrder": 5,
      "numberProperties": [],
      "stringProperties": [],
      "initialVariables": []
    },
    {
      "angle": 20,
      "customSize": true,
      "depth": 0,
      "height": 76,
      "layer": "",
      "name": "DirectionalArrowQuarterCircle",
      "persistentUuid": "bb56734f-66b0-4a06-92b2-ec2d89d39835",
      "width": 89,
      "x": 446,
      "y": 167,
      "zOrder": 6,
      "numberProperties": [],
      "stringProperties": [],
      "initialVariables": []
    },
    {
      "angle": 0,
      "customSize": true,
      "depth": 0,
      "height": 123,
      "layer": "",
      "name": "informGameTutor_txt2",
      "persistentUuid": "1f3d535e-31e3-4320-a276-c1d9089731a6",
      "width": 311,
      "x": 959,
      "y": 378,
      "zOrder": 7,
      "numberProperties": [],
      "stringProperties": [],
      "initialVariables": []
    },
    {
      "angle": 154,
      "customSize": true,
      "depth": 0,
      "height": 110,
      "layer": "",
      "name": "DirectionalArrowQuarterCircle",
      "persistentUuid": "e4f7b306-89fe-4f26-9119-e003980922ff",
      "width": 128,
      "x": 846,
      "y": 424,
      "zOrder": 8,
      "numberProperties": [],
      "stringProperties": [],
      "initialVariables": []
    }
  ],
  "objects": [
    {
      "adaptCollisionMaskAutomatically": false,
      "assetStoreId": "",
      "name": "tutor_bg",
      "type": "Sprite",
      "updateIfNotVisible": false,
      "variables": [],
      "effects": [],
      "behaviors": [],
      "animations": [
        {
          "name": "",
          "useMultipleDirections": false,
          "directions": [
            {
              "looping": false,
              "timeBetweenFrames": 0.08,
              "sprites": [
                {
                  "hasCustomCollisionMask": false,
                  "image": "assets\\Lv1 BG.png",
                  "points": [],
                  "originPoint": {
                    "name": "origine",
                    "x": 0,
                    "y": 0
                  },
                  "centerPoint": {
                    "automatic": true,
                    "name": "centre",
                    "x": 0,
                    "y": 0
                  },
                  "customCollisionMask": []
                }
              ]
            }
          ]
        }
      ]
    },
    {
      "assetStoreId": "",
      "bold": false,
      "italic": false,
      "name": "titleGameTutor_txt",
      "smoothed": true,
      "type": "TextObject::Text",
      "underlined": false,
      "variables": [],
      "effects": [],
      "behaviors": [],
      "string": "Hướng dẫn Minigame Sound Check",
      "font": "assets\\VNF-Comic Sans.ttf",
      "textAlignment": "left",
      "characterSize": 40,
      "color": {
        "b": 0,
        "g": 0,
        "r": 0
      }
    },
    {
      "assetStoreId": "",
      "bold": false,
      "italic": false,
      "name": "informGameTutor_txt",
      "smoothed": true,
      "type": "TextObject::Text",
      "underlined": false,
      "variables": [],
      "effects": [],
      "behaviors": [],
      "string": "Bấm biểu tượng Loa để nghe \n\n",
      "font": "assets\\VNF-Comic Sans.ttf",
      "textAlignment": "left",
      "characterSize": 30,
      "color": {
        "b": 226,
        "g": 144,
        "r": 74
      }
    },
    {
      "assetStoreId": "",
      "bold": false,
      "italic": false,
      "name": "informGameTutor_txt2",
      "smoothed": true,
      "type": "TextObject::Text",
      "underlined": false,
      "variables": [],
      "effects": [],
      "behaviors": [],
      "string": "Chọn các từ có trong đoạn âm thanh \n\n",
      "font": "assets\\VNF-Comic Sans.ttf",
      "textAlignment": "left",
      "characterSize": 30,
      "color": {
        "b": 226,
        "g": 144,
        "r": 74
      }
    },
    {
      "assetStoreId": "33302f0b615672a2e96316c096e13ad8d7242adba8bd5709538691894f0eae6e",
      "name": "playPronounce_btn",
      "type": "PanelSpriteButton::PanelSpriteButton",
      "variables": [],
      "effects": [],
      "behaviors": [],
      "content": {
        "LeftPadding": 16,
        "RightPadding": 16,
        "PressedLabelOffsetY": 3,
        "BottomPadding": 32,
        "TopPadding": 32,
        "HoveredFadeOutDuration": 0.25
      },
      "childrenContent": {
        "Hovered": {
          "bottomMargin": 16,
          "height": 69,
          "leftMargin": 16,
          "rightMargin": 16,
          "texture": "Blue Button With Shadow_Hovered.png",
          "tiled": true,
          "topMargin": 16,
          "width": 192
        },
        "Idle": {
          "bottomMargin": 16,
          "height": 69,
          "leftMargin": 16,
          "rightMargin": 16,
          "texture": "Blue Button With Shadow_Idle.png",
          "tiled": true,
          "topMargin": 16,
          "width": 192
        },
        "Label": {
          "bold": true,
          "italic": false,
          "smoothed": true,
          "underlined": false,
          "string": "PLAY",
          "font": "assets\\VNF-Comic Sans.ttf",
          "textAlignment": "center",
          "characterSize": 40,
          "color": {
            "b": 255,
            "g": 255,
            "r": 255
          }
        },
        "Pressed": {
          "bottomMargin": 16,
          "height": 69,
          "leftMargin": 16,
          "rightMargin": 16,
          "texture": "Blue Button With Shadow_Pressed.png",
          "tiled": true,
          "topMargin": 16,
          "width": 192
        }
      }
    },
    {
      "adaptCollisionMaskAutomatically": false,
      "assetStoreId": "",
      "name": "NewSprite",
      "type": "Sprite",
      "updateIfNotVisible": false,
      "variables": [],
      "effects": [],
      "behaviors": [],
      "animations": [
        {
          "name": "",
          "useMultipleDirections": false,
          "directions": [
            {
              "looping": false,
              "timeBetweenFrames": 0.08,
              "sprites": [
                {
                  "hasCustomCollisionMask": false,
                  "image": "assets\\tutor pronoun.png",
                  "points": [],
                  "originPoint": {
                    "name": "origine",
                    "x": 0,
                    "y": 0
                  },
                  "centerPoint": {
                    "automatic": true,
                    "name": "centre",
                    "x": 0,
                    "y": 0
                  },
                  "customCollisionMask": []
                }
              ]
            }
          ]
        }
      ]
    }
  ],
  "objectsFolderStructure": {
    "folderName": "__ROOT",
    "children": [
      {
        "objectName": "tutor_bg"
      },
      {
        "objectName": "titleGameTutor_txt"
      },
      {
        "objectName": "informGameTutor_txt"
      },
      {
        "objectName": "informGameTutor_txt2"
      },
      {
        "objectName": "playPronounce_btn"
      },
      {
        "objectName": "NewSprite"
      }
    ]
  },
  "events": [
    {
      "type": "BuiltinCommonInstructions::Standard",
      "conditions": [
        {
          "type": {
            "value": "DepartScene"
          },
          "parameters": [
            ""
          ]
        }
      ],
      "actions": [
        {
          "type": {
            "value": "PlaySound"
          },
          "parameters": [
            "",
            "audio\\tutorial.mp3",
            "yes",
            "30",
            ""
          ]
        }
      ]
    },
    {
      "type": "BuiltinCommonInstructions::Standard",
      "conditions": [
        {
          "type": {
            "value": "PanelSpriteButton::PanelSpriteButton::IsClicked"
          },
          "parameters": [
            "playPronounce_btn",
            ""
          ]
        }
      ],
      "actions": [
        {
          "type": {
            "value": "Scene"
          },
          "parameters": [
            "",
            "\"R2_pronounce4_scence_16\"",
            ""
          ]
        }
      ]
    }
  ],
  "layers": [
    {
      "ambientLightColorB": 200,
      "ambientLightColorG": 200,
      "ambientLightColorR": 200,
      "camera3DFarPlaneDistance": 10000,
      "camera3DFieldOfView": 45,
      "camera3DNearPlaneDistance": 0.1,
      "followBaseLayerCamera": false,
      "isLightingLayer": false,
      "isLocked": false,
      "name": "",
      "renderingType": "",
      "visibility": true,
      "cameras": [
        {
          "defaultSize": true,
          "defaultViewport": true,
          "height": 0,
          "viewportBottom": 1,
          "viewportLeft": 0,
          "viewportRight": 1,
          "viewportTop": 0,
          "width": 0
        }
      ],
      "effects": []
    }
  ],
  "behaviorsSharedData": [
    {
      "name": "Animation",
      "type": "AnimatableCapability::AnimatableBehavior"
    },
    {
      "name": "Effect",
      "type": "EffectCapability::EffectBehavior"
    },
    {
      "name": "Flippable",
      "type": "FlippableCapability::FlippableBehavior"
    },
    {
      "name": "Opacity",
      "type": "OpacityCapability::OpacityBehavior"
    },
    {
      "name": "Resizable",
      "type": "ResizableCapability::ResizableBehavior"
    },
    {
      "name": "Scale",
      "type": "ScalableCapability::ScalableBehavior"
    },
    {
      "name": "Text",
      "type": "TextContainerCapability::TextContainerBehavior"
    }
  ]
}