{
  "b": 209,
  "disableInputWhenNotFocused": true,
  "mangledName": "R5_95diffirentWord3_95scene_9511",
  "name": "R5_diffirentWord3_scene_11",
  "r": 209,
  "standardSortMethod": true,
  "stopSoundsOnStartup": true,
  "title": "",
  "v": 209,
  "uiSettings": {
    "grid": false,
    "gridType": "rectangular",
    "gridWidth": 32,
    "gridHeight": 32,
    "gridOffsetX": 0,
    "gridOffsetY": 0,
    "gridColor": 10401023,
    "gridAlpha": 0.8,
    "snap": false,
    "zoomFactor": 0.4335774304702398,
    "windowMask": true
  },
  "objectsGroups": [],
  "variables": [
    {
      "folded": true,
      "name": "Time_level",
      "type": "number",
      "value": 30
    },
    {
      "folded": true,
      "name": "Tick_win",
      "type": "number",
      "value": 0
    },
    {
      "folded": true,
      "name": "Time_diffirent",
      "type": "number",
      "value": 0
    },
    {
      "folded": true,
      "name": "bonusScore",
      "type": "number",
      "value": 0
    }
  ],
  "instances": [
    {
      "angle": 0,
      "customSize": false,
      "height": 0,
      "layer": "",
      "name": "TIme_level",
      "persistentUuid": "3d49e0da-37eb-4384-b0a8-2092721d1a95",
      "width": 0,
      "x": 1080,
      "y": 115,
      "zOrder": 26,
      "numberProperties": [],
      "stringProperties": [],
      "initialVariables": []
    },
    {
      "angle": 0,
      "customSize": true,
      "depth": 32,
      "height": 69,
      "layer": "",
      "name": "Continue_btn",
      "persistentUuid": "1ad705dd-7c8f-4367-96c8-edebe015961d",
      "width": 389,
      "x": 437,
      "y": -240,
      "zOrder": 58,
      "numberProperties": [],
      "stringProperties": [],
      "initialVariables": []
    },
    {
      "angle": 0,
      "customSize": true,
      "depth": 0,
      "height": 1048,
      "layer": "",
      "name": "board_element",
      "persistentUuid": "996560a1-235c-4b8c-bde6-4171e4045f26",
      "width": 1268,
      "x": 14,
      "y": -153,
      "zOrder": 23,
      "numberProperties": [],
      "stringProperties": [],
      "initialVariables": []
    },
    {
      "angle": 0,
      "customSize": true,
      "depth": 0,
      "height": 479,
      "layer": "",
      "name": "line_time",
      "persistentUuid": "45e91668-07a3-4cec-8851-41330c3a2f9a",
      "width": 64,
      "x": 485,
      "y": 131,
      "zOrder": 24,
      "numberProperties": [],
      "stringProperties": [],
      "initialVariables": []
    },
    {
      "angle": 0,
      "customSize": true,
      "depth": 0,
      "height": 96,
      "layer": "",
      "name": "clockLevel_icon",
      "persistentUuid": "8aab062e-e39a-4c54-83e2-494128eead76",
      "width": 96,
      "x": 978,
      "y": 98,
      "zOrder": 25,
      "numberProperties": [],
      "stringProperties": [],
      "initialVariables": []
    },
    {
      "angle": 0,
      "customSize": false,
      "height": 0,
      "layer": "",
      "name": "clock_choice",
      "persistentUuid": "b03f7cce-8f33-43fc-884b-e81999aacbba",
      "width": 0,
      "x": 259,
      "y": 207,
      "zOrder": 27,
      "numberProperties": [],
      "stringProperties": [],
      "initialVariables": []
    },
    {
      "angle": 0,
      "customSize": false,
      "height": 0,
      "layer": "",
      "name": "sharpener_chocie",
      "persistentUuid": "505d77f7-01f7-420f-8676-efd167c88653",
      "width": 0,
      "x": 241,
      "y": 414,
      "zOrder": 28,
      "numberProperties": [],
      "stringProperties": [],
      "initialVariables": []
    },
    {
      "angle": 0,
      "customSize": false,
      "height": 0,
      "layer": "",
      "name": "class_choice",
      "persistentUuid": "8a85c58a-07fa-4e9a-a6a0-efe0765479c4",
      "width": 0,
      "x": 284,
      "y": 359,
      "zOrder": 29,
      "numberProperties": [],
      "stringProperties": [],
      "initialVariables": []
    },
    {
      "angle": 0,
      "customSize": false,
      "height": 0,
      "layer": "",
      "name": "schoolTopicWord_txt",
      "persistentUuid": "0729a1d2-4459-4aa7-bca0-10bfdefd204d",
      "width": 0,
      "x": 252,
      "y": 155,
      "zOrder": 30,
      "numberProperties": [],
      "stringProperties": [],
      "initialVariables": []
    },
    {
      "angle": 0,
      "customSize": false,
      "height": 0,
      "layer": "",
      "name": "otherTopicWord_txt",
      "persistentUuid": "34b4a90d-e0bf-4dc2-bda2-dfed79324865",
      "width": 0,
      "x": 654,
      "y": 155,
      "zOrder": 31,
      "numberProperties": [],
      "stringProperties": [],
      "initialVariables": []
    },
    {
      "angle": 0,
      "customSize": false,
      "height": 0,
      "layer": "",
      "name": "fish_choice",
      "persistentUuid": "e9262e1b-ee6f-43f3-b900-85259e0d32cc",
      "width": 0,
      "x": 241,
      "y": 307,
      "zOrder": 32,
      "numberProperties": [],
      "stringProperties": [],
      "initialVariables": []
    },
    {
      "angle": 0,
      "customSize": false,
      "height": 0,
      "layer": "",
      "name": "earth_choice",
      "persistentUuid": "0d510083-5d62-4400-8758-f9b48cdde5c9",
      "width": 0,
      "x": 279,
      "y": 259,
      "zOrder": 33,
      "numberProperties": [],
      "stringProperties": [],
      "initialVariables": []
    },
    {
      "angle": 0,
      "customSize": false,
      "height": 0,
      "layer": "",
      "name": "Meat_choice",
      "persistentUuid": "74a5cb5f-8c4b-4897-abf5-5588c9928e9c",
      "width": 0,
      "x": 251,
      "y": 519,
      "zOrder": 34,
      "numberProperties": [],
      "stringProperties": [],
      "initialVariables": []
    },
    {
      "angle": 0,
      "customSize": false,
      "height": 0,
      "layer": "",
      "name": "Hat_choice",
      "persistentUuid": "afcd10ca-7872-4311-a842-69d986238c72",
      "width": 0,
      "x": 1649,
      "y": 534,
      "zOrder": 35,
      "numberProperties": [],
      "stringProperties": [],
      "initialVariables": []
    },
    {
      "angle": 0,
      "customSize": true,
      "depth": 0,
      "height": 868,
      "layer": "",
      "name": "Overlay_opacity",
      "persistentUuid": "34e91745-dc43-4504-9202-cf699f2c68f5",
      "width": 1468,
      "x": -120,
      "y": -81,
      "zOrder": 52,
      "numberProperties": [],
      "stringProperties": [],
      "initialVariables": []
    },
    {
      "angle": 0,
      "customSize": true,
      "depth": 0,
      "height": 962,
      "layer": "",
      "name": "notify_board",
      "persistentUuid": "b78ad5ac-4ee9-4822-b9ee-6f7240f4f02d",
      "width": 964,
      "x": -619,
      "y": 869,
      "zOrder": 53,
      "numberProperties": [],
      "stringProperties": [],
      "initialVariables": []
    },
    {
      "angle": 0,
      "customSize": true,
      "depth": 0,
      "height": 300,
      "layer": "",
      "name": "tick_pass",
      "persistentUuid": "b3eecd9c-c2c7-4f3d-9eb0-e8aee9e30b1d",
      "width": 300,
      "x": 1336,
      "y": -527,
      "zOrder": 54,
      "numberProperties": [],
      "stringProperties": [],
      "initialVariables": []
    },
    {
      "angle": 0,
      "customSize": true,
      "depth": 0,
      "height": 300,
      "layer": "",
      "name": "tick_fasle",
      "persistentUuid": "eb242b44-22ab-49ba-937d-3d437a4d66b9",
      "width": 300,
      "x": -230,
      "y": -313,
      "zOrder": 55,
      "numberProperties": [],
      "stringProperties": [],
      "initialVariables": []
    },
    {
      "angle": 0,
      "customSize": false,
      "height": 0,
      "layer": "",
      "name": "Time_Lose",
      "persistentUuid": "60c7e939-3576-4a96-ad78-b84cf61e0fca",
      "width": 0,
      "x": 1434,
      "y": 935,
      "zOrder": 57,
      "numberProperties": [],
      "stringProperties": [],
      "initialVariables": []
    },
    {
      "angle": 0,
      "customSize": false,
      "height": 0,
      "layer": "",
      "name": "Win_inGame",
      "persistentUuid": "8917922a-8d03-45c7-8182-bf5e6bc65e2d",
      "width": 0,
      "x": -386,
      "y": 252,
      "zOrder": 56,
      "numberProperties": [],
      "stringProperties": [],
      "initialVariables": []
    },
    {
      "angle": 0,
      "customSize": false,
      "height": 0,
      "layer": "",
      "name": "subtract_time10",
      "persistentUuid": "3d445677-5727-413e-87d2-006fe43815c3",
      "width": 0,
      "x": 1095,
      "y": 197,
      "zOrder": 51,
      "numberProperties": [],
      "stringProperties": [],
      "initialVariables": []
    },
    {
      "angle": 0,
      "customSize": false,
      "height": 0,
      "layer": "",
      "name": "laptop_chocie",
      "persistentUuid": "369d909c-b5a7-494b-8e8f-daac6adcae1f",
      "width": 0,
      "x": 263,
      "y": 464,
      "zOrder": 35,
      "numberProperties": [],
      "stringProperties": [],
      "initialVariables": []
    },
    {
      "angle": 0,
      "customSize": false,
      "height": 0,
      "layer": "",
      "name": "highlighter_choice",
      "persistentUuid": "82a056ca-c8cf-412d-9302-d38defd032b7",
      "width": 0,
      "x": 230,
      "y": 572,
      "zOrder": 35,
      "numberProperties": [],
      "stringProperties": [],
      "initialVariables": []
    },
    {
      "angle": 0,
      "customSize": true,
      "depth": 0,
      "height": 90,
      "layer": "",
      "name": "starPoint",
      "persistentUuid": "58321894-c2ff-4b65-bc37-8fd0fcb22b05",
      "width": 90,
      "x": 980,
      "y": 540,
      "zOrder": 25,
      "numberProperties": [],
      "stringProperties": [],
      "initialVariables": []
    },
    {
      "angle": 0,
      "customSize": true,
      "depth": 0,
      "height": 70,
      "layer": "",
      "name": "level2Text",
      "persistentUuid": "b1d2a0c3-7459-4ac8-868b-b0d65ffd3633",
      "width": 285,
      "x": 110,
      "y": 80,
      "zOrder": 26,
      "numberProperties": [],
      "stringProperties": [],
      "initialVariables": []
    },
    {
      "angle": 0,
      "customSize": false,
      "height": 0,
      "layer": "",
      "name": "currentScore",
      "persistentUuid": "e8c8fe6b-aecc-4c15-864c-5a7f8d9a1e22",
      "width": 0,
      "x": 1080,
      "y": 555,
      "zOrder": 26,
      "numberProperties": [],
      "stringProperties": [],
      "initialVariables": []
    },
    {
      "angle": 0,
      "customSize": false,
      "height": 0,
      "layer": "",
      "name": "lv2bg",
      "persistentUuid": "38ef2a56-ff74-4e30-9c4c-bbedc2c2e269",
      "width": 0,
      "x": -246,
      "y": -107,
      "zOrder": 2,
      "numberProperties": [],
      "stringProperties": [],
      "initialVariables": []
    }
  ],
  "objects": [
    {
      "assetStoreId": "",
      "bold": true,
      "italic": false,
      "name": "clock_choice",
      "smoothed": true,
      "type": "TextObject::Text",
      "underlined": false,
      "variables": [],
      "effects": [],
      "behaviors": [],
      "string": "Stapler",
      "font": "assets\\VNF-Comic Sans.ttf",
      "textAlignment": "left",
      "characterSize": 30,
      "color": {
        "b": 255,
        "g": 255,
        "r": 255
      }
    },
    {
      "assetStoreId": "",
      "bold": true,
      "italic": false,
      "name": "Meat_choice",
      "smoothed": true,
      "type": "TextObject::Text",
      "underlined": false,
      "variables": [],
      "effects": [],
      "behaviors": [],
      "string": "Sausage",
      "font": "assets\\VNF-Comic Sans.ttf",
      "textAlignment": "left",
      "characterSize": 30,
      "color": {
        "b": 255,
        "g": 255,
        "r": 255
      }
    },
    {
      "assetStoreId": "",
      "bold": true,
      "italic": false,
      "name": "earth_choice",
      "smoothed": true,
      "type": "TextObject::Text",
      "underlined": false,
      "variables": [],
      "effects": [],
      "behaviors": [],
      "string": "Milk",
      "font": "assets\\VNF-Comic Sans.ttf",
      "textAlignment": "left",
      "characterSize": 30,
      "color": {
        "b": 255,
        "g": 255,
        "r": 255
      }
    },
    {
      "assetStoreId": "",
      "bold": true,
      "italic": false,
      "name": "sharpener_chocie",
      "smoothed": true,
      "type": "TextObject::Text",
      "underlined": false,
      "variables": [],
      "effects": [],
      "behaviors": [],
      "string": "Sharpener",
      "font": "assets\\VNF-Comic Sans.ttf",
      "textAlignment": "left",
      "characterSize": 30,
      "color": {
        "b": 255,
        "g": 255,
        "r": 255
      }
    },
    {
      "assetStoreId": "",
      "bold": true,
      "italic": false,
      "name": "laptop_chocie",
      "smoothed": true,
      "type": "TextObject::Text",
      "underlined": false,
      "variables": [],
      "effects": [],
      "behaviors": [],
      "string": "Laptop",
      "font": "assets\\VNF-Comic Sans.ttf",
      "textAlignment": "left",
      "characterSize": 30,
      "color": {
        "b": 255,
        "g": 255,
        "r": 255
      }
    },
    {
      "assetStoreId": "",
      "bold": true,
      "italic": false,
      "name": "class_choice",
      "smoothed": true,
      "type": "TextObject::Text",
      "underlined": false,
      "variables": [],
      "effects": [],
      "behaviors": [],
      "string": "Bag",
      "font": "assets\\VNF-Comic Sans.ttf",
      "textAlignment": "left",
      "characterSize": 30,
      "color": {
        "b": 255,
        "g": 255,
        "r": 255
      }
    },
    {
      "assetStoreId": "",
      "bold": true,
      "italic": false,
      "name": "highlighter_choice",
      "smoothed": true,
      "type": "TextObject::Text",
      "underlined": false,
      "variables": [],
      "effects": [],
      "behaviors": [],
      "string": "Highlighter",
      "font": "assets\\VNF-Comic Sans.ttf",
      "textAlignment": "left",
      "characterSize": 30,
      "color": {
        "b": 255,
        "g": 255,
        "r": 255
      }
    },
    {
      "assetStoreId": "",
      "bold": true,
      "italic": false,
      "name": "Bag_choice",
      "smoothed": true,
      "type": "TextObject::Text",
      "underlined": false,
      "variables": [],
      "effects": [],
      "behaviors": [],
      "string": "Bag",
      "font": "",
      "textAlignment": "left",
      "characterSize": 30,
      "color": {
        "b": 226,
        "g": 144,
        "r": 74
      }
    },
    {
      "assetStoreId": "",
      "bold": true,
      "italic": false,
      "name": "fish_choice",
      "smoothed": true,
      "type": "TextObject::Text",
      "underlined": false,
      "variables": [],
      "effects": [],
      "behaviors": [],
      "string": "Ice-cream",
      "font": "assets\\VNF-Comic Sans.ttf",
      "textAlignment": "left",
      "characterSize": 30,
      "color": {
        "b": 255,
        "g": 255,
        "r": 255
      }
    },
    {
      "assetStoreId": "",
      "height": 32,
      "name": "Backgorund_End",
      "texture": "assets\\New image3.png",
      "type": "TiledSpriteObject::TiledSprite",
      "width": 32,
      "variables": [],
      "effects": [],
      "behaviors": []
    },
    {
      "assetStoreId": "",
      "bold": true,
      "italic": false,
      "name": "Win",
      "smoothed": true,
      "type": "TextObject::Text",
      "underlined": false,
      "variables": [],
      "effects": [],
      "behaviors": [],
      "string": "DONE !",
      "font": "",
      "textAlignment": "left",
      "characterSize": 100,
      "color": {
        "b": 104,
        "g": 104,
        "r": 241
      }
    },
    {
      "assetStoreId": "",
      "bold": false,
      "italic": false,
      "name": "TIme_level",
      "smoothed": true,
      "type": "TextObject::Text",
      "underlined": false,
      "variables": [],
      "effects": [],
      "behaviors": [],
      "string": " 30",
      "font": "assets\\VNF-Comic Sans.ttf",
      "textAlignment": "left",
      "characterSize": 50,
      "color": {
        "b": 255,
        "g": 255,
        "r": 255
      }
    },
    {
      "assetStoreId": "569b45d3c7c34f7706563239938d04ca599016ff9857ee38c945c72330d4339e",
      "name": "Continue_btn",
      "type": "PanelSpriteButton::PanelSpriteButton",
      "variables": [],
      "effects": [],
      "behaviors": [],
      "content": {
        "LeftPadding": 16,
        "RightPadding": 16,
        "PressedLabelOffsetY": 3,
        "BottomPadding": 32,
        "TopPadding": 32,
        "HoveredFadeOutDuration": 0.25
      },
      "childrenContent": {
        "Hovered": {
          "bottomMargin": 16,
          "height": 69,
          "leftMargin": 16,
          "rightMargin": 16,
          "texture": "Green Button With Shadow_Hovered.png",
          "tiled": true,
          "topMargin": 16,
          "width": 192
        },
        "Idle": {
          "bottomMargin": 16,
          "height": 69,
          "leftMargin": 16,
          "rightMargin": 16,
          "texture": "Green Button With Shadow_Idle.png",
          "tiled": true,
          "topMargin": 16,
          "width": 192
        },
        "Label": {
          "bold": false,
          "italic": false,
          "smoothed": true,
          "underlined": false,
          "string": "Continue",
          "font": "assets\\VNF-Comic Sans.ttf",
          "textAlignment": "center",
          "characterSize": 50,
          "color": {
            "b": 255,
            "g": 255,
            "r": 255
          }
        },
        "Pressed": {
          "bottomMargin": 16,
          "height": 69,
          "leftMargin": 16,
          "rightMargin": 16,
          "texture": "Green Button With Shadow_Pressed.png",
          "tiled": true,
          "topMargin": 16,
          "width": 192
        }
      }
    },
    {
      "adaptCollisionMaskAutomatically": false,
      "assetStoreId": "",
      "name": "Line_delte",
      "type": "Sprite",
      "updateIfNotVisible": false,
      "variables": [],
      "effects": [],
      "behaviors": [],
      "animations": [
        {
          "name": "NewSprite",
          "useMultipleDirections": false,
          "directions": [
            {
              "looping": false,
              "metadata": "{\"pskl\":{}}",
              "timeBetweenFrames": 0.08,
              "sprites": [
                {
                  "hasCustomCollisionMask": true,
                  "image": "NewSprite15",
                  "points": [],
                  "originPoint": {
                    "name": "origine",
                    "x": 0,
                    "y": 0
                  },
                  "centerPoint": {
                    "automatic": true,
                    "name": "centre",
                    "x": 0,
                    "y": 0
                  },
                  "customCollisionMask": [
                    [
                      {
                        "x": 0,
                        "y": 25
                      },
                      {
                        "x": 64,
                        "y": 25
                      },
                      {
                        "x": 64,
                        "y": 32
                      },
                      {
                        "x": 0,
                        "y": 32
                      }
                    ]
                  ]
                }
              ]
            }
          ]
        }
      ]
    },
    {
      "adaptCollisionMaskAutomatically": false,
      "assetStoreId": "",
      "name": "line_delete",
      "type": "Sprite",
      "updateIfNotVisible": false,
      "variables": [],
      "effects": [],
      "behaviors": [],
      "animations": [
        {
          "name": "",
          "useMultipleDirections": false,
          "directions": [
            {
              "looping": false,
              "timeBetweenFrames": 0.08,
              "sprites": [
                {
                  "hasCustomCollisionMask": false,
                  "image": "assets\\gạch1.png",
                  "points": [],
                  "originPoint": {
                    "name": "origine",
                    "x": 0,
                    "y": 0
                  },
                  "centerPoint": {
                    "automatic": true,
                    "name": "centre",
                    "x": 0,
                    "y": 0
                  },
                  "customCollisionMask": []
                }
              ]
            }
          ]
        }
      ]
    },
    {
      "adaptCollisionMaskAutomatically": false,
      "assetStoreId": "",
      "name": "line_time",
      "type": "Sprite",
      "updateIfNotVisible": false,
      "variables": [],
      "effects": [],
      "behaviors": [],
      "animations": [
        {
          "name": "NewSprite",
          "useMultipleDirections": false,
          "directions": [
            {
              "looping": false,
              "metadata": "{\"pskl\":{}}",
              "timeBetweenFrames": 0.08,
              "sprites": [
                {
                  "hasCustomCollisionMask": false,
                  "image": "NewSprite21",
                  "points": [],
                  "originPoint": {
                    "name": "origine",
                    "x": 0,
                    "y": 0
                  },
                  "centerPoint": {
                    "automatic": true,
                    "name": "centre",
                    "x": 0,
                    "y": 0
                  },
                  "customCollisionMask": []
                }
              ]
            }
          ]
        }
      ]
    },
    {
      "assetStoreId": "",
      "bold": false,
      "italic": false,
      "name": "schoolTopicWord_txt",
      "smoothed": true,
      "type": "TextObject::Text",
      "underlined": false,
      "variables": [],
      "effects": [],
      "behaviors": [],
      "string": "School",
      "font": "assets\\VNF-Comic Sans.ttf",
      "textAlignment": "left",
      "characterSize": 40,
      "color": {
        "b": 28,
        "g": 231,
        "r": 248
      }
    },
    {
      "assetStoreId": "",
      "bold": false,
      "italic": false,
      "name": "otherTopicWord_txt",
      "smoothed": true,
      "type": "TextObject::Text",
      "underlined": false,
      "variables": [],
      "effects": [],
      "behaviors": [],
      "string": "Others",
      "font": "assets\\VNF-Comic Sans.ttf",
      "textAlignment": "left",
      "characterSize": 40,
      "color": {
        "b": 28,
        "g": 231,
        "r": 248
      }
    }
  ],
  "objectsFolderStructure": {
    "folderName": "__ROOT",
    "children": [
      {
        "objectName": "clock_choice"
      },
      {
        "objectName": "Meat_choice"
      },
      {
        "objectName": "earth_choice"
      },
      {
        "objectName": "sharpener_chocie"
      },
      {
        "objectName": "laptop_chocie"
      },
      {
        "objectName": "class_choice"
      },
      {
        "objectName": "highlighter_choice"
      },
      {
        "objectName": "Bag_choice"
      },
      {
        "objectName": "fish_choice"
      },
      {
        "objectName": "Backgorund_End"
      },
      {
        "objectName": "Win"
      },
      {
        "objectName": "TIme_level"
      },
      {
        "objectName": "Continue_btn"
      },
      {
        "objectName": "Line_delte"
      },
      {
        "objectName": "line_delete"
      },
      {
        "objectName": "line_time"
      },
      {
        "objectName": "schoolTopicWord_txt"
      },
      {
        "objectName": "otherTopicWord_txt"
      }
    ]
  },
  "events": [
    {
      "type": "BuiltinCommonInstructions::Standard",
      "conditions": [
        {
          "type": {
            "value": "DepartScene"
          },
          "parameters": [
            ""
          ]
        }
      ],
      "actions": [
        {
          "type": {
            "value": "Cache"
          },
          "parameters": [
            "Win_inGame"
          ]
        },
        {
          "type": {
            "value": "Cache"
          },
          "parameters": [
            "Time_Lose"
          ]
        },
        {
          "type": {
            "value": "ResetTimer"
          },
          "parameters": [
            "",
            "\"Time_level\""
          ]
        },
        {
          "type": {
            "value": "Cache"
          },
          "parameters": [
            "Continue_btn"
          ]
        },
        {
          "type": {
            "value": "ResetTimer"
          },
          "parameters": [
            "",
            "\"Time_diffirent\""
          ]
        },
        {
          "type": {
            "value": "Cache"
          },
          "parameters": [
            "notify_board"
          ]
        },
        {
          "type": {
            "value": "Cache"
          },
          "parameters": [
            "Overlay_opacity"
          ]
        },
        {
          "type": {
            "value": "Cache"
          },
          "parameters": [
            "tick_pass"
          ]
        },
        {
          "type": {
            "value": "Cache"
          },
          "parameters": [
            "tick_fasle"
          ]
        },
        {
          "type": {
            "value": "Cache"
          },
          "parameters": [
            "subtract_time10"
          ]
        },
        {
          "type": {
            "value": "PlaySound"
          },
          "parameters": [
            "",
            "audio\\ingame.mp3",
            "no",
            "30",
            "1"
          ]
        },
        {
          "type": {
            "value": "TextObject::String"
          },
          "parameters": [
            "currentScore",
            "=",
            "ToString(GlobalVariable(playerScore))"
          ]
        }
      ]
    },
    {
      "type": "BuiltinCommonInstructions::Standard",
      "conditions": [
        {
          "type": {
            "value": "CompareTimer"
          },
          "parameters": [
            "",
            "\"Time_level\"",
            ">=",
            "1"
          ]
        },
        {
          "type": {
            "value": "BuiltinCommonInstructions::Once"
          },
          "parameters": []
        }
      ],
      "actions": [
        {
          "type": {
            "value": "ModVarScene"
          },
          "parameters": [
            "Time_level",
            "-",
            "1"
          ]
        },
        {
          "type": {
            "value": "ResetTimer"
          },
          "parameters": [
            "",
            "\"Time_level\""
          ]
        }
      ]
    },
    {
      "type": "BuiltinCommonInstructions::Standard",
      "conditions": [
        {
          "type": {
            "value": "CompareTimer"
          },
          "parameters": [
            "",
            "\"Time_diffirent\"",
            ">=",
            "1"
          ]
        },
        {
          "type": {
            "value": "BuiltinCommonInstructions::Once"
          },
          "parameters": []
        }
      ],
      "actions": [
        {
          "type": {
            "value": "ModVarScene"
          },
          "parameters": [
            "Time_diffirent",
            "+",
            "1"
          ]
        },
        {
          "type": {
            "value": "ResetTimer"
          },
          "parameters": [
            "",
            "\"Time_diffirent\""
          ]
        }
      ]
    },
    {
      "type": "BuiltinCommonInstructions::Standard",
      "conditions": [],
      "actions": [
        {
          "type": {
            "value": "TextObject::String"
          },
          "parameters": [
            "TIme_level",
            "=",
            "ToString(Variable(Time_level))"
          ]
        }
      ]
    },
    {
      "type": "BuiltinCommonInstructions::Standard",
      "conditions": [
        {
          "type": {
            "value": "SourisSurObjet"
          },
          "parameters": [
            "fish_choice",
            "",
            "",
            ""
          ]
        },
        {
          "type": {
            "value": "VarScene"
          },
          "parameters": [
            "Time_level",
            ">",
            "0"
          ]
        },
        {
          "type": {
            "value": "VarScene"
          },
          "parameters": [
            "Tick_win",
            "<",
            "3"
          ]
        },
        {
          "type": {
            "value": "MouseButtonReleased"
          },
          "parameters": [
            "",
            "Left"
          ]
        }
      ],
      "actions": [
        {
          "type": {
            "value": "PlaySound"
          },
          "parameters": [
            "",
            "audio\\true.mp3",
            "no",
            "100",
            "1"
          ]
        },
        {
          "type": {
            "value": "ModVarScene"
          },
          "parameters": [
            "Tick_win",
            "+",
            "1"
          ]
        },
        {
          "type": {
            "value": "MettreX"
          },
          "parameters": [
            "fish_choice",
            "=",
            "684"
          ]
        }
      ]
    },
    {
      "type": "BuiltinCommonInstructions::Standard",
      "conditions": [
        {
          "type": {
            "value": "SourisSurObjet"
          },
          "parameters": [
            "Meat_choice",
            "",
            "",
            ""
          ]
        },
        {
          "type": {
            "value": "VarScene"
          },
          "parameters": [
            "Time_level",
            ">",
            "0"
          ]
        },
        {
          "type": {
            "value": "VarScene"
          },
          "parameters": [
            "Tick_win",
            "<",
            "3"
          ]
        },
        {
          "type": {
            "value": "MouseButtonReleased"
          },
          "parameters": [
            "",
            "Left"
          ]
        }
      ],
      "actions": [
        {
          "type": {
            "value": "PlaySound"
          },
          "parameters": [
            "",
            "audio\\true.mp3",
            "no",
            "100",
            "1"
          ]
        },
        {
          "type": {
            "value": "ModVarScene"
          },
          "parameters": [
            "Tick_win",
            "+",
            "1"
          ]
        },
        {
          "type": {
            "value": "MettreX"
          },
          "parameters": [
            "Meat_choice",
            "=",
            "684"
          ]
        }
      ]
    },
    {
      "type": "BuiltinCommonInstructions::Standard",
      "conditions": [
        {
          "type": {
            "value": "SourisSurObjet"
          },
          "parameters": [
            "sharpener_chocie",
            "",
            "",
            ""
          ]
        },
        {
          "type": {
            "value": "VarScene"
          },
          "parameters": [
            "Time_level",
            ">",
            "0"
          ]
        },
        {
          "type": {
            "value": "VarScene"
          },
          "parameters": [
            "Tick_win",
            "<",
            "3"
          ]
        },
        {
          "type": {
            "value": "MouseButtonReleased"
          },
          "parameters": [
            "",
            "Left"
          ]
        }
      ],
      "actions": [
        {
          "type": {
            "value": "PlaySound"
          },
          "parameters": [
            "",
            "audio\\false.mp3",
            "no",
            "100",
            "1"
          ]
        },
        {
          "type": {
            "value": "ModVarScene"
          },
          "parameters": [
            "Time_level",
            "-",
            "5"
          ]
        },
        {
          "type": {
            "value": "ResetTimer"
          },
          "parameters": [
            "",
            "\"Time_subtractTime\""
          ]
        },
        {
          "type": {
            "value": "Montre"
          },
          "parameters": [
            "subtract_time10",
            ""
          ]
        }
      ]
    },
    {
      "type": "BuiltinCommonInstructions::Standard",
      "conditions": [
        {
          "type": {
            "value": "SourisSurObjet"
          },
          "parameters": [
            "highlighter_choice",
            "",
            "",
            ""
          ]
        },
        {
          "type": {
            "value": "VarScene"
          },
          "parameters": [
            "Time_level",
            ">",
            "0"
          ]
        },
        {
          "type": {
            "value": "VarScene"
          },
          "parameters": [
            "Tick_win",
            "<",
            "3"
          ]
        },
        {
          "type": {
            "value": "MouseButtonReleased"
          },
          "parameters": [
            "",
            "Left"
          ]
        }
      ],
      "actions": [
        {
          "type": {
            "value": "PlaySound"
          },
          "parameters": [
            "",
            "audio\\false.mp3",
            "no",
            "100",
            "1"
          ]
        },
        {
          "type": {
            "value": "ModVarScene"
          },
          "parameters": [
            "Time_level",
            "-",
            "5"
          ]
        },
        {
          "type": {
            "value": "ResetTimer"
          },
          "parameters": [
            "",
            "\"Time_subtractTime\""
          ]
        },
        {
          "type": {
            "value": "Montre"
          },
          "parameters": [
            "subtract_time10",
            ""
          ]
        }
      ]
    },
    {
      "type": "BuiltinCommonInstructions::Standard",
      "conditions": [
        {
          "type": {
            "value": "SourisSurObjet"
          },
          "parameters": [
            "laptop_chocie",
            "",
            "",
            ""
          ]
        },
        {
          "type": {
            "value": "VarScene"
          },
          "parameters": [
            "Time_level",
            ">",
            "0"
          ]
        },
        {
          "type": {
            "value": "VarScene"
          },
          "parameters": [
            "Tick_win",
            "<",
            "3"
          ]
        },
        {
          "type": {
            "value": "MouseButtonReleased"
          },
          "parameters": [
            "",
            "Left"
          ]
        }
      ],
      "actions": [
        {
          "type": {
            "value": "PlaySound"
          },
          "parameters": [
            "",
            "audio\\false.mp3",
            "no",
            "100",
            "1"
          ]
        },
        {
          "type": {
            "value": "ModVarScene"
          },
          "parameters": [
            "Time_level",
            "-",
            "5"
          ]
        },
        {
          "type": {
            "value": "ResetTimer"
          },
          "parameters": [
            "",
            "\"Time_subtractTime\""
          ]
        },
        {
          "type": {
            "value": "Montre"
          },
          "parameters": [
            "subtract_time10",
            ""
          ]
        }
      ]
    },
    {
      "type": "BuiltinCommonInstructions::Standard",
      "conditions": [
        {
          "type": {
            "value": "SourisSurObjet"
          },
          "parameters": [
            "class_choice",
            "",
            "",
            ""
          ]
        },
        {
          "type": {
            "value": "VarScene"
          },
          "parameters": [
            "Time_level",
            ">",
            "0"
          ]
        },
        {
          "type": {
            "value": "VarScene"
          },
          "parameters": [
            "Tick_win",
            "<",
            "3"
          ]
        },
        {
          "type": {
            "value": "MouseButtonReleased"
          },
          "parameters": [
            "",
            "Left"
          ]
        }
      ],
      "actions": [
        {
          "type": {
            "value": "PlaySound"
          },
          "parameters": [
            "",
            "audio\\false.mp3",
            "no",
            "100",
            "1"
          ]
        },
        {
          "type": {
            "value": "ModVarScene"
          },
          "parameters": [
            "Time_level",
            "-",
            "5"
          ]
        },
        {
          "type": {
            "value": "ResetTimer"
          },
          "parameters": [
            "",
            "\"Time_subtractTime\""
          ]
        },
        {
          "type": {
            "value": "Montre"
          },
          "parameters": [
            "subtract_time10",
            ""
          ]
        }
      ]
    },
    {
      "type": "BuiltinCommonInstructions::Standard",
      "conditions": [
        {
          "type": {
            "value": "SourisSurObjet"
          },
          "parameters": [
            "clock_choice",
            "",
            "",
            ""
          ]
        },
        {
          "type": {
            "value": "VarScene"
          },
          "parameters": [
            "Time_level",
            ">",
            "0"
          ]
        },
        {
          "type": {
            "value": "VarScene"
          },
          "parameters": [
            "Tick_win",
            "<",
            "3"
          ]
        },
        {
          "type": {
            "value": "MouseButtonReleased"
          },
          "parameters": [
            "",
            "Left"
          ]
        }
      ],
      "actions": [
        {
          "type": {
            "value": "PlaySound"
          },
          "parameters": [
            "",
            "audio\\false.mp3",
            "no",
            "100",
            "1"
          ]
        },
        {
          "type": {
            "value": "ModVarScene"
          },
          "parameters": [
            "Time_level",
            "-",
            "5"
          ]
        },
        {
          "type": {
            "value": "ResetTimer"
          },
          "parameters": [
            "",
            "\"Time_subtractTime\""
          ]
        },
        {
          "type": {
            "value": "Montre"
          },
          "parameters": [
            "subtract_time10",
            ""
          ]
        }
      ]
    },
    {
      "type": "BuiltinCommonInstructions::Standard",
      "conditions": [
        {
          "type": {
            "value": "SourisSurObjet"
          },
          "parameters": [
            "earth_choice",
            "",
            "",
            ""
          ]
        },
        {
          "type": {
            "value": "VarScene"
          },
          "parameters": [
            "Time_level",
            ">",
            "0"
          ]
        },
        {
          "type": {
            "value": "VarScene"
          },
          "parameters": [
            "Tick_win",
            "<",
            "3"
          ]
        },
        {
          "type": {
            "value": "MouseButtonReleased"
          },
          "parameters": [
            "",
            "Left"
          ]
        }
      ],
      "actions": [
        {
          "type": {
            "value": "PlaySound"
          },
          "parameters": [
            "",
            "audio\\true.mp3",
            "no",
            "100",
            "1"
          ]
        },
        {
          "type": {
            "value": "ModVarScene"
          },
          "parameters": [
            "Tick_win",
            "+",
            "1"
          ]
        },
        {
          "type": {
            "value": "MettreX"
          },
          "parameters": [
            "earth_choice",
            "=",
            "684"
          ]
        }
      ]
    },
    {
      "type": "BuiltinCommonInstructions::Standard",
      "conditions": [
        {
          "type": {
            "value": "CompareTimer"
          },
          "parameters": [
            "",
            "\"Time_subtractTime\"",
            ">=",
            "0.8"
          ]
        }
      ],
      "actions": [
        {
          "type": {
            "value": "Cache"
          },
          "parameters": [
            "subtract_time10"
          ]
        },
        {
          "type": {
            "value": "ResetTimer"
          },
          "parameters": [
            "",
            "\"Time_subtractTime\""
          ]
        }
      ]
    },
    {
      "type": "BuiltinCommonInstructions::Standard",
      "conditions": [
        {
          "type": {
            "value": "VarScene"
          },
          "parameters": [
            "Tick_win",
            "<",
            "3"
          ]
        },
        {
          "type": {
            "value": "VarScene"
          },
          "parameters": [
            "Time_level",
            "<=",
            "0"
          ]
        },
        {
          "type": {
            "value": "BuiltinCommonInstructions::Once"
          },
          "parameters": []
        }
      ],
      "actions": [
        {
          "type": {
            "value": "ChangeTimeScale"
          },
          "parameters": [
            "",
            "0"
          ]
        },
        {
          "type": {
            "value": "Montre"
          },
          "parameters": [
            "Time_Lose",
            "="
          ]
        },
        {
          "type": {
            "value": "MettreX"
          },
          "parameters": [
            "Time_Lose",
            "=",
            "566"
          ]
        },
        {
          "type": {
            "value": "MettreY"
          },
          "parameters": [
            "Time_Lose",
            "=",
            "397"
          ]
        },
        {
          "type": {
            "value": "Montre"
          },
          "parameters": [
            "tick_fasle",
            "="
          ]
        },
        {
          "type": {
            "value": "MettreX"
          },
          "parameters": [
            "tick_fasle",
            "=",
            "497"
          ]
        },
        {
          "type": {
            "value": "MettreY"
          },
          "parameters": [
            "tick_fasle",
            "=",
            "112"
          ]
        },
        {
          "type": {
            "value": "Montre"
          },
          "parameters": [
            "Continue_btn",
            ""
          ]
        },
        {
          "type": {
            "value": "MettreX"
          },
          "parameters": [
            "Continue_btn",
            "=",
            "455"
          ]
        },
        {
          "type": {
            "value": "MettreY"
          },
          "parameters": [
            "Continue_btn",
            "=",
            "482"
          ]
        },
        {
          "type": {
            "value": "Montre"
          },
          "parameters": [
            "notify_board",
            ""
          ]
        },
        {
          "type": {
            "value": "MettreX"
          },
          "parameters": [
            "notify_board",
            "=",
            "157"
          ]
        },
        {
          "type": {
            "value": "MettreY"
          },
          "parameters": [
            "notify_board",
            "=",
            "-58"
          ]
        },
        {
          "type": {
            "value": "Montre"
          },
          "parameters": [
            "Overlay_opacity",
            ""
          ]
        },
        {
          "type": {
            "value": "ModVarGlobal"
          },
          "parameters": [
            "playerScore",
            "+",
            "20"
          ]
        },
        {
          "type": {
            "value": "ModVarScene"
          },
          "parameters": [
            "bonusScore",
            "=",
            "0"
          ]
        }
      ]
    },
    {
      "type": "BuiltinCommonInstructions::Standard",
      "conditions": [
        {
          "type": {
            "value": "VarScene"
          },
          "parameters": [
            "Tick_win",
            "=",
            "3"
          ]
        },
        {
          "type": {
            "value": "VarScene"
          },
          "parameters": [
            "Time_level",
            ">",
            "0"
          ]
        },
        {
          "type": {
            "value": "BuiltinCommonInstructions::Once"
          },
          "parameters": []
        }
      ],
      "actions": [
        {
          "type": {
            "value": "ChangeTimeScale"
          },
          "parameters": [
            "",
            "0"
          ]
        },
        {
          "type": {
            "value": "Montre"
          },
          "parameters": [
            "Win_inGame",
            "="
          ]
        },
        {
          "type": {
            "value": "MettreX"
          },
          "parameters": [
            "Win_inGame",
            "=",
            "566"
          ]
        },
        {
          "type": {
            "value": "MettreY"
          },
          "parameters": [
            "Win_inGame",
            "=",
            "397"
          ]
        },
        {
          "type": {
            "value": "Montre"
          },
          "parameters": [
            "tick_pass",
            "="
          ]
        },
        {
          "type": {
            "value": "MettreX"
          },
          "parameters": [
            "tick_pass",
            "=",
            "497"
          ]
        },
        {
          "type": {
            "value": "MettreY"
          },
          "parameters": [
            "tick_pass",
            "=",
            "112"
          ]
        },
        {
          "type": {
            "value": "Montre"
          },
          "parameters": [
            "Continue_btn",
            ""
          ]
        },
        {
          "type": {
            "value": "MettreX"
          },
          "parameters": [
            "Continue_btn",
            "=",
            "455"
          ]
        },
        {
          "type": {
            "value": "MettreY"
          },
          "parameters": [
            "Continue_btn",
            "=",
            "482"
          ]
        },
        {
          "type": {
            "value": "Montre"
          },
          "parameters": [
            "notify_board",
            ""
          ]
        },
        {
          "type": {
            "value": "MettreX"
          },
          "parameters": [
            "notify_board",
            "=",
            "157"
          ]
        },
        {
          "type": {
            "value": "MettreY"
          },
          "parameters": [
            "notify_board",
            "=",
            "-58"
          ]
        },
        {
          "type": {
            "value": "ModVarScene"
          },
          "parameters": [
            "bonusScore",
            "=",
            "Variable(Time_level)"
          ]
        },
        {
          "type": {
            "value": "ModVarGlobal"
          },
          "parameters": [
            "playerScore",
            "+",
            "70 + Variable(bonusScore)"
          ]
        },
        {
          "type": {
            "value": "Montre"
          },
          "parameters": [
            "Overlay_opacity",
            ""
          ]
        }
      ]
    },
    {
      "type": "BuiltinCommonInstructions::Standard",
      "conditions": [
        {
          "type": {
            "value": "PanelSpriteButton::PanelSpriteButton::IsClicked"
          },
          "parameters": [
            "Continue_btn",
            ""
          ]
        }
      ],
      "actions": [
        {
          "type": {
            "value": "ModVarGlobal"
          },
          "parameters": [
            "stackPassGame",
            "+",
            "1"
          ]
        }
      ]
    },
    {
      "type": "BuiltinCommonInstructions::Standard",
      "conditions": [
        {
          "type": {
            "value": "VarGlobal"
          },
          "parameters": [
            "stackPassGame",
            "=",
            "8"
          ]
        }
      ],
      "actions": [
        {
          "type": {
            "value": "Scene"
          },
          "parameters": [
            "",
            "\"R5_result_scene\"",
            ""
          ]
        }
      ]
    }
  ],
  "layers": [
    {
      "ambientLightColorB": 200,
      "ambientLightColorG": 200,
      "ambientLightColorR": 200,
      "camera3DFarPlaneDistance": 10000,
      "camera3DFieldOfView": 45,
      "camera3DNearPlaneDistance": 0.1,
      "followBaseLayerCamera": false,
      "isLightingLayer": false,
      "isLocked": false,
      "name": "",
      "renderingType": "",
      "visibility": true,
      "cameras": [
        {
          "defaultSize": true,
          "defaultViewport": true,
          "height": 0,
          "viewportBottom": 1,
          "viewportLeft": 0,
          "viewportRight": 1,
          "viewportTop": 0,
          "width": 0
        }
      ],
      "effects": []
    }
  ],
  "behaviorsSharedData": [
    {
      "name": "Animation",
      "type": "AnimatableCapability::AnimatableBehavior"
    },
    {
      "name": "Effect",
      "type": "EffectCapability::EffectBehavior"
    },
    {
      "name": "Flippable",
      "type": "FlippableCapability::FlippableBehavior"
    },
    {
      "name": "Opacity",
      "type": "OpacityCapability::OpacityBehavior"
    },
    {
      "name": "Resizable",
      "type": "ResizableCapability::ResizableBehavior"
    },
    {
      "name": "Scale",
      "type": "ScalableCapability::ScalableBehavior"
    },
    {
      "name": "Text",
      "type": "TextContainerCapability::TextContainerBehavior"
    }
  ]
}