{
  "b": 209,
  "disableInputWhenNotFocused": true,
  "mangledName": "R5_95listPic3_95scene_957",
  "name": "R5_listPic3_scene_7",
  "r": 209,
  "standardSortMethod": true,
  "stopSoundsOnStartup": true,
  "title": "",
  "v": 209,
  "uiSettings": {
    "grid": false,
    "gridType": "rectangular",
    "gridWidth": 32,
    "gridHeight": 32,
    "gridOffsetX": 0,
    "gridOffsetY": 0,
    "gridColor": 10401023,
    "gridAlpha": 0.8,
    "snap": false,
    "zoomFactor": 0.40575189059438405,
    "windowMask": false
  },
  "objectsGroups": [],
  "variables": [
    {
      "folded": true,
      "name": "Time_level",
      "type": "number",
      "value": 30
    },
    {
      "folded": true,
      "name": "Score_hiddenPass",
      "type": "number",
      "value": 0
    },
    {
      "folded": true,
      "name": "Time_listPic",
      "type": "number",
      "value": 0
    },
    {
      "folded": true,
      "name": "bonusScore",
      "type": "number",
      "value": 0
    }
  ],
  "instances": [
    {
      "angle": 0,
      "customSize": false,
      "height": 0,
      "layer": "",
      "name": "pencil_choice",
      "persistentUuid": "271eb2a0-09c7-4383-9de3-c63401034ff4",
      "width": 0,
      "x": 837,
      "y": 334,
      "zOrder": 35,
      "numberProperties": [],
      "stringProperties": [],
      "initialVariables": []
    },
    {
      "angle": 0,
      "customSize": false,
      "height": 0,
      "layer": "",
      "name": "Time_Level",
      "persistentUuid": "10066771-bb38-417f-859f-3d1bbd083e86",
      "width": 0,
      "x": 1080,
      "y": 115,
      "zOrder": 29,
      "numberProperties": [],
      "stringProperties": [],
      "initialVariables": []
    },
    {
      "angle": 0,
      "customSize": true,
      "depth": 32,
      "height": 69,
      "layer": "",
      "name": "Continue_btn",
      "persistentUuid": "d307dba4-beb2-4fc7-b8ed-d53df9b28ca4",
      "width": 441,
      "x": 408,
      "y": -286,
      "zOrder": 77,
      "numberProperties": [],
      "stringProperties": [],
      "initialVariables": []
    },
    {
      "angle": 0,
      "customSize": true,
      "depth": 0,
      "height": 839,
      "layer": "",
      "name": "aboutGame_bg",
      "persistentUuid": "88527f34-9b1d-4eee-a3df-8a882125f9be",
      "width": 1459,
      "x": -131,
      "y": -95,
      "zOrder": 1,
      "numberProperties": [],
      "stringProperties": [],
      "initialVariables": []
    },
    {
      "angle": 0,
      "customSize": true,
      "depth": 0,
      "height": 1048,
      "layer": "",
      "name": "board_element",
      "persistentUuid": "d38802f4-0e67-45a4-839e-9c38f09d0acb",
      "width": 1268,
      "x": 14,
      "y": -153,
      "zOrder": 27,
      "numberProperties": [],
      "stringProperties": [],
      "initialVariables": []
    },
    {
      "angle": 0,
      "customSize": true,
      "depth": 0,
      "height": 96,
      "layer": "",
      "name": "clockLevel_icon",
      "persistentUuid": "110658b4-455f-49d9-ac60-69f3d486e170",
      "width": 96,
      "x": 978,
      "y": 98,
      "zOrder": 28,
      "numberProperties": [],
      "stringProperties": [],
      "initialVariables": []
    },
    {
      "angle": 0,
      "customSize": false,
      "height": 0,
      "layer": "",
      "name": "scissor_choice",
      "persistentUuid": "5aa17f7c-37ae-49d5-9e98-7e4ed4806d82",
      "width": 0,
      "x": 839,
      "y": 397,
      "zOrder": 36,
      "numberProperties": [],
      "stringProperties": [],
      "initialVariables": []
    },
    {
      "angle": 0,
      "customSize": false,
      "height": 0,
      "layer": "",
      "name": "sharpener_choice",
      "persistentUuid": "25571e4e-ba29-43a5-8551-28136a318777",
      "width": 0,
      "x": 839,
      "y": 462,
      "zOrder": 37,
      "numberProperties": [],
      "stringProperties": [],
      "initialVariables": []
    },
    {
      "angle": 0,
      "customSize": false,
      "height": 0,
      "layer": "",
      "name": "list_word",
      "persistentUuid": "ba8fde66-96fa-4d49-81ff-f310e8d019be",
      "width": 0,
      "x": 781,
      "y": 245,
      "zOrder": 38,
      "numberProperties": [],
      "stringProperties": [],
      "initialVariables": []
    },
    {
      "angle": 0,
      "customSize": true,
      "depth": 0,
      "height": 12,
      "layer": "",
      "name": "NewSprite2",
      "persistentUuid": "5ee6d39b-b150-4398-a0ec-de5fceadf3b5",
      "width": 201,
      "x": 743,
      "y": 809,
      "zOrder": 39,
      "numberProperties": [],
      "stringProperties": [],
      "initialVariables": []
    },
    {
      "angle": 0,
      "customSize": false,
      "height": 0,
      "layer": "",
      "name": "subtract_time10",
      "persistentUuid": "8e5ff8e4-3782-4feb-b71c-710e507264e8",
      "width": 0,
      "x": 1095,
      "y": 197,
      "zOrder": 40,
      "numberProperties": [],
      "stringProperties": [],
      "initialVariables": []
    },
    {
      "angle": 0,
      "customSize": false,
      "height": 0,
      "layer": "",
      "name": "Overlay_opacity",
      "persistentUuid": "e1519f10-0358-4857-a960-05464246c8f6",
      "width": 0,
      "x": -326,
      "y": -212,
      "zOrder": 41,
      "numberProperties": [],
      "stringProperties": [],
      "initialVariables": []
    },
    {
      "angle": 0,
      "customSize": true,
      "depth": 0,
      "height": 911,
      "layer": "",
      "name": "Overlay_opacity",
      "persistentUuid": "e55ebcac-1a43-493f-a5b4-c0067ca6e5fe",
      "width": 1377,
      "x": -51,
      "y": -97,
      "zOrder": 71,
      "numberProperties": [],
      "stringProperties": [],
      "initialVariables": []
    },
    {
      "angle": 0,
      "customSize": false,
      "height": 0,
      "layer": "",
      "name": "Win_inGame",
      "persistentUuid": "a8cccdae-cf1c-4708-9284-d616d66143ac",
      "width": 0,
      "x": 1852,
      "y": 332,
      "zOrder": 76,
      "numberProperties": [],
      "stringProperties": [],
      "initialVariables": []
    },
    {
      "angle": 0,
      "customSize": true,
      "depth": 0,
      "height": 300,
      "layer": "",
      "name": "tick_fasle",
      "persistentUuid": "d164af3f-4372-49f9-8002-b6146a92f61d",
      "width": 300,
      "x": 1652,
      "y": 611,
      "zOrder": 74,
      "numberProperties": [],
      "stringProperties": [],
      "initialVariables": []
    },
    {
      "angle": 0,
      "customSize": true,
      "depth": 0,
      "height": 300,
      "layer": "",
      "name": "tick_pass",
      "persistentUuid": "7f372f3a-8c29-4e86-99b3-073c658d5cd7",
      "width": 300,
      "x": 1692,
      "y": -130,
      "zOrder": 73,
      "numberProperties": [],
      "stringProperties": [],
      "initialVariables": []
    },
    {
      "angle": 0,
      "customSize": true,
      "depth": 0,
      "height": 962,
      "layer": "",
      "name": "notify_board",
      "persistentUuid": "bbf772f6-255e-4e7f-873d-b9b6507080dc",
      "width": 964,
      "x": 816,
      "y": -1257,
      "zOrder": 72,
      "numberProperties": [],
      "stringProperties": [],
      "initialVariables": []
    },
    {
      "angle": 0,
      "customSize": false,
      "height": 0,
      "layer": "",
      "name": "Time_Lose",
      "persistentUuid": "7af7305b-35a1-49ef-a8f0-cfe0d57d01bf",
      "width": 0,
      "x": 1530,
      "y": 268,
      "zOrder": 75,
      "numberProperties": [],
      "stringProperties": [],
      "initialVariables": []
    },
    {
      "angle": 0,
      "customSize": true,
      "depth": 0,
      "height": 99,
      "layer": "",
      "name": "pencil_pic",
      "persistentUuid": "8a13d709-e161-411b-b4f3-d4082d66e61b",
      "width": 66,
      "x": 401,
      "y": 179,
      "zOrder": 64,
      "numberProperties": [],
      "stringProperties": [],
      "initialVariables": []
    },
    {
      "angle": 0,
      "customSize": true,
      "depth": 0,
      "height": 74,
      "layer": "",
      "name": "chair_pic",
      "persistentUuid": "61977c7f-7236-446f-8d1b-1b3fc9985f3f",
      "width": 174,
      "x": 128,
      "y": 391,
      "zOrder": 65,
      "numberProperties": [],
      "stringProperties": [],
      "initialVariables": []
    },
    {
      "angle": 0,
      "customSize": true,
      "depth": 0,
      "height": 159,
      "layer": "",
      "name": "scissor_pic",
      "persistentUuid": "a9a7d855-1b7b-4410-8987-5ab77e379746",
      "width": 115,
      "x": 494,
      "y": 466,
      "zOrder": 66,
      "numberProperties": [],
      "stringProperties": [],
      "initialVariables": []
    },
    {
      "angle": 44,
      "customSize": true,
      "depth": 0,
      "height": 79,
      "layer": "",
      "name": "crayon_pic",
      "persistentUuid": "053fc4cd-8531-4a39-8ae8-4b74708288c2",
      "width": 154,
      "x": 558,
      "y": 264,
      "zOrder": 67,
      "numberProperties": [],
      "stringProperties": [],
      "initialVariables": []
    },
    {
      "angle": 31,
      "customSize": true,
      "depth": 0,
      "height": 95,
      "layer": "",
      "name": "eraser_pic",
      "persistentUuid": "5f217ea7-5628-4e7d-befa-84e0a547d040",
      "width": 112,
      "x": 276,
      "y": 508,
      "zOrder": 68,
      "numberProperties": [],
      "stringProperties": [],
      "initialVariables": []
    },
    {
      "angle": 313,
      "customSize": true,
      "depth": 0,
      "height": 54,
      "layer": "",
      "name": "sharpener_pic",
      "persistentUuid": "a2f6e6e7-925b-407d-a393-5b94a9ea63b1",
      "width": 133,
      "x": 175,
      "y": 213,
      "zOrder": 69,
      "numberProperties": [],
      "stringProperties": [],
      "initialVariables": []
    },
    {
      "angle": 0,
      "customSize": false,
      "height": 0,
      "layer": "",
      "name": "eraser_choice",
      "persistentUuid": "ff4b302f-56b5-43a5-ab4f-e46a26348b66",
      "width": 0,
      "x": 842,
      "y": 524,
      "zOrder": 70,
      "numberProperties": [],
      "stringProperties": [],
      "initialVariables": []
    },
    {
      "angle": 0,
      "customSize": true,
      "depth": 0,
      "height": 90,
      "layer": "",
      "name": "starPoint",
      "persistentUuid": "08cd2825-8338-4df0-9119-752c59ac93bf",
      "width": 90,
      "x": 980,
      "y": 540,
      "zOrder": 28,
      "numberProperties": [],
      "stringProperties": [],
      "initialVariables": []
    },
    {
      "angle": 0,
      "customSize": false,
      "height": 0,
      "layer": "",
      "name": "currentScore",
      "persistentUuid": "2fa050e0-d63f-4f8e-a1d5-c339d9e3fd7e",
      "width": 0,
      "x": 1080,
      "y": 555,
      "zOrder": 29,
      "numberProperties": [],
      "stringProperties": [],
      "initialVariables": []
    },
    {
      "angle": 0,
      "customSize": true,
      "depth": 0,
      "height": 70,
      "layer": "",
      "name": "level2Text",
      "persistentUuid": "7ece60bf-1d31-4854-ab33-bde1e67b6045",
      "width": 285,
      "x": 110,
      "y": 80,
      "zOrder": 29,
      "numberProperties": [],
      "stringProperties": [],
      "initialVariables": []
    },
    {
      "angle": 0,
      "customSize": false,
      "height": 0,
      "layer": "",
      "name": "lv2bg",
      "persistentUuid": "fbaf029a-209e-4b66-a83a-11458b78ecc4",
      "width": 0,
      "x": -320,
      "y": -188,
      "zOrder": 2,
      "numberProperties": [],
      "stringProperties": [],
      "initialVariables": []
    },
    {
      "angle": 24,
      "customSize": true,
      "depth": 0,
      "height": 106,
      "layer": "",
      "name": "compa",
      "persistentUuid": "c9e328a3-d37a-4a14-80b3-448621064120",
      "width": 96,
      "x": 383,
      "y": 327,
      "zOrder": 67,
      "numberProperties": [],
      "stringProperties": [],
      "initialVariables": []
    }
  ],
  "objects": [
    {
      "assetStoreId": "",
      "bold": true,
      "italic": false,
      "name": "pencil_choice",
      "smoothed": true,
      "type": "TextObject::Text",
      "underlined": false,
      "variables": [],
      "effects": [],
      "behaviors": [],
      "string": "Pencil",
      "font": "assets\\VNF-Comic Sans.ttf",
      "textAlignment": "left",
      "characterSize": 30,
      "color": {
        "b": 28,
        "g": 231,
        "r": 248
      }
    },
    {
      "assetStoreId": "",
      "bold": true,
      "italic": false,
      "name": "scissor_choice",
      "smoothed": true,
      "type": "TextObject::Text",
      "underlined": false,
      "variables": [],
      "effects": [],
      "behaviors": [],
      "string": "Scissor",
      "font": "assets\\VNF-Comic Sans.ttf",
      "textAlignment": "left",
      "characterSize": 30,
      "color": {
        "b": 28,
        "g": 231,
        "r": 248
      }
    },
    {
      "assetStoreId": "",
      "bold": true,
      "italic": false,
      "name": "sharpener_choice",
      "smoothed": true,
      "type": "TextObject::Text",
      "underlined": false,
      "variables": [],
      "effects": [],
      "behaviors": [],
      "string": "Sharpener",
      "font": "assets\\VNF-Comic Sans.ttf",
      "textAlignment": "left",
      "characterSize": 30,
      "color": {
        "b": 28,
        "g": 231,
        "r": 248
      }
    },
    {
      "assetStoreId": "",
      "bold": true,
      "italic": false,
      "name": "eraser_choice",
      "smoothed": true,
      "type": "TextObject::Text",
      "underlined": false,
      "variables": [],
      "effects": [],
      "behaviors": [],
      "string": "Eraser",
      "font": "assets\\VNF-Comic Sans.ttf",
      "textAlignment": "left",
      "characterSize": 30,
      "color": {
        "b": 28,
        "g": 231,
        "r": 248
      }
    },
    {
      "assetStoreId": "",
      "height": 32,
      "name": "Background_time",
      "texture": "New image3",
      "type": "TiledSpriteObject::TiledSprite",
      "width": 32,
      "variables": [],
      "effects": [],
      "behaviors": []
    },
    {
      "assetStoreId": "",
      "bold": true,
      "italic": false,
      "name": "Time_Level",
      "smoothed": true,
      "type": "TextObject::Text",
      "underlined": false,
      "variables": [],
      "effects": [],
      "behaviors": [],
      "string": "30",
      "font": "assets\\VNF-Comic Sans.ttf",
      "textAlignment": "left",
      "characterSize": 50,
      "color": {
        "b": 255,
        "g": 255,
        "r": 255
      }
    },
    {
      "assetStoreId": "569b45d3c7c34f7706563239938d04ca599016ff9857ee38c945c72330d4339e",
      "name": "Continue_btn",
      "type": "PanelSpriteButton::PanelSpriteButton",
      "variables": [],
      "effects": [],
      "behaviors": [],
      "content": {
        "LeftPadding": 16,
        "RightPadding": 16,
        "PressedLabelOffsetY": 3,
        "BottomPadding": 32,
        "TopPadding": 32,
        "HoveredFadeOutDuration": 0.25
      },
      "childrenContent": {
        "Hovered": {
          "bottomMargin": 16,
          "height": 69,
          "leftMargin": 16,
          "rightMargin": 16,
          "texture": "Green Button With Shadow_Hovered.png",
          "tiled": true,
          "topMargin": 16,
          "width": 192
        },
        "Idle": {
          "bottomMargin": 16,
          "height": 69,
          "leftMargin": 16,
          "rightMargin": 16,
          "texture": "Green Button With Shadow_Idle.png",
          "tiled": true,
          "topMargin": 16,
          "width": 192
        },
        "Label": {
          "bold": false,
          "italic": false,
          "smoothed": true,
          "underlined": false,
          "string": "CONTINUE",
          "font": "CantoraOne-Regular.ttf",
          "textAlignment": "center",
          "characterSize": 50,
          "color": {
            "b": 255,
            "g": 255,
            "r": 255
          }
        },
        "Pressed": {
          "bottomMargin": 16,
          "height": 69,
          "leftMargin": 16,
          "rightMargin": 16,
          "texture": "Green Button With Shadow_Pressed.png",
          "tiled": true,
          "topMargin": 16,
          "width": 192
        }
      }
    },
    {
      "adaptCollisionMaskAutomatically": false,
      "assetStoreId": "",
      "name": "NewSprite",
      "type": "Sprite",
      "updateIfNotVisible": false,
      "variables": [],
      "effects": [],
      "behaviors": [],
      "animations": [
        {
          "name": "",
          "useMultipleDirections": false,
          "directions": [
            {
              "looping": false,
              "timeBetweenFrames": 0.08,
              "sprites": [
                {
                  "hasCustomCollisionMask": false,
                  "image": "assets\\ss_1435744427_1454.jpg",
                  "points": [],
                  "originPoint": {
                    "name": "origine",
                    "x": 0,
                    "y": 0
                  },
                  "centerPoint": {
                    "automatic": true,
                    "name": "centre",
                    "x": 0,
                    "y": 0
                  },
                  "customCollisionMask": []
                }
              ]
            }
          ]
        }
      ]
    },
    {
      "adaptCollisionMaskAutomatically": false,
      "assetStoreId": "",
      "name": "table_pic",
      "type": "Sprite",
      "updateIfNotVisible": false,
      "variables": [],
      "effects": [],
      "behaviors": [],
      "animations": [
        {
          "name": "",
          "useMultipleDirections": false,
          "directions": [
            {
              "looping": false,
              "timeBetweenFrames": 0.08,
              "sprites": [
                {
                  "hasCustomCollisionMask": true,
                  "image": "assets\\bàn học 0.png",
                  "points": [],
                  "originPoint": {
                    "name": "origine",
                    "x": 0,
                    "y": 0
                  },
                  "centerPoint": {
                    "automatic": true,
                    "name": "centre",
                    "x": 0,
                    "y": 0
                  },
                  "customCollisionMask": [
                    [
                      {
                        "x": 0,
                        "y": 0
                      },
                      {
                        "x": 282,
                        "y": 0
                      },
                      {
                        "x": 282,
                        "y": 140
                      },
                      {
                        "x": 249,
                        "y": 140
                      },
                      {
                        "x": 248.5,
                        "y": 40
                      },
                      {
                        "x": 139.5,
                        "y": 39
                      },
                      {
                        "x": 38.5,
                        "y": 40
                      },
                      {
                        "x": 37,
                        "y": 138
                      },
                      {
                        "x": 0,
                        "y": 140
                      }
                    ]
                  ]
                }
              ]
            }
          ]
        }
      ]
    },
    {
      "adaptCollisionMaskAutomatically": false,
      "assetStoreId": "",
      "name": "eraser_pic",
      "type": "Sprite",
      "updateIfNotVisible": false,
      "variables": [],
      "effects": [],
      "behaviors": [],
      "animations": [
        {
          "name": "",
          "useMultipleDirections": false,
          "directions": [
            {
              "looping": false,
              "timeBetweenFrames": 0.08,
              "sprites": [
                {
                  "hasCustomCollisionMask": false,
                  "image": "assets\\cục tẩy 0.png",
                  "points": [],
                  "originPoint": {
                    "name": "origine",
                    "x": 0,
                    "y": 0
                  },
                  "centerPoint": {
                    "automatic": true,
                    "name": "centre",
                    "x": 0,
                    "y": 0
                  },
                  "customCollisionMask": []
                }
              ]
            }
          ]
        }
      ]
    },
    {
      "adaptCollisionMaskAutomatically": false,
      "assetStoreId": "",
      "name": "computer_pic",
      "type": "Sprite",
      "updateIfNotVisible": false,
      "variables": [],
      "effects": [],
      "behaviors": [],
      "animations": [
        {
          "name": "",
          "useMultipleDirections": false,
          "directions": [
            {
              "looping": false,
              "timeBetweenFrames": 0.08,
              "sprites": [
                {
                  "hasCustomCollisionMask": false,
                  "image": "assets\\máy tính bàn 0.png",
                  "points": [],
                  "originPoint": {
                    "name": "origine",
                    "x": 0,
                    "y": 0
                  },
                  "centerPoint": {
                    "automatic": true,
                    "name": "centre",
                    "x": 0,
                    "y": 0
                  },
                  "customCollisionMask": []
                }
              ]
            }
          ]
        }
      ]
    },
    {
      "adaptCollisionMaskAutomatically": false,
      "assetStoreId": "",
      "name": "compa_pic",
      "type": "Sprite",
      "updateIfNotVisible": false,
      "variables": [],
      "effects": [],
      "behaviors": [],
      "animations": [
        {
          "name": "",
          "useMultipleDirections": false,
          "directions": [
            {
              "looping": false,
              "timeBetweenFrames": 0.08,
              "sprites": [
                {
                  "hasCustomCollisionMask": false,
                  "image": "assets\\compa 0.png",
                  "points": [],
                  "originPoint": {
                    "name": "origine",
                    "x": 0,
                    "y": 0
                  },
                  "centerPoint": {
                    "automatic": true,
                    "name": "centre",
                    "x": 0,
                    "y": 0
                  },
                  "customCollisionMask": []
                }
              ]
            }
          ]
        }
      ]
    },
    {
      "adaptCollisionMaskAutomatically": false,
      "assetStoreId": "",
      "name": "drump_pic",
      "type": "Sprite",
      "updateIfNotVisible": false,
      "variables": [],
      "effects": [],
      "behaviors": [],
      "animations": [
        {
          "name": "",
          "useMultipleDirections": false,
          "directions": [
            {
              "looping": false,
              "timeBetweenFrames": 0.08,
              "sprites": [
                {
                  "hasCustomCollisionMask": false,
                  "image": "assets\\trống 0.png",
                  "points": [],
                  "originPoint": {
                    "name": "origine",
                    "x": 0,
                    "y": 0
                  },
                  "centerPoint": {
                    "automatic": true,
                    "name": "centre",
                    "x": 0,
                    "y": 0
                  },
                  "customCollisionMask": []
                }
              ]
            }
          ]
        }
      ]
    },
    {
      "assetStoreId": "",
      "bold": true,
      "italic": false,
      "name": "list_word",
      "smoothed": true,
      "type": "TextObject::Text",
      "underlined": false,
      "variables": [],
      "effects": [],
      "behaviors": [],
      "string": "Words List: ",
      "font": "assets\\VNF-Comic Sans.ttf",
      "textAlignment": "left",
      "characterSize": 40,
      "color": {
        "b": 255,
        "g": 255,
        "r": 255
      }
    },
    {
      "adaptCollisionMaskAutomatically": false,
      "assetStoreId": "",
      "name": "NewSprite2",
      "type": "Sprite",
      "updateIfNotVisible": false,
      "variables": [],
      "effects": [],
      "behaviors": [],
      "animations": [
        {
          "name": "",
          "useMultipleDirections": false,
          "directions": [
            {
              "looping": false,
              "timeBetweenFrames": 0.08,
              "sprites": [
                {
                  "hasCustomCollisionMask": false,
                  "image": "assets\\gạch1.png",
                  "points": [],
                  "originPoint": {
                    "name": "origine",
                    "x": 0,
                    "y": 0
                  },
                  "centerPoint": {
                    "automatic": true,
                    "name": "centre",
                    "x": 0,
                    "y": 0
                  },
                  "customCollisionMask": []
                }
              ]
            }
          ]
        }
      ]
    },
    {
      "adaptCollisionMaskAutomatically": false,
      "assetStoreId": "",
      "name": "correct_tick",
      "type": "Sprite",
      "updateIfNotVisible": false,
      "variables": [],
      "effects": [],
      "behaviors": [],
      "animations": [
        {
          "name": "",
          "useMultipleDirections": false,
          "directions": [
            {
              "looping": false,
              "timeBetweenFrames": 0.08,
              "sprites": [
                {
                  "hasCustomCollisionMask": false,
                  "image": "assets\\tick32.png",
                  "points": [],
                  "originPoint": {
                    "name": "origine",
                    "x": 0,
                    "y": 0
                  },
                  "centerPoint": {
                    "automatic": true,
                    "name": "centre",
                    "x": 0,
                    "y": 0
                  },
                  "customCollisionMask": []
                }
              ]
            }
          ]
        }
      ]
    },
    {
      "adaptCollisionMaskAutomatically": false,
      "assetStoreId": "",
      "name": "clock_pic",
      "type": "Sprite",
      "updateIfNotVisible": false,
      "variables": [],
      "effects": [],
      "behaviors": [],
      "animations": [
        {
          "name": "",
          "useMultipleDirections": false,
          "directions": [
            {
              "looping": false,
              "timeBetweenFrames": 0.08,
              "sprites": [
                {
                  "hasCustomCollisionMask": false,
                  "image": "assets\\đồng hồ 0.png",
                  "points": [],
                  "originPoint": {
                    "name": "origine",
                    "x": 0,
                    "y": 0
                  },
                  "centerPoint": {
                    "automatic": true,
                    "name": "centre",
                    "x": 0,
                    "y": 0
                  },
                  "customCollisionMask": []
                }
              ]
            }
          ]
        }
      ]
    },
    {
      "adaptCollisionMaskAutomatically": false,
      "assetStoreId": "",
      "name": "crayon_pic",
      "type": "Sprite",
      "updateIfNotVisible": false,
      "variables": [],
      "effects": [],
      "behaviors": [],
      "animations": [
        {
          "name": "",
          "useMultipleDirections": false,
          "directions": [
            {
              "looping": false,
              "timeBetweenFrames": 0.08,
              "sprites": [
                {
                  "hasCustomCollisionMask": false,
                  "image": "assets\\bút màu 0.png",
                  "points": [],
                  "originPoint": {
                    "name": "origine",
                    "x": 0,
                    "y": 0
                  },
                  "centerPoint": {
                    "automatic": true,
                    "name": "centre",
                    "x": 0,
                    "y": 0
                  },
                  "customCollisionMask": []
                }
              ]
            }
          ]
        }
      ]
    },
    {
      "adaptCollisionMaskAutomatically": false,
      "assetStoreId": "",
      "name": "bag_pic",
      "type": "Sprite",
      "updateIfNotVisible": false,
      "variables": [],
      "effects": [],
      "behaviors": [],
      "animations": [
        {
          "name": "",
          "useMultipleDirections": false,
          "directions": [
            {
              "looping": false,
              "timeBetweenFrames": 0.08,
              "sprites": [
                {
                  "hasCustomCollisionMask": false,
                  "image": "assets\\cặp đi học 0.png",
                  "points": [],
                  "originPoint": {
                    "name": "origine",
                    "x": 0,
                    "y": 0
                  },
                  "centerPoint": {
                    "automatic": true,
                    "name": "centre",
                    "x": 0,
                    "y": 0
                  },
                  "customCollisionMask": []
                }
              ]
            }
          ]
        }
      ]
    },
    {
      "adaptCollisionMaskAutomatically": false,
      "assetStoreId": "",
      "name": "pencil_pic",
      "type": "Sprite",
      "updateIfNotVisible": false,
      "variables": [],
      "effects": [],
      "behaviors": [],
      "animations": [
        {
          "name": "",
          "useMultipleDirections": false,
          "directions": [
            {
              "looping": false,
              "timeBetweenFrames": 0.08,
              "sprites": [
                {
                  "hasCustomCollisionMask": false,
                  "image": "assets\\bút chì 0.png",
                  "points": [],
                  "originPoint": {
                    "name": "origine",
                    "x": 0,
                    "y": 0
                  },
                  "centerPoint": {
                    "automatic": true,
                    "name": "centre",
                    "x": 0,
                    "y": 0
                  },
                  "customCollisionMask": []
                }
              ]
            }
          ]
        }
      ]
    },
    {
      "adaptCollisionMaskAutomatically": false,
      "assetStoreId": "",
      "name": "chair_pic",
      "type": "Sprite",
      "updateIfNotVisible": false,
      "variables": [],
      "effects": [],
      "behaviors": [],
      "animations": [
        {
          "name": "",
          "useMultipleDirections": false,
          "directions": [
            {
              "looping": false,
              "timeBetweenFrames": 0.08,
              "sprites": [
                {
                  "hasCustomCollisionMask": false,
                  "image": "assets\\ghế đá 0.png",
                  "points": [],
                  "originPoint": {
                    "name": "origine",
                    "x": 0,
                    "y": 0
                  },
                  "centerPoint": {
                    "automatic": true,
                    "name": "centre",
                    "x": 0,
                    "y": 0
                  },
                  "customCollisionMask": []
                }
              ]
            }
          ]
        }
      ]
    },
    {
      "adaptCollisionMaskAutomatically": false,
      "assetStoreId": "",
      "name": "scissor_pic",
      "type": "Sprite",
      "updateIfNotVisible": false,
      "variables": [],
      "effects": [],
      "behaviors": [],
      "animations": [
        {
          "name": "",
          "useMultipleDirections": false,
          "directions": [
            {
              "looping": false,
              "timeBetweenFrames": 0.08,
              "sprites": [
                {
                  "hasCustomCollisionMask": false,
                  "image": "assets\\kéo 0.png",
                  "points": [],
                  "originPoint": {
                    "name": "origine",
                    "x": 0,
                    "y": 0
                  },
                  "centerPoint": {
                    "automatic": true,
                    "name": "centre",
                    "x": 0,
                    "y": 0
                  },
                  "customCollisionMask": []
                }
              ]
            }
          ]
        }
      ]
    },
    {
      "adaptCollisionMaskAutomatically": false,
      "assetStoreId": "",
      "name": "sharpener_pic",
      "type": "Sprite",
      "updateIfNotVisible": false,
      "variables": [],
      "effects": [],
      "behaviors": [],
      "animations": [
        {
          "name": "",
          "useMultipleDirections": false,
          "directions": [
            {
              "looping": false,
              "timeBetweenFrames": 0.08,
              "sprites": [
                {
                  "hasCustomCollisionMask": false,
                  "image": "assets\\gọt bút chì 0.png",
                  "points": [],
                  "originPoint": {
                    "name": "origine",
                    "x": 0,
                    "y": 0
                  },
                  "centerPoint": {
                    "automatic": true,
                    "name": "centre",
                    "x": 0,
                    "y": 0
                  },
                  "customCollisionMask": []
                }
              ]
            }
          ]
        }
      ]
    },
    {
      "adaptCollisionMaskAutomatically": false,
      "assetStoreId": "",
      "name": "compa",
      "type": "Sprite",
      "updateIfNotVisible": false,
      "variables": [],
      "effects": [],
      "behaviors": [],
      "animations": [
        {
          "name": "",
          "useMultipleDirections": false,
          "directions": [
            {
              "looping": false,
              "timeBetweenFrames": 0.08,
              "sprites": [
                {
                  "hasCustomCollisionMask": false,
                  "image": "assets\\compa 0.png",
                  "points": [],
                  "originPoint": {
                    "name": "origine",
                    "x": 0,
                    "y": 0
                  },
                  "centerPoint": {
                    "automatic": true,
                    "name": "centre",
                    "x": 0,
                    "y": 0
                  },
                  "customCollisionMask": []
                }
              ]
            }
          ]
        }
      ]
    }
  ],
  "objectsFolderStructure": {
    "folderName": "__ROOT",
    "children": [
      {
        "objectName": "pencil_choice"
      },
      {
        "objectName": "scissor_choice"
      },
      {
        "objectName": "sharpener_choice"
      },
      {
        "objectName": "eraser_choice"
      },
      {
        "objectName": "Background_time"
      },
      {
        "objectName": "Time_Level"
      },
      {
        "objectName": "Continue_btn"
      },
      {
        "objectName": "NewSprite"
      },
      {
        "objectName": "table_pic"
      },
      {
        "objectName": "eraser_pic"
      },
      {
        "objectName": "computer_pic"
      },
      {
        "objectName": "compa_pic"
      },
      {
        "objectName": "drump_pic"
      },
      {
        "objectName": "list_word"
      },
      {
        "objectName": "NewSprite2"
      },
      {
        "objectName": "correct_tick"
      },
      {
        "objectName": "clock_pic"
      },
      {
        "objectName": "crayon_pic"
      },
      {
        "objectName": "bag_pic"
      },
      {
        "objectName": "pencil_pic"
      },
      {
        "objectName": "chair_pic"
      },
      {
        "objectName": "scissor_pic"
      },
      {
        "objectName": "sharpener_pic"
      },
      {
        "objectName": "compa"
      }
    ]
  },
  "events": [
    {
      "type": "BuiltinCommonInstructions::Comment",
      "color": {
        "b": 109,
        "g": 230,
        "r": 255,
        "textB": 0,
        "textG": 0,
        "textR": 0
      },
      "comment": "Begin\n"
    },
    {
      "type": "BuiltinCommonInstructions::Standard",
      "conditions": [
        {
          "type": {
            "value": "DepartScene"
          },
          "parameters": [
            ""
          ]
        }
      ],
      "actions": [
        {
          "type": {
            "value": "Cache"
          },
          "parameters": [
            "Overlay_opacity"
          ]
        },
        {
          "type": {
            "value": "ResetTimer"
          },
          "parameters": [
            "",
            "\"Time_level\""
          ]
        },
        {
          "type": {
            "value": "Cache"
          },
          "parameters": [
            "Time_Lose"
          ]
        },
        {
          "type": {
            "value": "Cache"
          },
          "parameters": [
            "Win_inGame"
          ]
        },
        {
          "type": {
            "value": "Cache"
          },
          "parameters": [
            "Continue_btn"
          ]
        },
        {
          "type": {
            "value": "ResetTimer"
          },
          "parameters": [
            "",
            "\"Time_listPic\""
          ]
        },
        {
          "type": {
            "value": "Cache"
          },
          "parameters": [
            "notify_board"
          ]
        },
        {
          "type": {
            "value": "Cache"
          },
          "parameters": [
            "tick_fasle"
          ]
        },
        {
          "type": {
            "value": "Cache"
          },
          "parameters": [
            "tick_pass"
          ]
        },
        {
          "type": {
            "value": "Cache"
          },
          "parameters": [
            "subtract_time10"
          ]
        },
        {
          "type": {
            "value": "PlaySound"
          },
          "parameters": [
            "",
            "audio\\ingame.mp3",
            "no",
            "30",
            "1"
          ]
        },
        {
          "type": {
            "value": "TextObject::String"
          },
          "parameters": [
            "currentScore",
            "=",
            "ToString(GlobalVariable(playerScore))"
          ]
        }
      ]
    },
    {
      "type": "BuiltinCommonInstructions::Standard",
      "conditions": [
        {
          "type": {
            "value": "CompareTimer"
          },
          "parameters": [
            "",
            "\"Time_level\"",
            ">=",
            "1"
          ]
        },
        {
          "type": {
            "value": "BuiltinCommonInstructions::Once"
          },
          "parameters": []
        }
      ],
      "actions": [
        {
          "type": {
            "value": "ModVarScene"
          },
          "parameters": [
            "Time_level",
            "-",
            "1"
          ]
        },
        {
          "type": {
            "value": "ResetTimer"
          },
          "parameters": [
            "",
            "\"Time_level\""
          ]
        }
      ]
    },
    {
      "type": "BuiltinCommonInstructions::Standard",
      "conditions": [],
      "actions": [
        {
          "type": {
            "value": "TextObject::String"
          },
          "parameters": [
            "Time_Level",
            "=",
            "ToString(Variable(Time_level))"
          ]
        }
      ]
    },
    {
      "type": "BuiltinCommonInstructions::Standard",
      "conditions": [
        {
          "type": {
            "value": "CompareTimer"
          },
          "parameters": [
            "",
            "\"Time_listPic\"",
            ">=",
            "1"
          ]
        },
        {
          "type": {
            "value": "BuiltinCommonInstructions::Once"
          },
          "parameters": []
        }
      ],
      "actions": [
        {
          "type": {
            "value": "ModVarScene"
          },
          "parameters": [
            "Time_listPic",
            "+",
            "1"
          ]
        },
        {
          "type": {
            "value": "ResetTimer"
          },
          "parameters": [
            "",
            "\"Time_listPic\""
          ]
        }
      ]
    },
    {
      "type": "BuiltinCommonInstructions::Comment",
      "color": {
        "b": 109,
        "g": 230,
        "r": 255,
        "textB": 0,
        "textG": 0,
        "textR": 0
      },
      "comment": "Click to answer and Score"
    },
    {
      "type": "BuiltinCommonInstructions::Standard",
      "conditions": [
        {
          "type": {
            "value": "MouseButtonReleased"
          },
          "parameters": [
            "",
            "Left"
          ]
        },
        {
          "type": {
            "value": "VarScene"
          },
          "parameters": [
            "Score_hiddenPass",
            "<",
            "4"
          ]
        },
        {
          "type": {
            "value": "CompareTimer"
          },
          "parameters": [
            "",
            "\"Time_level\"",
            ">",
            "0"
          ]
        },
        {
          "type": {
            "value": "SourisSurObjet"
          },
          "parameters": [
            "sharpener_pic",
            "",
            "",
            ""
          ]
        }
      ],
      "actions": [
        {
          "type": {
            "value": "PlaySound"
          },
          "parameters": [
            "",
            "audio\\true.mp3",
            "no",
            "100",
            "1"
          ]
        },
        {
          "type": {
            "value": "ModVarScene"
          },
          "parameters": [
            "Score_hiddenPass",
            "+",
            "1"
          ]
        },
        {
          "type": {
            "value": "Delete"
          },
          "parameters": [
            "sharpener_choice",
            ""
          ]
        },
        {
          "type": {
            "value": "Delete"
          },
          "parameters": [
            "sharpener_pic",
            ""
          ]
        }
      ]
    },
    {
      "type": "BuiltinCommonInstructions::Standard",
      "conditions": [
        {
          "type": {
            "value": "MouseButtonReleased"
          },
          "parameters": [
            "",
            "Left"
          ]
        },
        {
          "type": {
            "value": "VarScene"
          },
          "parameters": [
            "Score_hiddenPass",
            "<",
            "4"
          ]
        },
        {
          "type": {
            "value": "CompareTimer"
          },
          "parameters": [
            "",
            "\"Time_level\"",
            ">",
            "0"
          ]
        },
        {
          "type": {
            "value": "SourisSurObjet"
          },
          "parameters": [
            "pencil_pic",
            "",
            "",
            ""
          ]
        }
      ],
      "actions": [
        {
          "type": {
            "value": "PlaySound"
          },
          "parameters": [
            "",
            "audio\\true.mp3",
            "no",
            "100",
            "1"
          ]
        },
        {
          "type": {
            "value": "ModVarScene"
          },
          "parameters": [
            "Score_hiddenPass",
            "+",
            "1"
          ]
        },
        {
          "type": {
            "value": "Delete"
          },
          "parameters": [
            "pencil_choice",
            ""
          ]
        },
        {
          "type": {
            "value": "Delete"
          },
          "parameters": [
            "pencil_pic",
            ""
          ]
        }
      ]
    },
    {
      "type": "BuiltinCommonInstructions::Standard",
      "conditions": [
        {
          "type": {
            "value": "MouseButtonReleased"
          },
          "parameters": [
            "",
            "Left"
          ]
        },
        {
          "type": {
            "value": "VarScene"
          },
          "parameters": [
            "Score_hiddenPass",
            "<",
            "4"
          ]
        },
        {
          "type": {
            "value": "CompareTimer"
          },
          "parameters": [
            "",
            "\"Time_level\"",
            ">",
            "0"
          ]
        },
        {
          "type": {
            "value": "SourisSurObjet"
          },
          "parameters": [
            "eraser_pic",
            "",
            "",
            ""
          ]
        }
      ],
      "actions": [
        {
          "type": {
            "value": "PlaySound"
          },
          "parameters": [
            "",
            "audio\\true.mp3",
            "no",
            "100",
            "1"
          ]
        },
        {
          "type": {
            "value": "ModVarScene"
          },
          "parameters": [
            "Score_hiddenPass",
            "+",
            "1"
          ]
        },
        {
          "type": {
            "value": "Delete"
          },
          "parameters": [
            "eraser_pic",
            ""
          ]
        },
        {
          "type": {
            "value": "Delete"
          },
          "parameters": [
            "eraser_choice",
            ""
          ]
        }
      ]
    },
    {
      "type": "BuiltinCommonInstructions::Standard",
      "conditions": [
        {
          "type": {
            "value": "MouseButtonReleased"
          },
          "parameters": [
            "",
            "Left"
          ]
        },
        {
          "type": {
            "value": "VarScene"
          },
          "parameters": [
            "Score_hiddenPass",
            "<",
            "4"
          ]
        },
        {
          "type": {
            "value": "CompareTimer"
          },
          "parameters": [
            "",
            "\"Time_level\"",
            ">",
            "0"
          ]
        },
        {
          "type": {
            "value": "SourisSurObjet"
          },
          "parameters": [
            "scissor_pic",
            "",
            "",
            ""
          ]
        }
      ],
      "actions": [
        {
          "type": {
            "value": "PlaySound"
          },
          "parameters": [
            "",
            "audio\\true.mp3",
            "no",
            "100",
            "1"
          ]
        },
        {
          "type": {
            "value": "ModVarScene"
          },
          "parameters": [
            "Score_hiddenPass",
            "+",
            "1"
          ]
        },
        {
          "type": {
            "value": "Delete"
          },
          "parameters": [
            "scissor_pic",
            ""
          ]
        },
        {
          "type": {
            "value": "Delete"
          },
          "parameters": [
            "scissor_choice",
            ""
          ]
        }
      ]
    },
    {
      "type": "BuiltinCommonInstructions::Standard",
      "conditions": [
        {
          "type": {
            "value": "MouseButtonReleased"
          },
          "parameters": [
            "",
            "Left"
          ]
        },
        {
          "type": {
            "value": "VarScene"
          },
          "parameters": [
            "Score_hiddenPass",
            "<",
            "4"
          ]
        },
        {
          "type": {
            "value": "CompareTimer"
          },
          "parameters": [
            "",
            "\"Time_level\"",
            ">",
            "0"
          ]
        },
        {
          "type": {
            "value": "SourisSurObjet"
          },
          "parameters": [
            "crayon_pic",
            "",
            "",
            ""
          ]
        }
      ],
      "actions": [
        {
          "type": {
            "value": "PlaySound"
          },
          "parameters": [
            "",
            "audio\\false.mp3",
            "no",
            "100",
            "1"
          ]
        },
        {
          "type": {
            "value": "ModVarScene"
          },
          "parameters": [
            "Time_level",
            "-",
            "5"
          ]
        },
        {
          "type": {
            "value": "ResetTimer"
          },
          "parameters": [
            "",
            "\"Time_subtractTime\""
          ]
        },
        {
          "type": {
            "value": "Montre"
          },
          "parameters": [
            "subtract_time10",
            ""
          ]
        }
      ]
    },
    {
      "type": "BuiltinCommonInstructions::Standard",
      "conditions": [
        {
          "type": {
            "value": "MouseButtonReleased"
          },
          "parameters": [
            "",
            "Left"
          ]
        },
        {
          "type": {
            "value": "VarScene"
          },
          "parameters": [
            "Score_hiddenPass",
            "<",
            "4"
          ]
        },
        {
          "type": {
            "value": "CompareTimer"
          },
          "parameters": [
            "",
            "\"Time_level\"",
            ">",
            "0"
          ]
        },
        {
          "type": {
            "value": "SourisSurObjet"
          },
          "parameters": [
            "chair_pic",
            "",
            "",
            ""
          ]
        }
      ],
      "actions": [
        {
          "type": {
            "value": "PlaySound"
          },
          "parameters": [
            "",
            "audio\\false.mp3",
            "no",
            "100",
            "1"
          ]
        },
        {
          "type": {
            "value": "ModVarScene"
          },
          "parameters": [
            "Time_level",
            "-",
            "5"
          ]
        },
        {
          "type": {
            "value": "ResetTimer"
          },
          "parameters": [
            "",
            "\"Time_subtractTime\""
          ]
        },
        {
          "type": {
            "value": "Montre"
          },
          "parameters": [
            "subtract_time10",
            ""
          ]
        }
      ]
    },
    {
      "type": "BuiltinCommonInstructions::Standard",
      "conditions": [
        {
          "type": {
            "value": "MouseButtonReleased"
          },
          "parameters": [
            "",
            "Left"
          ]
        },
        {
          "type": {
            "value": "VarScene"
          },
          "parameters": [
            "Score_hiddenPass",
            "<",
            "4"
          ]
        },
        {
          "type": {
            "value": "CompareTimer"
          },
          "parameters": [
            "",
            "\"Time_level\"",
            ">",
            "0"
          ]
        },
        {
          "type": {
            "value": "SourisSurObjet"
          },
          "parameters": [
            "compa",
            "",
            "",
            ""
          ]
        }
      ],
      "actions": [
        {
          "type": {
            "value": "PlaySound"
          },
          "parameters": [
            "",
            "audio\\false.mp3",
            "no",
            "100",
            "1"
          ]
        },
        {
          "type": {
            "value": "ModVarScene"
          },
          "parameters": [
            "Time_level",
            "-",
            "5"
          ]
        },
        {
          "type": {
            "value": "ResetTimer"
          },
          "parameters": [
            "",
            "\"Time_subtractTime\""
          ]
        },
        {
          "type": {
            "value": "Montre"
          },
          "parameters": [
            "subtract_time10",
            ""
          ]
        }
      ]
    },
    {
      "type": "BuiltinCommonInstructions::Standard",
      "conditions": [
        {
          "type": {
            "value": "CompareTimer"
          },
          "parameters": [
            "",
            "\"Time_subtractTime\"",
            ">=",
            "0.8"
          ]
        }
      ],
      "actions": [
        {
          "type": {
            "value": "Cache"
          },
          "parameters": [
            "subtract_time10"
          ]
        },
        {
          "type": {
            "value": "ResetTimer"
          },
          "parameters": [
            "",
            "\"Time_subtractTime\""
          ]
        }
      ]
    },
    {
      "type": "BuiltinCommonInstructions::Comment",
      "color": {
        "b": 109,
        "g": 230,
        "r": 255,
        "textB": 0,
        "textG": 0,
        "textR": 0
      },
      "comment": "Lose and WIn"
    },
    {
      "type": "BuiltinCommonInstructions::Standard",
      "conditions": [
        {
          "type": {
            "value": "VarScene"
          },
          "parameters": [
            "Time_level",
            "<=",
            "0"
          ]
        },
        {
          "type": {
            "value": "VarScene"
          },
          "parameters": [
            "Score_hiddenPass",
            "<",
            "4"
          ]
        },
        {
          "type": {
            "value": "BuiltinCommonInstructions::Once"
          },
          "parameters": []
        }
      ],
      "actions": [
        {
          "type": {
            "value": "ChangeTimeScale"
          },
          "parameters": [
            "",
            "0"
          ]
        },
        {
          "type": {
            "value": "Montre"
          },
          "parameters": [
            "Time_Lose",
            ""
          ]
        },
        {
          "type": {
            "value": "MettreX"
          },
          "parameters": [
            "Time_Lose",
            "=",
            "566"
          ]
        },
        {
          "type": {
            "value": "MettreY"
          },
          "parameters": [
            "Time_Lose",
            "=",
            "397"
          ]
        },
        {
          "type": {
            "value": "Montre"
          },
          "parameters": [
            "Overlay_opacity",
            ""
          ]
        },
        {
          "type": {
            "value": "Montre"
          },
          "parameters": [
            "Continue_btn",
            ""
          ]
        },
        {
          "type": {
            "value": "MettreX"
          },
          "parameters": [
            "Continue_btn",
            "=",
            "425"
          ]
        },
        {
          "type": {
            "value": "MettreY"
          },
          "parameters": [
            "Continue_btn",
            "=",
            "482"
          ]
        },
        {
          "type": {
            "value": "ModVarScene"
          },
          "parameters": [
            "bonusScore",
            "=",
            "Variable(Time_level)"
          ]
        },
        {
          "type": {
            "value": "ModVarGlobal"
          },
          "parameters": [
            "playerScore",
            "+",
            "70 + Variable(bonusScore)"
          ]
        },
        {
          "type": {
            "value": "Montre"
          },
          "parameters": [
            "notify_board",
            ""
          ]
        },
        {
          "type": {
            "value": "MettreX"
          },
          "parameters": [
            "notify_board",
            "=",
            "157"
          ]
        },
        {
          "type": {
            "value": "MettreY"
          },
          "parameters": [
            "notify_board",
            "=",
            "-58"
          ]
        },
        {
          "type": {
            "value": "Montre"
          },
          "parameters": [
            "tick_fasle",
            ""
          ]
        },
        {
          "type": {
            "value": "MettreX"
          },
          "parameters": [
            "tick_fasle",
            "=",
            "497"
          ]
        },
        {
          "type": {
            "value": "MettreY"
          },
          "parameters": [
            "tick_fasle",
            "=",
            "112"
          ]
        }
      ]
    },
    {
      "type": "BuiltinCommonInstructions::Standard",
      "conditions": [
        {
          "type": {
            "value": "VarScene"
          },
          "parameters": [
            "Score_hiddenPass",
            "=",
            "4"
          ]
        },
        {
          "type": {
            "value": "CompareTimer"
          },
          "parameters": [
            "",
            "\"Time_level\"",
            ">",
            "0"
          ]
        },
        {
          "type": {
            "value": "BuiltinCommonInstructions::Once"
          },
          "parameters": []
        }
      ],
      "actions": [
        {
          "type": {
            "value": "ChangeTimeScale"
          },
          "parameters": [
            "",
            "0"
          ]
        },
        {
          "type": {
            "value": "Montre"
          },
          "parameters": [
            "Overlay_opacity",
            ""
          ]
        },
        {
          "type": {
            "value": "Montre"
          },
          "parameters": [
            "Win_inGame",
            ""
          ]
        },
        {
          "type": {
            "value": "MettreX"
          },
          "parameters": [
            "Win_inGame",
            "=",
            "566"
          ]
        },
        {
          "type": {
            "value": "MettreY"
          },
          "parameters": [
            "Win_inGame",
            "=",
            "397"
          ]
        },
        {
          "type": {
            "value": "Montre"
          },
          "parameters": [
            "Continue_btn",
            ""
          ]
        },
        {
          "type": {
            "value": "MettreX"
          },
          "parameters": [
            "Continue_btn",
            "=",
            "425"
          ]
        },
        {
          "type": {
            "value": "MettreY"
          },
          "parameters": [
            "Continue_btn",
            "=",
            "482"
          ]
        },
        {
          "type": {
            "value": "ModVarScene"
          },
          "parameters": [
            "bonusScore",
            "=",
            "0"
          ]
        },
        {
          "type": {
            "value": "ModVarGlobal"
          },
          "parameters": [
            "playerScore",
            "+",
            "20"
          ]
        },
        {
          "type": {
            "value": "Montre"
          },
          "parameters": [
            "notify_board",
            ""
          ]
        },
        {
          "type": {
            "value": "MettreX"
          },
          "parameters": [
            "notify_board",
            "=",
            "157"
          ]
        },
        {
          "type": {
            "value": "MettreY"
          },
          "parameters": [
            "notify_board",
            "=",
            "-58"
          ]
        },
        {
          "type": {
            "value": "Montre"
          },
          "parameters": [
            "tick_pass",
            ""
          ]
        },
        {
          "type": {
            "value": "MettreX"
          },
          "parameters": [
            "tick_pass",
            "=",
            "497"
          ]
        },
        {
          "type": {
            "value": "MettreY"
          },
          "parameters": [
            "tick_pass",
            "=",
            "112"
          ]
        }
      ]
    },
    {
      "type": "BuiltinCommonInstructions::Standard",
      "conditions": [
        {
          "type": {
            "value": "PanelSpriteButton::PanelSpriteButton::IsClicked"
          },
          "parameters": [
            "Continue_btn",
            ""
          ]
        }
      ],
      "actions": [
        {
          "type": {
            "value": "ModVarGlobal"
          },
          "parameters": [
            "stackPassGame",
            "+",
            "1"
          ]
        },
        {
          "type": {
            "value": "Scene"
          },
          "parameters": [
            "",
            "\"R5_tutorPronounceScene_3_15\"",
            ""
          ]
        }
      ]
    }
  ],
  "layers": [
    {
      "ambientLightColorB": 200,
      "ambientLightColorG": 200,
      "ambientLightColorR": 200,
      "camera3DFarPlaneDistance": 10000,
      "camera3DFieldOfView": 45,
      "camera3DNearPlaneDistance": 0.1,
      "followBaseLayerCamera": false,
      "isLightingLayer": false,
      "isLocked": false,
      "name": "",
      "renderingType": "",
      "visibility": true,
      "cameras": [
        {
          "defaultSize": true,
          "defaultViewport": true,
          "height": 0,
          "viewportBottom": 1,
          "viewportLeft": 0,
          "viewportRight": 1,
          "viewportTop": 0,
          "width": 0
        }
      ],
      "effects": []
    }
  ],
  "behaviorsSharedData": [
    {
      "name": "Animation",
      "type": "AnimatableCapability::AnimatableBehavior"
    },
    {
      "name": "Effect",
      "type": "EffectCapability::EffectBehavior"
    },
    {
      "name": "Flippable",
      "type": "FlippableCapability::FlippableBehavior"
    },
    {
      "name": "Opacity",
      "type": "OpacityCapability::OpacityBehavior"
    },
    {
      "name": "Resizable",
      "type": "ResizableCapability::ResizableBehavior"
    },
    {
      "name": "Scale",
      "type": "ScalableCapability::ScalableBehavior"
    },
    {
      "name": "Text",
      "type": "TextContainerCapability::TextContainerBehavior"
    }
  ]
}