{
  "b": 209,
  "disableInputWhenNotFocused": true,
  "mangledName": "R5_95tutorMemoryScene_951_951",
  "name": "R5_tutorMemoryScene_1_1",
  "r": 209,
  "standardSortMethod": true,
  "stopSoundsOnStartup": true,
  "title": "",
  "v": 209,
  "uiSettings": {
    "grid": false,
    "gridType": "rectangular",
    "gridWidth": 32,
    "gridHeight": 32,
    "gridOffsetX": 0,
    "gridOffsetY": 0,
    "gridColor": 10401023,
    "gridAlpha": 0.8,
    "snap": false,
    "zoomFactor": 0.6244537826599992,
    "windowMask": false
  },
  "objectsGroups": [],
  "variables": [],
  "instances": [
    {
      "angle": 0,
      "customSize": true,
      "depth": 0,
      "height": 804,
      "layer": "",
      "name": "tutor_bg",
      "persistentUuid": "4ba66f21-7fac-4694-92b4-dd66ed6bf048",
      "width": 1373,
      "x": -51,
      "y": -39,
      "zOrder": 1,
      "numberProperties": [],
      "stringProperties": [],
      "initialVariables": []
    },
    {
      "angle": 0,
      "customSize": false,
      "height": 0,
      "layer": "",
      "name": "titleGameTutor_txt",
      "persistentUuid": "3c56d56e-8221-42f6-bf64-0d262a43b60b",
      "width": 0,
      "x": 320,
      "y": 29,
      "zOrder": 2,
      "numberProperties": [],
      "stringProperties": [],
      "initialVariables": []
    },
    {
      "angle": 0,
      "customSize": false,
      "height": 0,
      "layer": "",
      "name": "informGameTutor_txt",
      "persistentUuid": "3be6b5af-e7b7-4269-8ce9-3b88b0779d2a",
      "width": 0,
      "x": 60,
      "y": 130,
      "zOrder": 3,
      "numberProperties": [],
      "stringProperties": [],
      "initialVariables": []
    },
    {
      "angle": 0,
      "customSize": false,
      "height": 0,
      "layer": "",
      "name": "BlueButtonWithShadow",
      "persistentUuid": "fc6ad5f8-0379-483e-bcfc-7cc69d29ff85",
      "width": 0,
      "x": 548,
      "y": 562,
      "zOrder": 4,
      "numberProperties": [],
      "stringProperties": [],
      "initialVariables": []
    },
    {
      "angle": 0,
      "customSize": true,
      "depth": 0,
      "height": 255,
      "layer": "",
      "name": "NewSprite",
      "persistentUuid": "98a824e1-6ccc-4b2f-97a7-23637b62869c",
      "width": 464,
      "x": 67,
      "y": 210,
      "zOrder": 5,
      "numberProperties": [],
      "stringProperties": [],
      "initialVariables": []
    },
    {
      "angle": 30,
      "customSize": true,
      "depth": 0,
      "height": 68,
      "layer": "",
      "name": "DirectionalArrowQuarterCircle",
      "persistentUuid": "0670dd0b-f6c8-49bf-b604-c1da2bd0dae8",
      "width": 79,
      "x": 231,
      "y": 192,
      "zOrder": 6,
      "numberProperties": [],
      "stringProperties": [],
      "initialVariables": []
    },
    {
      "angle": 0,
      "customSize": false,
      "height": 0,
      "layer": "",
      "name": "informGameTutor_txt2",
      "persistentUuid": "22fc070d-76eb-4d3a-8c4c-c2a23a3c42ea",
      "width": 0,
      "x": 279,
      "y": 494,
      "zOrder": 7,
      "numberProperties": [],
      "stringProperties": [],
      "initialVariables": []
    },
    {
      "angle": 222,
      "customSize": true,
      "depth": 0,
      "height": 75,
      "layer": "",
      "name": "DirectionalArrowQuarterCircle",
      "persistentUuid": "78d6c855-c560-4efb-8d3b-0e0fdd825677",
      "width": 88,
      "x": 328,
      "y": 398,
      "zOrder": 8,
      "numberProperties": [],
      "stringProperties": [],
      "initialVariables": []
    },
    {
      "angle": 0,
      "customSize": true,
      "depth": 0,
      "height": 271,
      "layer": "",
      "name": "NewSprite2",
      "persistentUuid": "f7b388a0-6b45-4e92-8810-d2e0dee74f70",
      "width": 491,
      "x": 690,
      "y": 203,
      "zOrder": 9,
      "numberProperties": [],
      "stringProperties": [],
      "initialVariables": []
    },
    {
      "angle": 35,
      "customSize": true,
      "depth": 0,
      "height": 66,
      "layer": "",
      "name": "DirectionalArrowQuarterCircle",
      "persistentUuid": "a865d47a-7eca-429d-850d-86fbe36ede94",
      "width": 77,
      "x": 783,
      "y": 189,
      "zOrder": 10,
      "numberProperties": [],
      "stringProperties": [],
      "initialVariables": []
    },
    {
      "angle": 215,
      "customSize": true,
      "depth": 0,
      "height": 79,
      "layer": "",
      "name": "DirectionalArrowQuarterCircle",
      "persistentUuid": "e30de7e0-96c7-48b0-a494-9d02f5785485",
      "width": 92,
      "x": 970,
      "y": 410,
      "zOrder": 11,
      "numberProperties": [],
      "stringProperties": [],
      "initialVariables": []
    },
    {
      "angle": 66,
      "customSize": true,
      "depth": 0,
      "height": 45,
      "layer": "",
      "name": "DirectionalArrowQuarterCircle",
      "persistentUuid": "befe0011-d919-4c9c-bd75-e85f30081b6b",
      "width": 53,
      "x": 1085,
      "y": 178,
      "zOrder": 12,
      "numberProperties": [],
      "stringProperties": [],
      "initialVariables": []
    },
    {
      "angle": 0,
      "customSize": false,
      "height": 0,
      "layer": "",
      "name": "informGameTutor_txt3",
      "persistentUuid": "c61a3c8f-7a17-4eb0-85db-fce4ecce0f8c",
      "width": 0,
      "x": 607,
      "y": 125,
      "zOrder": 13,
      "numberProperties": [],
      "stringProperties": [],
      "initialVariables": []
    },
    {
      "angle": 0,
      "customSize": true,
      "depth": 0,
      "height": 41,
      "layer": "",
      "name": "informGameTutor_txt4",
      "persistentUuid": "b49c5f63-7082-43cc-9485-af32c1a24241",
      "width": 194,
      "x": 1044,
      "y": 77,
      "zOrder": 14,
      "numberProperties": [],
      "stringProperties": [],
      "initialVariables": []
    },
    {
      "angle": 0,
      "customSize": false,
      "height": 0,
      "layer": "",
      "name": "informGameTutor_txt5",
      "persistentUuid": "d5b671ad-fa33-46d1-89b9-f492743ff51c",
      "width": 0,
      "x": 912,
      "y": 515,
      "zOrder": 15,
      "numberProperties": [],
      "stringProperties": [],
      "initialVariables": []
    }
  ],
  "objects": [
    {
      "adaptCollisionMaskAutomatically": false,
      "assetStoreId": "",
      "name": "tutor_bg",
      "type": "Sprite",
      "updateIfNotVisible": false,
      "variables": [],
      "effects": [],
      "behaviors": [],
      "animations": [
        {
          "name": "",
          "useMultipleDirections": false,
          "directions": [
            {
              "looping": false,
              "timeBetweenFrames": 0.08,
              "sprites": [
                {
                  "hasCustomCollisionMask": false,
                  "image": "assets\\Lv1 BG.png",
                  "points": [],
                  "originPoint": {
                    "name": "origine",
                    "x": 0,
                    "y": 0
                  },
                  "centerPoint": {
                    "automatic": true,
                    "name": "centre",
                    "x": 0,
                    "y": 0
                  },
                  "customCollisionMask": []
                }
              ]
            }
          ]
        }
      ]
    },
    {
      "assetStoreId": "",
      "bold": false,
      "italic": false,
      "name": "titleGameTutor_txt",
      "smoothed": true,
      "type": "TextObject::Text",
      "underlined": false,
      "variables": [],
      "effects": [],
      "behaviors": [],
      "string": "Hướng dẫn Minigame Memory",
      "font": "assets\\VNF-Comic Sans.ttf",
      "textAlignment": "left",
      "characterSize": 50,
      "color": {
        "b": 0,
        "g": 0,
        "r": 0
      }
    },
    {
      "assetStoreId": "",
      "bold": false,
      "italic": false,
      "name": "informGameTutor_txt",
      "smoothed": true,
      "type": "TextObject::Text",
      "underlined": false,
      "variables": [],
      "effects": [],
      "behaviors": [],
      "string": "Các hình cần nhớ",
      "font": "assets\\VNF-Comic Sans.ttf",
      "textAlignment": "left",
      "characterSize": 30,
      "color": {
        "b": 226,
        "g": 144,
        "r": 74
      }
    },
    {
      "assetStoreId": "",
      "bold": false,
      "italic": false,
      "name": "informGameTutor_txt2",
      "smoothed": true,
      "type": "TextObject::Text",
      "underlined": false,
      "variables": [],
      "effects": [],
      "behaviors": [],
      "string": "Thời gian ghi nhớ ",
      "font": "assets\\VNF-Comic Sans.ttf",
      "textAlignment": "left",
      "characterSize": 30,
      "color": {
        "b": 226,
        "g": 144,
        "r": 74
      }
    },
    {
      "assetStoreId": "",
      "bold": false,
      "italic": false,
      "name": "informGameTutor_txt3",
      "smoothed": true,
      "type": "TextObject::Text",
      "underlined": false,
      "variables": [],
      "effects": [],
      "behaviors": [],
      "string": "Tìm hình tương ứng câu hỏi",
      "font": "assets\\VNF-Comic Sans.ttf",
      "textAlignment": "left",
      "characterSize": 30,
      "color": {
        "b": 226,
        "g": 144,
        "r": 74
      }
    },
    {
      "assetStoreId": "",
      "bold": false,
      "italic": false,
      "name": "informGameTutor_txt4",
      "smoothed": true,
      "type": "TextObject::Text",
      "underlined": false,
      "variables": [],
      "effects": [],
      "behaviors": [],
      "string": "Thời gian bắt đầu game",
      "font": "assets\\VNF-Comic Sans.ttf",
      "textAlignment": "left",
      "characterSize": 30,
      "color": {
        "b": 226,
        "g": 144,
        "r": 74
      }
    },
    {
      "assetStoreId": "",
      "bold": false,
      "italic": false,
      "name": "informGameTutor_txt5",
      "smoothed": true,
      "type": "TextObject::Text",
      "underlined": false,
      "variables": [],
      "effects": [],
      "behaviors": [],
      "string": "Từ khóa đề bài yêu cầu",
      "font": "assets\\VNF-Comic Sans.ttf",
      "textAlignment": "left",
      "characterSize": 30,
      "color": {
        "b": 226,
        "g": 144,
        "r": 74
      }
    },
    {
      "assetStoreId": "33302f0b615672a2e96316c096e13ad8d7242adba8bd5709538691894f0eae6e",
      "name": "BlueButtonWithShadow",
      "type": "PanelSpriteButton::PanelSpriteButton",
      "variables": [],
      "effects": [],
      "behaviors": [],
      "content": {
        "LeftPadding": 16,
        "RightPadding": 16,
        "PressedLabelOffsetY": 3,
        "BottomPadding": 32,
        "TopPadding": 32,
        "HoveredFadeOutDuration": 0.25
      },
      "childrenContent": {
        "Hovered": {
          "bottomMargin": 16,
          "height": 69,
          "leftMargin": 16,
          "rightMargin": 16,
          "texture": "Blue Button With Shadow_Hovered.png",
          "tiled": true,
          "topMargin": 16,
          "width": 192
        },
        "Idle": {
          "bottomMargin": 16,
          "height": 69,
          "leftMargin": 16,
          "rightMargin": 16,
          "texture": "Blue Button With Shadow_Idle.png",
          "tiled": true,
          "topMargin": 16,
          "width": 192
        },
        "Label": {
          "bold": true,
          "italic": false,
          "smoothed": true,
          "underlined": false,
          "string": "PLAY",
          "font": "assets\\VNF-Comic Sans.ttf",
          "textAlignment": "center",
          "characterSize": 40,
          "color": {
            "b": 255,
            "g": 255,
            "r": 255
          }
        },
        "Pressed": {
          "bottomMargin": 16,
          "height": 69,
          "leftMargin": 16,
          "rightMargin": 16,
          "texture": "Blue Button With Shadow_Pressed.png",
          "tiled": true,
          "topMargin": 16,
          "width": 192
        }
      }
    },
    {
      "adaptCollisionMaskAutomatically": false,
      "assetStoreId": "",
      "name": "NewSprite",
      "type": "Sprite",
      "updateIfNotVisible": false,
      "variables": [],
      "effects": [],
      "behaviors": [],
      "animations": [
        {
          "name": "",
          "useMultipleDirections": false,
          "directions": [
            {
              "looping": false,
              "timeBetweenFrames": 0.08,
              "sprites": [
                {
                  "hasCustomCollisionMask": false,
                  "image": "assets\\tutor memory .png",
                  "points": [],
                  "originPoint": {
                    "name": "origine",
                    "x": 0,
                    "y": 0
                  },
                  "centerPoint": {
                    "automatic": true,
                    "name": "centre",
                    "x": 0,
                    "y": 0
                  },
                  "customCollisionMask": []
                }
              ]
            }
          ]
        }
      ]
    },
    {
      "adaptCollisionMaskAutomatically": false,
      "assetStoreId": "",
      "name": "NewSprite2",
      "type": "Sprite",
      "updateIfNotVisible": false,
      "variables": [],
      "effects": [],
      "behaviors": [],
      "animations": [
        {
          "name": "",
          "useMultipleDirections": false,
          "directions": [
            {
              "looping": false,
              "timeBetweenFrames": 0.08,
              "sprites": [
                {
                  "hasCustomCollisionMask": false,
                  "image": "assets\\tutor memory 3.jpg",
                  "points": [],
                  "originPoint": {
                    "name": "origine",
                    "x": 0,
                    "y": 0
                  },
                  "centerPoint": {
                    "automatic": true,
                    "name": "centre",
                    "x": 0,
                    "y": 0
                  },
                  "customCollisionMask": []
                }
              ]
            }
          ]
        }
      ]
    }
  ],
  "objectsFolderStructure": {
    "folderName": "__ROOT",
    "children": [
      {
        "objectName": "tutor_bg"
      },
      {
        "objectName": "titleGameTutor_txt"
      },
      {
        "objectName": "informGameTutor_txt"
      },
      {
        "objectName": "informGameTutor_txt2"
      },
      {
        "objectName": "informGameTutor_txt3"
      },
      {
        "objectName": "informGameTutor_txt4"
      },
      {
        "objectName": "informGameTutor_txt5"
      },
      {
        "objectName": "BlueButtonWithShadow"
      },
      {
        "objectName": "NewSprite"
      },
      {
        "objectName": "NewSprite2"
      }
    ]
  },
  "events": [
    {
      "type": "BuiltinCommonInstructions::Standard",
      "conditions": [
        {
          "type": {
            "value": "DepartScene"
          },
          "parameters": [
            ""
          ]
        }
      ],
      "actions": [
        {
          "type": {
            "value": "PlaySound"
          },
          "parameters": [
            "",
            "audio\\tutorial.mp3",
            "yes",
            "30",
            ""
          ]
        }
      ]
    },
    {
      "type": "BuiltinCommonInstructions::Standard",
      "conditions": [
        {
          "type": {
            "value": "PanelSpriteButton::PanelSpriteButton::IsClicked"
          },
          "parameters": [
            "BlueButtonWithShadow",
            ""
          ]
        }
      ],
      "actions": [
        {
          "type": {
            "value": "Scene"
          },
          "parameters": [
            "",
            "\"R5_testMemory1_scene_1\"",
            ""
          ]
        }
      ]
    }
  ],
  "layers": [
    {
      "ambientLightColorB": 200,
      "ambientLightColorG": 200,
      "ambientLightColorR": 200,
      "camera3DFarPlaneDistance": 10000,
      "camera3DFieldOfView": 45,
      "camera3DNearPlaneDistance": 0.1,
      "followBaseLayerCamera": false,
      "isLightingLayer": false,
      "isLocked": false,
      "name": "",
      "renderingType": "",
      "visibility": true,
      "cameras": [
        {
          "defaultSize": true,
          "defaultViewport": true,
          "height": 0,
          "viewportBottom": 1,
          "viewportLeft": 0,
          "viewportRight": 1,
          "viewportTop": 0,
          "width": 0
        }
      ],
      "effects": []
    }
  ],
  "behaviorsSharedData": [
    {
      "name": "Animation",
      "type": "AnimatableCapability::AnimatableBehavior"
    },
    {
      "name": "Effect",
      "type": "EffectCapability::EffectBehavior"
    },
    {
      "name": "Flippable",
      "type": "FlippableCapability::FlippableBehavior"
    },
    {
      "name": "Opacity",
      "type": "OpacityCapability::OpacityBehavior"
    },
    {
      "name": "Resizable",
      "type": "ResizableCapability::ResizableBehavior"
    },
    {
      "name": "Scale",
      "type": "ScalableCapability::ScalableBehavior"
    },
    {
      "name": "Text",
      "type": "TextContainerCapability::TextContainerBehavior"
    }
  ]
}