{
  "b": 209,
  "disableInputWhenNotFocused": true,
  "mangledName": "R5_95testMemory1_95scene_951",
  "name": "R5_testMemory1_scene_1",
  "r": 209,
  "standardSortMethod": true,
  "stopSoundsOnStartup": true,
  "title": "",
  "v": 209,
  "uiSettings": {
    "grid": false,
    "gridType": "rectangular",
    "gridWidth": 32,
    "gridHeight": 32,
    "gridOffsetX": 0,
    "gridOffsetY": 0,
    "gridColor": 10401023,
    "gridAlpha": 0.8,
    "snap": false,
    "zoomFactor": 0.4194339782759076,
    "windowMask": false
  },
  "objectsGroups": [],
  "variables": [
    {
      "folded": true,
      "name": "Time_Level",
      "type": "number",
      "value": 20
    },
    {
      "folded": true,
      "name": "Time_rememberPic",
      "type": "number",
      "value": 10
    },
    {
      "folded": true,
      "name": "Check_subScore",
      "type": "boolean",
      "value": false
    },
    {
      "folded": true,
      "name": "Time_testMemory",
      "type": "number",
      "value": 0
    },
    {
      "folded": true,
      "name": "bonusScore",
      "type": "number",
      "value": 0
    }
  ],
  "instances": [
    {
      "angle": 0,
      "customSize": false,
      "height": 0,
      "layer": "",
      "name": "Question_text",
      "persistentUuid": "34490a23-ace4-43e7-8cd7-8eb4801b8d6e",
      "width": 0,
      "x": 171,
      "y": -76,
      "zOrder": 7,
      "numberProperties": [],
      "stringProperties": [],
      "initialVariables": []
    },
    {
      "angle": 0,
      "customSize": false,
      "height": 0,
      "layer": "",
      "name": "Time_inGame",
      "persistentUuid": "1060696d-2c83-4bc7-aab4-66b812f1cf97",
      "width": 0,
      "x": 825,
      "y": 316,
      "zOrder": 51,
      "numberProperties": [],
      "stringProperties": [],
      "initialVariables": []
    },
    {
      "angle": 0,
      "customSize": true,
      "depth": 0,
      "height": 882,
      "layer": "",
      "name": "Overlay_opacity",
      "persistentUuid": "f552d1d0-8d2e-4f0e-ad4c-b1430dfe9e4d",
      "width": 1431,
      "x": -58,
      "y": -91,
      "zOrder": 73,
      "numberProperties": [],
      "stringProperties": [],
      "initialVariables": []
    },
    {
      "angle": 0,
      "customSize": false,
      "height": 0,
      "layer": "",
      "name": "Win_inGame",
      "persistentUuid": "fe599194-256d-43de-9151-a8be6fae2154",
      "width": 0,
      "x": -349,
      "y": 323,
      "zOrder": 80,
      "numberProperties": [],
      "stringProperties": [],
      "initialVariables": []
    },
    {
      "angle": 0,
      "customSize": true,
      "depth": 32,
      "height": 69,
      "layer": "",
      "name": "Continue_Level",
      "persistentUuid": "4b3dd811-d98f-46f7-b158-eb2ccd6e295a",
      "width": 349,
      "x": 469,
      "y": -218,
      "zOrder": 81,
      "numberProperties": [],
      "stringProperties": [],
      "initialVariables": []
    },
    {
      "angle": 0,
      "customSize": false,
      "height": 0,
      "layer": "",
      "name": "MiniText_Tutorial",
      "persistentUuid": "daf6d3d7-cd3f-4c22-b2e2-6572ee620088",
      "width": 0,
      "x": 712,
      "y": 256,
      "zOrder": 50,
      "numberProperties": [],
      "stringProperties": [],
      "initialVariables": []
    },
    {
      "angle": 0,
      "customSize": false,
      "height": 0,
      "layer": "",
      "name": "Time_Level",
      "persistentUuid": "1411c5a1-5817-4678-969a-e58d6eb6d505",
      "width": 0,
      "x": 1080,
      "y": 115,
      "zOrder": 43,
      "numberProperties": [],
      "stringProperties": [],
      "initialVariables": []
    },
    {
      "angle": 0,
      "customSize": false,
      "height": 0,
      "layer": "",
      "name": "Time_Lose",
      "persistentUuid": "68fa398e-89d6-4ff1-b201-f2b3dae010cc",
      "width": 0,
      "x": 1481,
      "y": 325,
      "zOrder": 79,
      "numberProperties": [],
      "stringProperties": [],
      "initialVariables": []
    },
    {
      "angle": 0,
      "customSize": true,
      "depth": 0,
      "height": 833,
      "layer": "",
      "name": "aboutGame_bg",
      "persistentUuid": "7483a13e-821c-4f68-9a62-ed7e9e7001b4",
      "width": 1365,
      "x": -40,
      "y": -73,
      "zOrder": 40,
      "numberProperties": [],
      "stringProperties": [],
      "initialVariables": []
    },
    {
      "angle": 0,
      "customSize": true,
      "depth": 0,
      "height": 1048,
      "layer": "",
      "name": "board_element",
      "persistentUuid": "87a3b3fe-fe16-4937-9e34-be61b4b60134",
      "width": 1268,
      "x": 14,
      "y": -153,
      "zOrder": 41,
      "numberProperties": [],
      "stringProperties": [],
      "initialVariables": []
    },
    {
      "angle": 0,
      "customSize": true,
      "depth": 0,
      "height": 96,
      "layer": "",
      "name": "clockLevel_icon",
      "persistentUuid": "49bb4a90-c337-49a7-9257-93acb3a1d2fe",
      "width": 96,
      "x": 978,
      "y": 98,
      "zOrder": 42,
      "numberProperties": [],
      "stringProperties": [],
      "initialVariables": []
    },
    {
      "angle": 0,
      "customSize": true,
      "depth": 0,
      "height": 120,
      "layer": "",
      "name": "pencil_pic",
      "persistentUuid": "cc612783-9826-40c0-8071-02887d128a1f",
      "width": 120,
      "x": 200,
      "y": 220,
      "zOrder": 58,
      "numberProperties": [],
      "stringProperties": [],
      "initialVariables": []
    },
    {
      "angle": 0,
      "customSize": true,
      "depth": 0,
      "height": 120,
      "layer": "",
      "name": "pencilCase_pic",
      "persistentUuid": "449b17b1-53b7-4ea9-95c9-2f7ebfbeeeb6",
      "width": 120,
      "x": 350,
      "y": 220,
      "zOrder": 59,
      "numberProperties": [
        {
          "name": "animation",
          "value": 0
        }
      ],
      "stringProperties": [],
      "initialVariables": []
    },
    {
      "angle": 0,
      "customSize": true,
      "depth": 0,
      "height": 120,
      "layer": "",
      "name": "bag_pic",
      "persistentUuid": "d791d57f-c492-45e9-894a-bbc6326418b4",
      "width": 120,
      "x": -142,
      "y": 805,
      "zOrder": 60,
      "numberProperties": [],
      "stringProperties": [],
      "initialVariables": []
    },
    {
      "angle": 0,
      "customSize": true,
      "depth": 0,
      "height": 120,
      "layer": "",
      "name": "eraser_pic",
      "persistentUuid": "88d35a1d-56d1-42e4-ac26-1a4abf28b0ec",
      "width": 120,
      "x": -375,
      "y": 639,
      "zOrder": 61,
      "numberProperties": [],
      "stringProperties": [],
      "initialVariables": []
    },
    {
      "angle": 0,
      "customSize": true,
      "depth": 0,
      "height": 120,
      "layer": "",
      "name": "scissor_pic",
      "persistentUuid": "0e345aa1-75d1-45eb-87eb-f9f98bd6a983",
      "width": 120,
      "x": 350,
      "y": 370,
      "zOrder": 62,
      "numberProperties": [],
      "stringProperties": [],
      "initialVariables": []
    },
    {
      "angle": 0,
      "customSize": true,
      "depth": 0,
      "height": 120,
      "layer": "",
      "name": "notebook_pic",
      "persistentUuid": "9ccd4d53-e024-4929-adc9-cbc48218ad56",
      "width": 120,
      "x": 500,
      "y": 370,
      "zOrder": 63,
      "numberProperties": [],
      "stringProperties": [],
      "initialVariables": []
    },
    {
      "angle": 0,
      "customSize": true,
      "depth": 0,
      "height": 120,
      "layer": "",
      "name": "hiddenPencil_pic",
      "persistentUuid": "7ffe693d-6e8f-459a-9052-05b12f9f4c30",
      "width": 120,
      "x": 200,
      "y": 220,
      "zOrder": 52,
      "numberProperties": [],
      "stringProperties": [],
      "initialVariables": []
    },
    {
      "angle": 0,
      "customSize": true,
      "depth": 0,
      "height": 120,
      "layer": "",
      "name": "hiddenPencilcase_pic",
      "persistentUuid": "258345db-c59d-40ae-b716-e3a5ed88c421",
      "width": 120,
      "x": 350,
      "y": 220,
      "zOrder": 53,
      "numberProperties": [],
      "stringProperties": [],
      "initialVariables": []
    },
    {
      "angle": 0,
      "customSize": true,
      "depth": 0,
      "height": 120,
      "layer": "",
      "name": "hiddenRuler_pic",
      "persistentUuid": "b6742795-8266-4a19-ae8e-f29f6cf6dd84",
      "width": 120,
      "x": 500,
      "y": 220,
      "zOrder": 54,
      "numberProperties": [],
      "stringProperties": [],
      "initialVariables": []
    },
    {
      "angle": 0,
      "customSize": true,
      "depth": 0,
      "height": 120,
      "layer": "",
      "name": "hiddenProjector_pic",
      "persistentUuid": "de94e370-367b-4e1c-91bd-ff6ad831da2f",
      "width": 120,
      "x": 200,
      "y": 370,
      "zOrder": 55,
      "numberProperties": [],
      "stringProperties": [],
      "initialVariables": []
    },
    {
      "angle": 0,
      "customSize": true,
      "depth": 0,
      "height": 120,
      "layer": "",
      "name": "hiddenScissor_pic",
      "persistentUuid": "dd6098d9-478a-42c4-ad25-a6adfe44b358",
      "width": 120,
      "x": 350,
      "y": 370,
      "zOrder": 56,
      "numberProperties": [],
      "stringProperties": [],
      "initialVariables": []
    },
    {
      "angle": 0,
      "customSize": true,
      "depth": 0,
      "height": 120,
      "layer": "",
      "name": "hiddenNote_pic",
      "persistentUuid": "a982137b-9c87-4786-bbce-9d3bc9813afe",
      "width": 120,
      "x": 500,
      "y": 370,
      "zOrder": 57,
      "numberProperties": [],
      "stringProperties": [],
      "initialVariables": []
    },
    {
      "angle": 0,
      "customSize": true,
      "depth": 0,
      "height": 962,
      "layer": "",
      "name": "notify_board",
      "persistentUuid": "75fcf78b-a84b-4962-8ed3-295acf38f062",
      "width": 964,
      "x": -443,
      "y": 845,
      "zOrder": 76,
      "numberProperties": [],
      "stringProperties": [],
      "initialVariables": []
    },
    {
      "angle": 0,
      "customSize": true,
      "depth": 0,
      "height": 300,
      "layer": "",
      "name": "tick_pass",
      "persistentUuid": "cb9ec601-6e9f-4077-b4ad-f69d23e1fb0b",
      "width": 300,
      "x": 965,
      "y": -423,
      "zOrder": 83,
      "numberProperties": [],
      "stringProperties": [],
      "initialVariables": []
    },
    {
      "angle": 0,
      "customSize": true,
      "depth": 0,
      "height": 300,
      "layer": "",
      "name": "tick_fasle",
      "persistentUuid": "766045f0-354a-4189-8477-c06be493ffed",
      "width": 300,
      "x": -53,
      "y": -402,
      "zOrder": 82,
      "numberProperties": [],
      "stringProperties": [],
      "initialVariables": []
    },
    {
      "angle": 0,
      "customSize": false,
      "height": 0,
      "layer": "",
      "name": "Question_text",
      "persistentUuid": "ad7e71fb-5896-476f-9a30-8fe856f1eacc",
      "width": 0,
      "x": 785,
      "y": 299,
      "zOrder": 71,
      "numberProperties": [],
      "stringProperties": [],
      "initialVariables": []
    },
    {
      "angle": 0,
      "customSize": true,
      "depth": 0,
      "height": 120,
      "layer": "",
      "name": "projector_pic",
      "persistentUuid": "a0701aff-f334-44bf-96ae-f61366bb4574",
      "width": 120,
      "x": 199,
      "y": 370,
      "zOrder": 60,
      "numberProperties": [],
      "stringProperties": [],
      "initialVariables": []
    },
    {
      "angle": 0,
      "customSize": true,
      "depth": 0,
      "height": 120,
      "layer": "",
      "name": "ruler_choice",
      "persistentUuid": "7540d91d-b5ef-4e49-a3f8-b83c73a5dbb2",
      "width": 120,
      "x": 500,
      "y": 220,
      "zOrder": 60,
      "numberProperties": [],
      "stringProperties": [],
      "initialVariables": []
    },
    {
      "angle": 0,
      "customSize": true,
      "depth": 0,
      "height": 70,
      "layer": "",
      "name": "level1Text",
      "persistentUuid": "fd217de5-bf75-494f-b60e-c2afcd7f6498",
      "width": 285,
      "x": 110,
      "y": 80,
      "zOrder": 43,
      "numberProperties": [],
      "stringProperties": [],
      "initialVariables": []
    },
    {
      "angle": 0,
      "customSize": true,
      "depth": 0,
      "height": 90,
      "layer": "",
      "name": "starPoint",
      "persistentUuid": "bff8aeea-7f14-47f9-b035-887345c39d35",
      "width": 90,
      "x": 980,
      "y": 540,
      "zOrder": 43,
      "numberProperties": [],
      "stringProperties": [],
      "initialVariables": []
    },
    {
      "angle": 0,
      "customSize": false,
      "height": 0,
      "layer": "",
      "name": "currentScore",
      "persistentUuid": "996ac0d6-43c7-485f-b03a-4b54e3fa6f1c",
      "width": 0,
      "x": 1080,
      "y": 555,
      "zOrder": 44,
      "numberProperties": [],
      "stringProperties": [],
      "initialVariables": []
    },
    {
      "angle": 0,
      "customSize": false,
      "height": 0,
      "layer": "",
      "name": "subtract_time4",
      "persistentUuid": "fb40c018-62e7-4b9d-a113-dec27e089477",
      "width": 0,
      "x": 1095,
      "y": 197,
      "zOrder": 72,
      "numberProperties": [],
      "stringProperties": [],
      "initialVariables": []
    }
  ],
  "objects": [
    {
      "assetStoreId": "",
      "bold": true,
      "italic": false,
      "name": "Question_text",
      "smoothed": true,
      "type": "TextObject::Text",
      "underlined": false,
      "variables": [],
      "effects": [],
      "behaviors": [],
      "string": "Ruler",
      "font": "assets\\VNF-Comic Sans.ttf",
      "textAlignment": "left",
      "characterSize": 100,
      "color": {
        "b": 28,
        "g": 231,
        "r": 248
      }
    },
    {
      "assetStoreId": "",
      "bold": true,
      "italic": false,
      "name": "Time_inGame",
      "smoothed": true,
      "type": "TextObject::Text",
      "underlined": false,
      "variables": [],
      "effects": [],
      "behaviors": [],
      "string": "10",
      "font": "assets\\VNF-Comic Sans.ttf",
      "textAlignment": "left",
      "characterSize": 100,
      "color": {
        "b": 28,
        "g": 231,
        "r": 248
      }
    },
    {
      "assetStoreId": "",
      "bold": true,
      "italic": false,
      "name": "MiniText_Tutorial",
      "smoothed": true,
      "type": "TextObject::Text",
      "underlined": false,
      "variables": [],
      "effects": [],
      "behaviors": [],
      "string": "Remember pictures in: ",
      "font": "assets\\VNF-Comic Sans.ttf",
      "textAlignment": "left",
      "characterSize": 35,
      "color": {
        "b": 255,
        "g": 255,
        "r": 255
      }
    },
    {
      "assetStoreId": "569b45d3c7c34f7706563239938d04ca599016ff9857ee38c945c72330d4339e",
      "name": "Continue_Level",
      "type": "PanelSpriteButton::PanelSpriteButton",
      "variables": [],
      "effects": [],
      "behaviors": [],
      "content": {
        "LeftPadding": 16,
        "RightPadding": 16,
        "PressedLabelOffsetY": 3,
        "BottomPadding": 32,
        "TopPadding": 32,
        "HoveredFadeOutDuration": 0.25
      },
      "childrenContent": {
        "Hovered": {
          "bottomMargin": 16,
          "height": 69,
          "leftMargin": 16,
          "rightMargin": 16,
          "texture": "Green Button With Shadow_Hovered.png",
          "tiled": true,
          "topMargin": 16,
          "width": 192
        },
        "Idle": {
          "bottomMargin": 16,
          "height": 69,
          "leftMargin": 16,
          "rightMargin": 16,
          "texture": "Green Button With Shadow_Idle.png",
          "tiled": true,
          "topMargin": 16,
          "width": 192
        },
        "Label": {
          "bold": false,
          "italic": false,
          "smoothed": true,
          "underlined": false,
          "string": "Continue",
          "font": "assets\\VNF-Comic Sans.ttf",
          "textAlignment": "center",
          "characterSize": 50,
          "color": {
            "b": 255,
            "g": 255,
            "r": 255
          }
        },
        "Pressed": {
          "bottomMargin": 16,
          "height": 69,
          "leftMargin": 16,
          "rightMargin": 16,
          "texture": "Green Button With Shadow_Pressed.png",
          "tiled": true,
          "topMargin": 16,
          "width": 192
        }
      }
    },
    {
      "assetStoreId": "",
      "bold": true,
      "italic": false,
      "name": "Time_Level",
      "smoothed": true,
      "type": "TextObject::Text",
      "underlined": false,
      "variables": [],
      "effects": [],
      "behaviors": [],
      "string": "20",
      "font": "assets\\VNF-Comic Sans.ttf",
      "textAlignment": "left",
      "characterSize": 50,
      "color": {
        "b": 255,
        "g": 255,
        "r": 255
      }
    },
    {
      "adaptCollisionMaskAutomatically": false,
      "assetStoreId": "",
      "name": "NewSprite2",
      "type": "Sprite",
      "updateIfNotVisible": false,
      "variables": [],
      "effects": [],
      "behaviors": [],
      "animations": []
    },
    {
      "adaptCollisionMaskAutomatically": false,
      "assetStoreId": "",
      "name": "board_element",
      "type": "Sprite",
      "updateIfNotVisible": false,
      "variables": [],
      "effects": [],
      "behaviors": [],
      "animations": [
        {
          "name": "",
          "useMultipleDirections": false,
          "directions": [
            {
              "looping": false,
              "timeBetweenFrames": 0.08,
              "sprites": [
                {
                  "hasCustomCollisionMask": false,
                  "image": "assets\\bảng1.png",
                  "points": [],
                  "originPoint": {
                    "name": "origine",
                    "x": 0,
                    "y": 0
                  },
                  "centerPoint": {
                    "automatic": true,
                    "name": "centre",
                    "x": 0,
                    "y": 0
                  },
                  "customCollisionMask": []
                }
              ]
            }
          ]
        }
      ]
    },
    {
      "adaptCollisionMaskAutomatically": false,
      "assetStoreId": "",
      "name": "pencil_pic",
      "type": "Sprite",
      "updateIfNotVisible": false,
      "variables": [],
      "effects": [],
      "behaviors": [],
      "animations": [
        {
          "name": "",
          "useMultipleDirections": false,
          "directions": [
            {
              "looping": false,
              "timeBetweenFrames": 0.08,
              "sprites": [
                {
                  "hasCustomCollisionMask": false,
                  "image": "assets\\bút chì.png",
                  "points": [],
                  "originPoint": {
                    "name": "origine",
                    "x": 0,
                    "y": 0
                  },
                  "centerPoint": {
                    "automatic": true,
                    "name": "centre",
                    "x": 0,
                    "y": 0
                  },
                  "customCollisionMask": []
                }
              ]
            }
          ]
        }
      ]
    },
    {
      "adaptCollisionMaskAutomatically": false,
      "assetStoreId": "",
      "name": "pencilCase_pic",
      "type": "Sprite",
      "updateIfNotVisible": false,
      "variables": [],
      "effects": [],
      "behaviors": [],
      "animations": [
        {
          "name": "",
          "useMultipleDirections": false,
          "directions": [
            {
              "looping": false,
              "timeBetweenFrames": 0.08,
              "sprites": [
                {
                  "hasCustomCollisionMask": false,
                  "image": "assets\\hộp bút.png",
                  "points": [],
                  "originPoint": {
                    "name": "origine",
                    "x": 0,
                    "y": 0
                  },
                  "centerPoint": {
                    "automatic": true,
                    "name": "centre",
                    "x": 0,
                    "y": 0
                  },
                  "customCollisionMask": []
                }
              ]
            }
          ]
        }
      ]
    },
    {
      "adaptCollisionMaskAutomatically": false,
      "assetStoreId": "",
      "name": "bag_pic",
      "type": "Sprite",
      "updateIfNotVisible": false,
      "variables": [],
      "effects": [],
      "behaviors": [],
      "animations": [
        {
          "name": "",
          "useMultipleDirections": false,
          "directions": [
            {
              "looping": false,
              "timeBetweenFrames": 0.08,
              "sprites": [
                {
                  "hasCustomCollisionMask": false,
                  "image": "assets\\cặp đi học.png",
                  "points": [],
                  "originPoint": {
                    "name": "origine",
                    "x": 0,
                    "y": 0
                  },
                  "centerPoint": {
                    "automatic": true,
                    "name": "centre",
                    "x": 0,
                    "y": 0
                  },
                  "customCollisionMask": []
                }
              ]
            }
          ]
        }
      ]
    },
    {
      "adaptCollisionMaskAutomatically": false,
      "assetStoreId": "",
      "name": "eraser_pic",
      "type": "Sprite",
      "updateIfNotVisible": false,
      "variables": [],
      "effects": [],
      "behaviors": [],
      "animations": [
        {
          "name": "",
          "useMultipleDirections": false,
          "directions": [
            {
              "looping": false,
              "timeBetweenFrames": 0.08,
              "sprites": [
                {
                  "hasCustomCollisionMask": false,
                  "image": "assets\\cục tẩy.png",
                  "points": [],
                  "originPoint": {
                    "name": "origine",
                    "x": 0,
                    "y": 0
                  },
                  "centerPoint": {
                    "automatic": true,
                    "name": "centre",
                    "x": 0,
                    "y": 0
                  },
                  "customCollisionMask": []
                }
              ]
            }
          ]
        }
      ]
    },
    {
      "adaptCollisionMaskAutomatically": false,
      "assetStoreId": "",
      "name": "scissor_pic",
      "type": "Sprite",
      "updateIfNotVisible": false,
      "variables": [],
      "effects": [],
      "behaviors": [],
      "animations": [
        {
          "name": "",
          "useMultipleDirections": false,
          "directions": [
            {
              "looping": false,
              "timeBetweenFrames": 0.08,
              "sprites": [
                {
                  "hasCustomCollisionMask": false,
                  "image": "assets\\kéo.png",
                  "points": [],
                  "originPoint": {
                    "name": "origine",
                    "x": 0,
                    "y": 0
                  },
                  "centerPoint": {
                    "automatic": true,
                    "name": "centre",
                    "x": 0,
                    "y": 0
                  },
                  "customCollisionMask": []
                }
              ]
            }
          ]
        }
      ]
    },
    {
      "adaptCollisionMaskAutomatically": false,
      "assetStoreId": "",
      "name": "notebook_pic",
      "type": "Sprite",
      "updateIfNotVisible": false,
      "variables": [],
      "effects": [],
      "behaviors": [],
      "animations": [
        {
          "name": "",
          "useMultipleDirections": false,
          "directions": [
            {
              "looping": false,
              "timeBetweenFrames": 0.08,
              "sprites": [
                {
                  "hasCustomCollisionMask": false,
                  "image": "assets\\vở.png",
                  "points": [],
                  "originPoint": {
                    "name": "origine",
                    "x": 0,
                    "y": 0
                  },
                  "centerPoint": {
                    "automatic": true,
                    "name": "centre",
                    "x": 0,
                    "y": 0
                  },
                  "customCollisionMask": []
                }
              ]
            }
          ]
        }
      ]
    },
    {
      "adaptCollisionMaskAutomatically": false,
      "assetStoreId": "",
      "name": "hiddenPencil_pic",
      "type": "Sprite",
      "updateIfNotVisible": false,
      "variables": [],
      "effects": [],
      "behaviors": [],
      "animations": [
        {
          "name": "hidden",
          "useMultipleDirections": false,
          "directions": [
            {
              "looping": false,
              "timeBetweenFrames": 0.08,
              "sprites": [
                {
                  "hasCustomCollisionMask": false,
                  "image": "assets\\ô7.png",
                  "points": [],
                  "originPoint": {
                    "name": "origine",
                    "x": 0,
                    "y": 0
                  },
                  "centerPoint": {
                    "automatic": true,
                    "name": "centre",
                    "x": 0,
                    "y": 0
                  },
                  "customCollisionMask": []
                }
              ]
            }
          ]
        },
        {
          "name": "leak",
          "useMultipleDirections": false,
          "directions": [
            {
              "looping": false,
              "timeBetweenFrames": 0.08,
              "sprites": [
                {
                  "hasCustomCollisionMask": false,
                  "image": "assets\\bút chì.png",
                  "points": [],
                  "originPoint": {
                    "name": "origine",
                    "x": 0,
                    "y": 0
                  },
                  "centerPoint": {
                    "automatic": true,
                    "name": "centre",
                    "x": 0,
                    "y": 0
                  },
                  "customCollisionMask": []
                }
              ]
            }
          ]
        }
      ]
    },
    {
      "adaptCollisionMaskAutomatically": false,
      "assetStoreId": "",
      "name": "hiddenPencilcase_pic",
      "type": "Sprite",
      "updateIfNotVisible": false,
      "variables": [],
      "effects": [],
      "behaviors": [],
      "animations": [
        {
          "name": "hidden",
          "useMultipleDirections": false,
          "directions": [
            {
              "looping": false,
              "timeBetweenFrames": 0.08,
              "sprites": [
                {
                  "hasCustomCollisionMask": false,
                  "image": "assets\\ô7.png",
                  "points": [],
                  "originPoint": {
                    "name": "origine",
                    "x": 0,
                    "y": 0
                  },
                  "centerPoint": {
                    "automatic": true,
                    "name": "centre",
                    "x": 0,
                    "y": 0
                  },
                  "customCollisionMask": []
                }
              ]
            }
          ]
        },
        {
          "name": "leak",
          "useMultipleDirections": false,
          "directions": [
            {
              "looping": false,
              "timeBetweenFrames": 0.08,
              "sprites": [
                {
                  "hasCustomCollisionMask": false,
                  "image": "assets\\hộp bút.png",
                  "points": [],
                  "originPoint": {
                    "name": "origine",
                    "x": 0,
                    "y": 0
                  },
                  "centerPoint": {
                    "automatic": true,
                    "name": "centre",
                    "x": 0,
                    "y": 0
                  },
                  "customCollisionMask": []
                }
              ]
            }
          ]
        }
      ]
    },
    {
      "adaptCollisionMaskAutomatically": false,
      "assetStoreId": "",
      "name": "hiddenRuler_pic",
      "type": "Sprite",
      "updateIfNotVisible": false,
      "variables": [],
      "effects": [],
      "behaviors": [],
      "animations": [
        {
          "name": "hidden",
          "useMultipleDirections": false,
          "directions": [
            {
              "looping": false,
              "timeBetweenFrames": 0.08,
              "sprites": [
                {
                  "hasCustomCollisionMask": false,
                  "image": "assets\\ô7.png",
                  "points": [],
                  "originPoint": {
                    "name": "origine",
                    "x": 0,
                    "y": 0
                  },
                  "centerPoint": {
                    "automatic": true,
                    "name": "centre",
                    "x": 0,
                    "y": 0
                  },
                  "customCollisionMask": []
                }
              ]
            }
          ]
        },
        {
          "name": "leak",
          "useMultipleDirections": false,
          "directions": [
            {
              "looping": false,
              "timeBetweenFrames": 0.08,
              "sprites": [
                {
                  "hasCustomCollisionMask": false,
                  "image": "assets\\thước kẻ.png",
                  "points": [],
                  "originPoint": {
                    "name": "origine",
                    "x": 0,
                    "y": 0
                  },
                  "centerPoint": {
                    "automatic": true,
                    "name": "centre",
                    "x": 0,
                    "y": 0
                  },
                  "customCollisionMask": []
                }
              ]
            }
          ]
        }
      ]
    },
    {
      "adaptCollisionMaskAutomatically": false,
      "assetStoreId": "",
      "name": "hiddenProjector_pic",
      "type": "Sprite",
      "updateIfNotVisible": false,
      "variables": [],
      "effects": [],
      "behaviors": [],
      "animations": [
        {
          "name": "hidden",
          "useMultipleDirections": false,
          "directions": [
            {
              "looping": false,
              "timeBetweenFrames": 0.08,
              "sprites": [
                {
                  "hasCustomCollisionMask": false,
                  "image": "assets\\ô7.png",
                  "points": [],
                  "originPoint": {
                    "name": "origine",
                    "x": 0,
                    "y": 0
                  },
                  "centerPoint": {
                    "automatic": true,
                    "name": "centre",
                    "x": 0,
                    "y": 0
                  },
                  "customCollisionMask": []
                }
              ]
            }
          ]
        },
        {
          "name": "leak",
          "useMultipleDirections": false,
          "directions": [
            {
              "looping": false,
              "timeBetweenFrames": 0.08,
              "sprites": [
                {
                  "hasCustomCollisionMask": false,
                  "image": "assets\\máy chiếu.png",
                  "points": [],
                  "originPoint": {
                    "name": "origine",
                    "x": 0,
                    "y": 0
                  },
                  "centerPoint": {
                    "automatic": true,
                    "name": "centre",
                    "x": 0,
                    "y": 0
                  },
                  "customCollisionMask": []
                }
              ]
            }
          ]
        }
      ]
    },
    {
      "adaptCollisionMaskAutomatically": false,
      "assetStoreId": "",
      "name": "hiddenScissor_pic",
      "type": "Sprite",
      "updateIfNotVisible": false,
      "variables": [],
      "effects": [],
      "behaviors": [],
      "animations": [
        {
          "name": "hidden",
          "useMultipleDirections": false,
          "directions": [
            {
              "looping": false,
              "timeBetweenFrames": 0.08,
              "sprites": [
                {
                  "hasCustomCollisionMask": false,
                  "image": "assets\\ô7.png",
                  "points": [],
                  "originPoint": {
                    "name": "origine",
                    "x": 0,
                    "y": 0
                  },
                  "centerPoint": {
                    "automatic": true,
                    "name": "centre",
                    "x": 0,
                    "y": 0
                  },
                  "customCollisionMask": []
                }
              ]
            }
          ]
        },
        {
          "name": "leak",
          "useMultipleDirections": false,
          "directions": [
            {
              "looping": false,
              "timeBetweenFrames": 0.08,
              "sprites": [
                {
                  "hasCustomCollisionMask": false,
                  "image": "assets\\kéo.png",
                  "points": [],
                  "originPoint": {
                    "name": "origine",
                    "x": 0,
                    "y": 0
                  },
                  "centerPoint": {
                    "automatic": true,
                    "name": "centre",
                    "x": 0,
                    "y": 0
                  },
                  "customCollisionMask": []
                }
              ]
            }
          ]
        }
      ]
    },
    {
      "adaptCollisionMaskAutomatically": false,
      "assetStoreId": "",
      "name": "hiddenNote_pic",
      "type": "Sprite",
      "updateIfNotVisible": false,
      "variables": [],
      "effects": [],
      "behaviors": [],
      "animations": [
        {
          "name": "hidden",
          "useMultipleDirections": false,
          "directions": [
            {
              "looping": false,
              "timeBetweenFrames": 0.08,
              "sprites": [
                {
                  "hasCustomCollisionMask": false,
                  "image": "assets\\ô7.png",
                  "points": [],
                  "originPoint": {
                    "name": "origine",
                    "x": 0,
                    "y": 0
                  },
                  "centerPoint": {
                    "automatic": true,
                    "name": "centre",
                    "x": 0,
                    "y": 0
                  },
                  "customCollisionMask": []
                }
              ]
            }
          ]
        },
        {
          "name": "leak",
          "useMultipleDirections": false,
          "directions": [
            {
              "looping": false,
              "timeBetweenFrames": 0.08,
              "sprites": [
                {
                  "hasCustomCollisionMask": false,
                  "image": "assets\\vở.png",
                  "points": [],
                  "originPoint": {
                    "name": "origine",
                    "x": 0,
                    "y": 0
                  },
                  "centerPoint": {
                    "automatic": true,
                    "name": "centre",
                    "x": 0,
                    "y": 0
                  },
                  "customCollisionMask": []
                }
              ]
            }
          ]
        }
      ]
    },
    {
      "assetStoreId": "",
      "bold": false,
      "italic": false,
      "name": "NewText",
      "smoothed": true,
      "type": "TextObject::Text",
      "underlined": false,
      "variables": [],
      "effects": [],
      "behaviors": [],
      "string": "Text",
      "font": "",
      "textAlignment": "left",
      "characterSize": 20,
      "color": {
        "b": 0,
        "g": 0,
        "r": 0
      }
    },
    {
      "adaptCollisionMaskAutomatically": false,
      "assetStoreId": "",
      "name": "projector_pic",
      "type": "Sprite",
      "updateIfNotVisible": false,
      "variables": [],
      "effects": [],
      "behaviors": [],
      "animations": [
        {
          "name": "",
          "useMultipleDirections": false,
          "directions": [
            {
              "looping": false,
              "timeBetweenFrames": 0.08,
              "sprites": [
                {
                  "hasCustomCollisionMask": false,
                  "image": "assets\\máy chiếu.png",
                  "points": [],
                  "originPoint": {
                    "name": "origine",
                    "x": 0,
                    "y": 0
                  },
                  "centerPoint": {
                    "automatic": true,
                    "name": "centre",
                    "x": 0,
                    "y": 0
                  },
                  "customCollisionMask": []
                }
              ]
            }
          ]
        }
      ]
    },
    {
      "adaptCollisionMaskAutomatically": false,
      "assetStoreId": "",
      "name": "ruler_choice",
      "type": "Sprite",
      "updateIfNotVisible": false,
      "variables": [],
      "effects": [],
      "behaviors": [],
      "animations": [
        {
          "name": "",
          "useMultipleDirections": false,
          "directions": [
            {
              "looping": false,
              "timeBetweenFrames": 0.08,
              "sprites": [
                {
                  "hasCustomCollisionMask": false,
                  "image": "assets\\thước kẻ.png",
                  "points": [],
                  "originPoint": {
                    "name": "origine",
                    "x": 0,
                    "y": 0
                  },
                  "centerPoint": {
                    "automatic": true,
                    "name": "centre",
                    "x": 0,
                    "y": 0
                  },
                  "customCollisionMask": []
                }
              ]
            }
          ]
        }
      ]
    }
  ],
  "objectsFolderStructure": {
    "folderName": "__ROOT",
    "children": [
      {
        "objectName": "Question_text"
      },
      {
        "objectName": "Time_inGame"
      },
      {
        "objectName": "MiniText_Tutorial"
      },
      {
        "objectName": "Continue_Level"
      },
      {
        "objectName": "Time_Level"
      },
      {
        "objectName": "NewSprite2"
      },
      {
        "objectName": "board_element"
      },
      {
        "objectName": "pencil_pic"
      },
      {
        "objectName": "pencilCase_pic"
      },
      {
        "objectName": "bag_pic"
      },
      {
        "objectName": "eraser_pic"
      },
      {
        "objectName": "scissor_pic"
      },
      {
        "objectName": "notebook_pic"
      },
      {
        "objectName": "hiddenPencil_pic"
      },
      {
        "objectName": "hiddenPencilcase_pic"
      },
      {
        "objectName": "hiddenRuler_pic"
      },
      {
        "objectName": "hiddenProjector_pic"
      },
      {
        "objectName": "hiddenScissor_pic"
      },
      {
        "objectName": "hiddenNote_pic"
      },
      {
        "objectName": "NewText"
      },
      {
        "objectName": "projector_pic"
      },
      {
        "objectName": "ruler_choice"
      }
    ]
  },
  "events": [
    {
      "type": "BuiltinCommonInstructions::Comment",
      "color": {
        "b": 109,
        "g": 230,
        "r": 255,
        "textB": 0,
        "textG": 0,
        "textR": 0
      },
      "comment": "Bắt đầu 10s đầu"
    },
    {
      "type": "BuiltinCommonInstructions::Standard",
      "conditions": [
        {
          "type": {
            "value": "DepartScene"
          },
          "parameters": [
            ""
          ]
        }
      ],
      "actions": [
        {
          "type": {
            "value": "ResetTimer"
          },
          "parameters": [
            "",
            "\"Time_rememberPic\""
          ]
        },
        {
          "type": {
            "value": "Cache"
          },
          "parameters": [
            "Overlay_opacity"
          ]
        },
        {
          "type": {
            "value": "Cache"
          },
          "parameters": [
            "tick_fasle"
          ]
        },
        {
          "type": {
            "value": "Cache"
          },
          "parameters": [
            "Continue_Level"
          ]
        },
        {
          "type": {
            "value": "Cache"
          },
          "parameters": [
            "Question_text"
          ]
        },
        {
          "type": {
            "value": "Cache"
          },
          "parameters": [
            "Time_Lose"
          ]
        },
        {
          "type": {
            "value": "Cache"
          },
          "parameters": [
            "tick_pass"
          ]
        },
        {
          "type": {
            "value": "ResetTimer"
          },
          "parameters": [
            "",
            "\"Time_testMemory\""
          ]
        },
        {
          "type": {
            "value": "Cache"
          },
          "parameters": [
            "notify_board"
          ]
        },
        {
          "type": {
            "value": "Cache"
          },
          "parameters": [
            "Win_inGame"
          ]
        },
        {
          "type": {
            "value": "Cache"
          },
          "parameters": [
            "subtract_time4"
          ]
        },
        {
          "type": {
            "value": "PlaySound"
          },
          "parameters": [
            "",
            "audio\\ingame.mp3",
            "no",
            "30",
            "1"
          ]
        },
        {
          "type": {
            "value": "TextObject::String"
          },
          "parameters": [
            "currentScore",
            "=",
            "ToString(GlobalVariable(playerScore))"
          ]
        }
      ]
    },
    {
      "type": "BuiltinCommonInstructions::Standard",
      "conditions": [
        {
          "type": {
            "value": "CompareTimer"
          },
          "parameters": [
            "",
            "\"Time_rememberPic\"",
            ">=",
            "1"
          ]
        },
        {
          "type": {
            "value": "BuiltinCommonInstructions::Once"
          },
          "parameters": []
        }
      ],
      "actions": [
        {
          "type": {
            "value": "ModVarScene"
          },
          "parameters": [
            "Time_rememberPic",
            "+",
            "-1"
          ]
        },
        {
          "type": {
            "value": "ResetTimer"
          },
          "parameters": [
            "",
            "\"Time_rememberPic\""
          ]
        }
      ]
    },
    {
      "type": "BuiltinCommonInstructions::Standard",
      "conditions": [],
      "actions": [
        {
          "type": {
            "value": "TextObject::String"
          },
          "parameters": [
            "Time_inGame",
            "=",
            "ToString(Variable(Time_rememberPic))"
          ]
        }
      ]
    },
    {
      "type": "BuiltinCommonInstructions::Standard",
      "conditions": [
        {
          "type": {
            "value": "CompareTimer"
          },
          "parameters": [
            "",
            "\"Time_testMemory\"",
            ">=",
            "1"
          ]
        },
        {
          "type": {
            "value": "BuiltinCommonInstructions::Once"
          },
          "parameters": []
        }
      ],
      "actions": [
        {
          "type": {
            "value": "ModVarScene"
          },
          "parameters": [
            "Time_testMemory",
            "+",
            "1"
          ]
        },
        {
          "type": {
            "value": "ResetTimer"
          },
          "parameters": [
            "",
            "\"Time_testMemory\""
          ]
        }
      ]
    },
    {
      "type": "BuiltinCommonInstructions::Standard",
      "conditions": [
        {
          "type": {
            "value": "VarScene"
          },
          "parameters": [
            "Time_rememberPic",
            "=",
            "0"
          ]
        }
      ],
      "actions": [
        {
          "type": {
            "value": "Delete"
          },
          "parameters": [
            "Time_inGame",
            ""
          ]
        },
        {
          "type": {
            "value": "Delete"
          },
          "parameters": [
            "pencil_pic",
            ""
          ]
        },
        {
          "type": {
            "value": "Delete"
          },
          "parameters": [
            "pencilCase_pic",
            ""
          ]
        },
        {
          "type": {
            "value": "Delete"
          },
          "parameters": [
            "projector_pic",
            ""
          ]
        },
        {
          "type": {
            "value": "Delete"
          },
          "parameters": [
            "ruler_choice",
            ""
          ]
        },
        {
          "type": {
            "value": "Delete"
          },
          "parameters": [
            "scissor_pic",
            ""
          ]
        },
        {
          "type": {
            "value": "Delete"
          },
          "parameters": [
            "notebook_pic",
            ""
          ]
        },
        {
          "type": {
            "value": "Montre"
          },
          "parameters": [
            "Question_text",
            ""
          ]
        },
        {
          "type": {
            "value": "SetSceneVariableAsBoolean"
          },
          "parameters": [
            "Check_subScore",
            "True"
          ]
        },
        {
          "type": {
            "value": "TextObject::String"
          },
          "parameters": [
            "MiniText_Tutorial",
            "=",
            "\"Image about:\""
          ]
        }
      ]
    },
    {
      "type": "BuiltinCommonInstructions::Comment",
      "color": {
        "b": 109,
        "g": 230,
        "r": 255,
        "textB": 0,
        "textG": 0,
        "textR": 0
      },
      "comment": "Click to Open Card"
    },
    {
      "disabled": true,
      "type": "BuiltinCommonInstructions::Standard",
      "conditions": [
        {
          "type": {
            "value": "VarScene"
          },
          "parameters": [
            "Time_rememberPic",
            "=",
            "0"
          ]
        }
      ],
      "actions": [
        {
          "type": {
            "value": "SetSceneVariableAsBoolean"
          },
          "parameters": [
            "Check_subScore",
            "True"
          ]
        }
      ]
    },
    {
      "type": "BuiltinCommonInstructions::Standard",
      "conditions": [
        {
          "type": {
            "value": "SourisSurObjet"
          },
          "parameters": [
            "hiddenPencil_pic",
            "",
            "",
            ""
          ]
        },
        {
          "type": {
            "value": "MouseButtonReleased"
          },
          "parameters": [
            "",
            "Left"
          ]
        },
        {
          "type": {
            "value": "AnimationName"
          },
          "parameters": [
            "hiddenPencil_pic",
            "\"hidden\""
          ]
        },
        {
          "type": {
            "inverted": true,
            "value": "Visible"
          },
          "parameters": [
            "Win_inGame"
          ]
        },
        {
          "type": {
            "value": "VarScene"
          },
          "parameters": [
            "Time_Level",
            ">",
            "0"
          ]
        },
        {
          "type": {
            "value": "SceneVariableAsBoolean"
          },
          "parameters": [
            "Check_subScore",
            "True"
          ]
        }
      ],
      "actions": [
        {
          "type": {
            "value": "PlaySound"
          },
          "parameters": [
            "",
            "audio\\false.mp3",
            "no",
            "100",
            "1"
          ]
        },
        {
          "type": {
            "value": "SetAnimationName"
          },
          "parameters": [
            "hiddenPencil_pic",
            "\"leak\""
          ]
        },
        {
          "type": {
            "value": "ModVarScene"
          },
          "parameters": [
            "Time_Level",
            "-",
            "4"
          ]
        },
        {
          "type": {
            "value": "ResetTimer"
          },
          "parameters": [
            "",
            "\"time_subtractTime\""
          ]
        },
        {
          "type": {
            "value": "Montre"
          },
          "parameters": [
            "subtract_time4",
            ""
          ]
        }
      ]
    },
    {
      "type": "BuiltinCommonInstructions::Standard",
      "conditions": [
        {
          "type": {
            "value": "SourisSurObjet"
          },
          "parameters": [
            "hiddenPencilcase_pic",
            "",
            "",
            ""
          ]
        },
        {
          "type": {
            "value": "MouseButtonReleased"
          },
          "parameters": [
            "",
            "Left"
          ]
        },
        {
          "type": {
            "value": "AnimationName"
          },
          "parameters": [
            "hiddenPencilcase_pic",
            "\"hidden\""
          ]
        },
        {
          "type": {
            "inverted": true,
            "value": "Visible"
          },
          "parameters": [
            "Win_inGame"
          ]
        },
        {
          "type": {
            "value": "VarScene"
          },
          "parameters": [
            "Time_Level",
            ">",
            "0"
          ]
        },
        {
          "type": {
            "value": "SceneVariableAsBoolean"
          },
          "parameters": [
            "Check_subScore",
            "True"
          ]
        }
      ],
      "actions": [
        {
          "type": {
            "value": "PlaySound"
          },
          "parameters": [
            "",
            "audio\\false.mp3",
            "no",
            "100",
            "1"
          ]
        },
        {
          "type": {
            "value": "SetAnimationName"
          },
          "parameters": [
            "hiddenPencilcase_pic",
            "\"leak\""
          ]
        },
        {
          "type": {
            "value": "ModVarScene"
          },
          "parameters": [
            "Time_Level",
            "-",
            "4"
          ]
        },
        {
          "type": {
            "value": "ResetTimer"
          },
          "parameters": [
            "",
            "\"time_subtractTime\""
          ]
        },
        {
          "type": {
            "value": "Montre"
          },
          "parameters": [
            "subtract_time4",
            ""
          ]
        }
      ]
    },
    {
      "type": "BuiltinCommonInstructions::Standard",
      "conditions": [
        {
          "type": {
            "value": "SourisSurObjet"
          },
          "parameters": [
            "hiddenRuler_pic",
            "",
            "",
            ""
          ]
        },
        {
          "type": {
            "value": "MouseButtonReleased"
          },
          "parameters": [
            "",
            "Left"
          ]
        },
        {
          "type": {
            "value": "AnimationName"
          },
          "parameters": [
            "hiddenRuler_pic",
            "\"hidden\""
          ]
        },
        {
          "type": {
            "inverted": true,
            "value": "Visible"
          },
          "parameters": [
            "Win_inGame"
          ]
        },
        {
          "type": {
            "value": "VarScene"
          },
          "parameters": [
            "Time_Level",
            ">",
            "0"
          ]
        },
        {
          "type": {
            "value": "SceneVariableAsBoolean"
          },
          "parameters": [
            "Check_subScore",
            "True"
          ]
        }
      ],
      "actions": [
        {
          "type": {
            "value": "PlaySound"
          },
          "parameters": [
            "",
            "audio\\true.mp3",
            "no",
            "100",
            "1"
          ]
        },
        {
          "type": {
            "value": "SetAnimationName"
          },
          "parameters": [
            "hiddenRuler_pic",
            "\"leak\""
          ]
        }
      ]
    },
    {
      "type": "BuiltinCommonInstructions::Standard",
      "conditions": [
        {
          "type": {
            "value": "SourisSurObjet"
          },
          "parameters": [
            "hiddenProjector_pic",
            "",
            "",
            ""
          ]
        },
        {
          "type": {
            "value": "MouseButtonReleased"
          },
          "parameters": [
            "",
            "Left"
          ]
        },
        {
          "type": {
            "value": "AnimationName"
          },
          "parameters": [
            "hiddenProjector_pic",
            "\"hidden\""
          ]
        },
        {
          "type": {
            "inverted": true,
            "value": "Visible"
          },
          "parameters": [
            "Win_inGame"
          ]
        },
        {
          "type": {
            "value": "VarScene"
          },
          "parameters": [
            "Time_Level",
            ">",
            "0"
          ]
        },
        {
          "type": {
            "value": "SceneVariableAsBoolean"
          },
          "parameters": [
            "Check_subScore",
            "True"
          ]
        }
      ],
      "actions": [
        {
          "type": {
            "value": "PlaySound"
          },
          "parameters": [
            "",
            "audio\\false.mp3",
            "no",
            "100",
            "1"
          ]
        },
        {
          "type": {
            "value": "SetAnimationName"
          },
          "parameters": [
            "hiddenProjector_pic",
            "\"leak\""
          ]
        },
        {
          "type": {
            "value": "ModVarScene"
          },
          "parameters": [
            "Time_Level",
            "-",
            "4"
          ]
        },
        {
          "type": {
            "value": "ResetTimer"
          },
          "parameters": [
            "",
            "\"time_subtractTime\""
          ]
        },
        {
          "type": {
            "value": "Montre"
          },
          "parameters": [
            "subtract_time4",
            ""
          ]
        }
      ]
    },
    {
      "type": "BuiltinCommonInstructions::Standard",
      "conditions": [
        {
          "type": {
            "value": "SourisSurObjet"
          },
          "parameters": [
            "hiddenScissor_pic",
            "",
            "",
            ""
          ]
        },
        {
          "type": {
            "value": "MouseButtonReleased"
          },
          "parameters": [
            "",
            "Left"
          ]
        },
        {
          "type": {
            "value": "AnimationName"
          },
          "parameters": [
            "hiddenScissor_pic",
            "\"hidden\""
          ]
        },
        {
          "type": {
            "inverted": true,
            "value": "Visible"
          },
          "parameters": [
            "Win_inGame"
          ]
        },
        {
          "type": {
            "value": "VarScene"
          },
          "parameters": [
            "Time_Level",
            ">",
            "0"
          ]
        },
        {
          "type": {
            "value": "SceneVariableAsBoolean"
          },
          "parameters": [
            "Check_subScore",
            "True"
          ]
        }
      ],
      "actions": [
        {
          "type": {
            "value": "PlaySound"
          },
          "parameters": [
            "",
            "audio\\false.mp3",
            "no",
            "100",
            "1"
          ]
        },
        {
          "type": {
            "value": "SetAnimationName"
          },
          "parameters": [
            "hiddenScissor_pic",
            "\"leak\""
          ]
        },
        {
          "type": {
            "value": "ModVarScene"
          },
          "parameters": [
            "Time_Level",
            "-",
            "4"
          ]
        },
        {
          "type": {
            "value": "ResetTimer"
          },
          "parameters": [
            "",
            "\"time_subtractTime\""
          ]
        },
        {
          "type": {
            "value": "Montre"
          },
          "parameters": [
            "subtract_time4",
            ""
          ]
        }
      ]
    },
    {
      "type": "BuiltinCommonInstructions::Standard",
      "conditions": [
        {
          "type": {
            "value": "SourisSurObjet"
          },
          "parameters": [
            "hiddenNote_pic",
            "",
            "",
            ""
          ]
        },
        {
          "type": {
            "value": "MouseButtonReleased"
          },
          "parameters": [
            "",
            "Left"
          ]
        },
        {
          "type": {
            "value": "AnimationName"
          },
          "parameters": [
            "hiddenNote_pic",
            "\"hidden\""
          ]
        },
        {
          "type": {
            "inverted": true,
            "value": "Visible"
          },
          "parameters": [
            "Win_inGame"
          ]
        },
        {
          "type": {
            "value": "VarScene"
          },
          "parameters": [
            "Time_Level",
            ">",
            "0"
          ]
        },
        {
          "type": {
            "value": "SceneVariableAsBoolean"
          },
          "parameters": [
            "Check_subScore",
            "True"
          ]
        }
      ],
      "actions": [
        {
          "type": {
            "value": "PlaySound"
          },
          "parameters": [
            "",
            "audio\\false.mp3",
            "no",
            "100",
            "1"
          ]
        },
        {
          "type": {
            "value": "SetAnimationName"
          },
          "parameters": [
            "hiddenNote_pic",
            "\"leak\""
          ]
        },
        {
          "type": {
            "value": "ModVarScene"
          },
          "parameters": [
            "Time_Level",
            "-",
            "4"
          ]
        },
        {
          "type": {
            "value": "ResetTimer"
          },
          "parameters": [
            "",
            "\"time_subtractTime\""
          ]
        },
        {
          "type": {
            "value": "Montre"
          },
          "parameters": [
            "subtract_time4",
            ""
          ]
        }
      ]
    },
    {
      "type": "BuiltinCommonInstructions::Comment",
      "color": {
        "b": 109,
        "g": 230,
        "r": 255,
        "textB": 0,
        "textG": 0,
        "textR": 0
      },
      "comment": "Úp thẻ xuống sau 1s khi click lật lên\n"
    },
    {
      "type": "BuiltinCommonInstructions::Standard",
      "conditions": [
        {
          "type": {
            "value": "AnimationName"
          },
          "parameters": [
            "hiddenPencil_pic",
            "\"leak\""
          ]
        },
        {
          "type": {
            "value": "BuiltinCommonInstructions::Once"
          },
          "parameters": []
        }
      ],
      "actions": [
        {
          "type": {
            "value": "ResetTimer"
          },
          "parameters": [
            "",
            "\"Time_leakPencil\""
          ]
        },
        {
          "type": {
            "value": "ResetTimer"
          },
          "parameters": [
            "",
            "\"time_subtractTime\""
          ]
        }
      ]
    },
    {
      "type": "BuiltinCommonInstructions::Standard",
      "conditions": [
        {
          "type": {
            "value": "CompareTimer"
          },
          "parameters": [
            "",
            "\"Time_leakPencil\"",
            ">=",
            "1"
          ]
        },
        {
          "type": {
            "value": "CompareTimer"
          },
          "parameters": [
            "",
            "\"time_subtractTime\"",
            ">=",
            "0.5"
          ]
        }
      ],
      "actions": [
        {
          "type": {
            "value": "SetAnimationName"
          },
          "parameters": [
            "hiddenPencil_pic",
            "\"hidden\""
          ]
        },
        {
          "type": {
            "value": "Cache"
          },
          "parameters": [
            "subtract_time4"
          ]
        }
      ]
    },
    {
      "type": "BuiltinCommonInstructions::Standard",
      "conditions": [
        {
          "type": {
            "value": "AnimationName"
          },
          "parameters": [
            "hiddenPencilcase_pic",
            "\"leak\""
          ]
        },
        {
          "type": {
            "value": "BuiltinCommonInstructions::Once"
          },
          "parameters": []
        }
      ],
      "actions": [
        {
          "type": {
            "value": "ResetTimer"
          },
          "parameters": [
            "",
            "\"Time_leakPencilCase\""
          ]
        },
        {
          "type": {
            "value": "ResetTimer"
          },
          "parameters": [
            "",
            "\"time_subtractTime\""
          ]
        }
      ]
    },
    {
      "type": "BuiltinCommonInstructions::Standard",
      "conditions": [
        {
          "type": {
            "value": "CompareTimer"
          },
          "parameters": [
            "",
            "\"Time_leakPencilCase\"",
            ">=",
            "1"
          ]
        },
        {
          "type": {
            "value": "CompareTimer"
          },
          "parameters": [
            "",
            "\"time_subtractTime\"",
            ">=",
            "0.5"
          ]
        }
      ],
      "actions": [
        {
          "type": {
            "value": "SetAnimationName"
          },
          "parameters": [
            "hiddenPencilcase_pic",
            "\"hidden\""
          ]
        },
        {
          "type": {
            "value": "Cache"
          },
          "parameters": [
            "subtract_time4"
          ]
        }
      ]
    },
    {
      "type": "BuiltinCommonInstructions::Standard",
      "conditions": [
        {
          "type": {
            "value": "AnimationName"
          },
          "parameters": [
            "hiddenRuler_pic",
            "\"leak\""
          ]
        },
        {
          "type": {
            "value": "BuiltinCommonInstructions::Once"
          },
          "parameters": []
        }
      ],
      "actions": [
        {
          "type": {
            "value": "ResetTimer"
          },
          "parameters": [
            "",
            "\"Time_leakBag\""
          ]
        }
      ]
    },
    {
      "type": "BuiltinCommonInstructions::Standard",
      "conditions": [
        {
          "type": {
            "value": "AnimationName"
          },
          "parameters": [
            "hiddenProjector_pic",
            "\"leak\""
          ]
        },
        {
          "type": {
            "value": "BuiltinCommonInstructions::Once"
          },
          "parameters": []
        }
      ],
      "actions": [
        {
          "type": {
            "value": "ResetTimer"
          },
          "parameters": [
            "",
            "\"Time_leakEraser\""
          ]
        },
        {
          "type": {
            "value": "ResetTimer"
          },
          "parameters": [
            "",
            "\"time_subtractTime\""
          ]
        }
      ]
    },
    {
      "type": "BuiltinCommonInstructions::Standard",
      "conditions": [
        {
          "type": {
            "value": "CompareTimer"
          },
          "parameters": [
            "",
            "\"Time_leakEraser\"",
            ">=",
            "1"
          ]
        },
        {
          "type": {
            "value": "CompareTimer"
          },
          "parameters": [
            "",
            "\"time_subtractTime\"",
            ">=",
            "0.5"
          ]
        }
      ],
      "actions": [
        {
          "type": {
            "value": "SetAnimationName"
          },
          "parameters": [
            "hiddenProjector_pic",
            "\"hidden\""
          ]
        },
        {
          "type": {
            "value": "Cache"
          },
          "parameters": [
            "subtract_time4"
          ]
        }
      ]
    },
    {
      "type": "BuiltinCommonInstructions::Standard",
      "conditions": [
        {
          "type": {
            "value": "AnimationName"
          },
          "parameters": [
            "hiddenScissor_pic",
            "\"leak\""
          ]
        },
        {
          "type": {
            "value": "BuiltinCommonInstructions::Once"
          },
          "parameters": []
        }
      ],
      "actions": [
        {
          "type": {
            "value": "ResetTimer"
          },
          "parameters": [
            "",
            "\"Time_leakScissor\""
          ]
        },
        {
          "type": {
            "value": "ResetTimer"
          },
          "parameters": [
            "",
            "\"time_subtractTime\""
          ]
        }
      ]
    },
    {
      "type": "BuiltinCommonInstructions::Standard",
      "conditions": [
        {
          "type": {
            "value": "CompareTimer"
          },
          "parameters": [
            "",
            "\"Time_leakScissor\"",
            ">=",
            "1"
          ]
        },
        {
          "type": {
            "value": "CompareTimer"
          },
          "parameters": [
            "",
            "\"time_subtractTime\"",
            ">=",
            "0.5"
          ]
        }
      ],
      "actions": [
        {
          "type": {
            "value": "SetAnimationName"
          },
          "parameters": [
            "hiddenScissor_pic",
            "\"hidden\""
          ]
        },
        {
          "type": {
            "value": "Cache"
          },
          "parameters": [
            "subtract_time4"
          ]
        }
      ]
    },
    {
      "type": "BuiltinCommonInstructions::Standard",
      "conditions": [
        {
          "type": {
            "value": "AnimationName"
          },
          "parameters": [
            "hiddenNote_pic",
            "\"leak\""
          ]
        },
        {
          "type": {
            "value": "BuiltinCommonInstructions::Once"
          },
          "parameters": []
        }
      ],
      "actions": [
        {
          "type": {
            "value": "ResetTimer"
          },
          "parameters": [
            "",
            "\"Time_leakNote\""
          ]
        },
        {
          "type": {
            "value": "ResetTimer"
          },
          "parameters": [
            "",
            "\"time_subtractTime\""
          ]
        }
      ]
    },
    {
      "type": "BuiltinCommonInstructions::Standard",
      "conditions": [
        {
          "type": {
            "value": "CompareTimer"
          },
          "parameters": [
            "",
            "\"Time_leakNote\"",
            ">=",
            "1"
          ]
        },
        {
          "type": {
            "value": "CompareTimer"
          },
          "parameters": [
            "",
            "\"time_subtractTime\"",
            ">=",
            "0.5"
          ]
        }
      ],
      "actions": [
        {
          "type": {
            "value": "SetAnimationName"
          },
          "parameters": [
            "hiddenNote_pic",
            "\"hidden\""
          ]
        },
        {
          "type": {
            "value": "Cache"
          },
          "parameters": [
            "subtract_time4"
          ]
        }
      ]
    },
    {
      "type": "BuiltinCommonInstructions::Standard",
      "conditions": [
        {
          "type": {
            "value": "CompareTimer"
          },
          "parameters": [
            "",
            "\"Time_leakBag\"",
            ">=",
            "1"
          ]
        },
        {
          "type": {
            "value": "BuiltinCommonInstructions::Once"
          },
          "parameters": []
        }
      ],
      "actions": [
        {
          "type": {
            "value": "ChangeTimeScale"
          },
          "parameters": [
            "Mysteries_cardGreen",
            "0"
          ]
        },
        {
          "type": {
            "value": "Montre"
          },
          "parameters": [
            "Overlay_opacity",
            ""
          ]
        },
        {
          "type": {
            "value": "Montre"
          },
          "parameters": [
            "Win_inGame",
            ""
          ]
        },
        {
          "type": {
            "value": "MettreX"
          },
          "parameters": [
            "Win_inGame",
            "=",
            "566"
          ]
        },
        {
          "type": {
            "value": "MettreY"
          },
          "parameters": [
            "Win_inGame",
            "=",
            "397"
          ]
        },
        {
          "type": {
            "value": "Montre"
          },
          "parameters": [
            "Continue_Level",
            ""
          ]
        },
        {
          "type": {
            "value": "MettreX"
          },
          "parameters": [
            "Continue_Level",
            "=",
            "465"
          ]
        },
        {
          "type": {
            "value": "MettreY"
          },
          "parameters": [
            "Continue_Level",
            "=",
            "482"
          ]
        },
        {
          "type": {
            "value": "ModVarScene"
          },
          "parameters": [
            "bonusScore",
            "=",
            "round(Variable(Time_Level)*3/2)"
          ]
        },
        {
          "type": {
            "value": "ModVarGlobal"
          },
          "parameters": [
            "playerScore",
            "+",
            "70 + Variable(bonusScore)"
          ]
        },
        {
          "type": {
            "value": "Montre"
          },
          "parameters": [
            "notify_board",
            ""
          ]
        },
        {
          "type": {
            "value": "MettreX"
          },
          "parameters": [
            "notify_board",
            "=",
            "157"
          ]
        },
        {
          "type": {
            "value": "MettreY"
          },
          "parameters": [
            "notify_board",
            "=",
            "-58"
          ]
        },
        {
          "type": {
            "value": "Montre"
          },
          "parameters": [
            "tick_pass",
            ""
          ]
        },
        {
          "type": {
            "value": "MettreX"
          },
          "parameters": [
            "tick_pass",
            "=",
            "497"
          ]
        },
        {
          "type": {
            "value": "MettreY"
          },
          "parameters": [
            "tick_pass",
            "=",
            "112"
          ]
        }
      ]
    },
    {
      "type": "BuiltinCommonInstructions::Comment",
      "color": {
        "b": 109,
        "g": 230,
        "r": 255,
        "textB": 0,
        "textG": 0,
        "textR": 0
      },
      "comment": "Thời gian của màn"
    },
    {
      "type": "BuiltinCommonInstructions::Standard",
      "conditions": [
        {
          "type": {
            "value": "VarScene"
          },
          "parameters": [
            "Time_rememberPic",
            "=",
            "0"
          ]
        }
      ],
      "actions": [
        {
          "type": {
            "value": "ResetTimer"
          },
          "parameters": [
            "",
            "\"Time_Level\""
          ]
        },
        {
          "type": {
            "value": "Montre"
          },
          "parameters": [
            "Time_Level",
            ""
          ]
        }
      ]
    },
    {
      "type": "BuiltinCommonInstructions::Standard",
      "conditions": [
        {
          "type": {
            "value": "CompareTimer"
          },
          "parameters": [
            "",
            "\"Time_Level\"",
            ">=",
            "1"
          ]
        },
        {
          "type": {
            "value": "BuiltinCommonInstructions::Once"
          },
          "parameters": []
        }
      ],
      "actions": [
        {
          "type": {
            "value": "ModVarScene"
          },
          "parameters": [
            "Time_Level",
            "-",
            "1"
          ]
        },
        {
          "type": {
            "value": "ResetTimer"
          },
          "parameters": [
            "",
            "\"Time_Level\""
          ]
        }
      ]
    },
    {
      "type": "BuiltinCommonInstructions::Standard",
      "conditions": [],
      "actions": [
        {
          "type": {
            "value": "TextObject::String"
          },
          "parameters": [
            "Time_Level",
            "=",
            "ToString(Variable(Time_Level))"
          ]
        }
      ]
    },
    {
      "type": "BuiltinCommonInstructions::Standard",
      "conditions": [
        {
          "type": {
            "value": "VarScene"
          },
          "parameters": [
            "Time_Level",
            "<=",
            "0"
          ]
        },
        {
          "type": {
            "value": "BuiltinCommonInstructions::Once"
          },
          "parameters": []
        }
      ],
      "actions": [
        {
          "type": {
            "value": "ChangeTimeScale"
          },
          "parameters": [
            "",
            "0"
          ]
        },
        {
          "type": {
            "value": "Montre"
          },
          "parameters": [
            "Overlay_opacity",
            ""
          ]
        },
        {
          "type": {
            "value": "Montre"
          },
          "parameters": [
            "Continue_Level",
            ""
          ]
        },
        {
          "type": {
            "value": "MettreX"
          },
          "parameters": [
            "Continue_Level",
            "=",
            "465"
          ]
        },
        {
          "type": {
            "value": "MettreY"
          },
          "parameters": [
            "Continue_Level",
            "=",
            "482"
          ]
        },
        {
          "type": {
            "value": "Montre"
          },
          "parameters": [
            "Time_Lose",
            ""
          ]
        },
        {
          "type": {
            "value": "MettreX"
          },
          "parameters": [
            "Time_Lose",
            "=",
            "566"
          ]
        },
        {
          "type": {
            "value": "MettreY"
          },
          "parameters": [
            "Time_Lose",
            "=",
            "397"
          ]
        },
        {
          "type": {
            "value": "Montre"
          },
          "parameters": [
            "notify_board",
            ""
          ]
        },
        {
          "type": {
            "value": "MettreX"
          },
          "parameters": [
            "notify_board",
            "=",
            "157"
          ]
        },
        {
          "type": {
            "value": "MettreY"
          },
          "parameters": [
            "notify_board",
            "=",
            "-58"
          ]
        },
        {
          "type": {
            "value": "Montre"
          },
          "parameters": [
            "tick_fasle",
            ""
          ]
        },
        {
          "type": {
            "value": "MettreX"
          },
          "parameters": [
            "tick_fasle",
            "=",
            "497"
          ]
        },
        {
          "type": {
            "value": "MettreY"
          },
          "parameters": [
            "tick_fasle",
            "=",
            "112"
          ]
        },
        {
          "type": {
            "value": "ModVarScene"
          },
          "parameters": [
            "bonusScore",
            "=",
            "0"
          ]
        },
        {
          "type": {
            "value": "ModVarGlobal"
          },
          "parameters": [
            "playerScore",
            "+",
            "30"
          ]
        }
      ]
    },
    {
      "type": "BuiltinCommonInstructions::Standard",
      "conditions": [
        {
          "type": {
            "value": "PanelSpriteButton::PanelSpriteButton::IsClicked"
          },
          "parameters": [
            "Continue_Level",
            ""
          ]
        }
      ],
      "actions": [
        {
          "type": {
            "value": "ModVarGlobal"
          },
          "parameters": [
            "stackPassGame",
            "+",
            "1"
          ]
        },
        {
          "type": {
            "value": "Scene"
          },
          "parameters": [
            "",
            "\"R5_tutorDiffirentScene_1_9\"",
            ""
          ]
        }
      ]
    }
  ],
  "layers": [
    {
      "ambientLightColorB": 0,
      "ambientLightColorG": 8042920,
      "ambientLightColorR": 16,
      "camera3DFarPlaneDistance": 10000,
      "camera3DFieldOfView": 45,
      "camera3DNearPlaneDistance": 0.1,
      "followBaseLayerCamera": false,
      "isLightingLayer": false,
      "isLocked": false,
      "name": "",
      "renderingType": "",
      "visibility": true,
      "cameras": [
        {
          "defaultSize": true,
          "defaultViewport": true,
          "height": 0,
          "viewportBottom": 1,
          "viewportLeft": 0,
          "viewportRight": 1,
          "viewportTop": 0,
          "width": 0
        }
      ],
      "effects": []
    }
  ],
  "behaviorsSharedData": [
    {
      "name": "Animation",
      "type": "AnimatableCapability::AnimatableBehavior"
    },
    {
      "name": "Effect",
      "type": "EffectCapability::EffectBehavior"
    },
    {
      "name": "Flippable",
      "type": "FlippableCapability::FlippableBehavior"
    },
    {
      "name": "Opacity",
      "type": "OpacityCapability::OpacityBehavior"
    },
    {
      "name": "Resizable",
      "type": "ResizableCapability::ResizableBehavior"
    },
    {
      "name": "Scale",
      "type": "ScalableCapability::ScalableBehavior"
    },
    {
      "name": "Text",
      "type": "TextContainerCapability::TextContainerBehavior"
    }
  ]
}