{
  "b": 209,
  "disableInputWhenNotFocused": true,
  "mangledName": "R6_95pronounce1_95scence_9513",
  "name": "R6_pronounce1_scence_13",
  "r": 209,
  "standardSortMethod": true,
  "stopSoundsOnStartup": true,
  "title": "",
  "v": 209,
  "uiSettings": {
    "grid": false,
    "gridType": "rectangular",
    "gridWidth": 32,
    "gridHeight": 32,
    "gridOffsetX": 0,
    "gridOffsetY": 0,
    "gridColor": 10401023,
    "gridAlpha": 0.8,
    "snap": false,
    "zoomFactor": 0.6455105703311493,
    "windowMask": false
  },
  "objectsGroups": [],
  "variables": [
    {
      "folded": true,
      "name": "Time_level",
      "type": "number",
      "value": 30
    },
    {
      "folded": true,
      "name": "Stack_pass",
      "type": "number",
      "value": 0
    },
    {
      "folded": true,
      "name": "Time_pronounce",
      "type": "number",
      "value": 0
    },
    {
      "folded": true,
      "name": "bonusScore",
      "type": "number",
      "value": 0
    }
  ],
  "instances": [
    {
      "angle": 0,
      "customSize": false,
      "height": 0,
      "layer": "",
      "name": "Time_level",
      "persistentUuid": "c950cc02-7ab8-48f8-aad6-3b120a657e84",
      "width": 0,
      "x": 1080,
      "y": 115,
      "zOrder": 45,
      "numberProperties": [],
      "stringProperties": [],
      "initialVariables": []
    },
    {
      "angle": 0,
      "customSize": true,
      "depth": 32,
      "height": 69,
      "layer": "",
      "name": "Continue_btn",
      "persistentUuid": "6507f606-ce3a-4824-b77d-c07b29bea4bd",
      "width": 426,
      "x": 412,
      "y": -286,
      "zOrder": 68,
      "numberProperties": [],
      "stringProperties": [],
      "initialVariables": []
    },
    {
      "angle": 0,
      "customSize": true,
      "depth": 0,
      "height": 864,
      "layer": "",
      "name": "aboutGame_bg",
      "persistentUuid": "7ec769ac-e56a-479d-9a72-e3feecac1c47",
      "width": 1520,
      "x": -82,
      "y": -67,
      "zOrder": 41,
      "numberProperties": [],
      "stringProperties": [],
      "initialVariables": []
    },
    {
      "angle": 0,
      "customSize": true,
      "depth": 0,
      "height": 1048,
      "layer": "",
      "name": "board_icon",
      "persistentUuid": "e2df8256-1ea2-4292-8d64-d228f2d990bd",
      "width": 1268,
      "x": 26,
      "y": -147,
      "zOrder": 42,
      "numberProperties": [],
      "stringProperties": [],
      "initialVariables": []
    },
    {
      "angle": 0,
      "customSize": true,
      "depth": 0,
      "height": 96,
      "layer": "",
      "name": "clockLevel_icon",
      "persistentUuid": "7297d2ad-1ad3-4d2c-a1f7-50467ee1a3a9",
      "width": 96,
      "x": 978,
      "y": 98,
      "zOrder": 44,
      "numberProperties": [],
      "stringProperties": [],
      "initialVariables": []
    },
    {
      "angle": 0,
      "customSize": true,
      "depth": 0,
      "height": 150,
      "layer": "",
      "name": "speaker",
      "persistentUuid": "ba670a48-0042-4052-b836-b17d65148046",
      "width": 197,
      "x": 520,
      "y": 180,
      "zOrder": 46,
      "numberProperties": [],
      "stringProperties": [],
      "initialVariables": []
    },
    {
      "angle": 0,
      "customSize": false,
      "height": 0,
      "layer": "",
      "name": "bag_choice",
      "persistentUuid": "d6e6eb14-0317-4a1c-9eb4-7f5bf3f82df7",
      "width": 0,
      "x": 962,
      "y": 426,
      "zOrder": 47,
      "numberProperties": [],
      "stringProperties": [],
      "initialVariables": []
    },
    {
      "angle": 0,
      "customSize": false,
      "height": 0,
      "layer": "",
      "name": "blackboard_choice",
      "persistentUuid": "0ec3a956-4d95-40d3-b064-699e164db3c8",
      "width": 0,
      "x": 337,
      "y": 424,
      "zOrder": 48,
      "numberProperties": [],
      "stringProperties": [],
      "initialVariables": []
    },
    {
      "angle": 0,
      "customSize": false,
      "height": 0,
      "layer": "",
      "name": "eraser_choice",
      "persistentUuid": "66fb100c-a1fa-446d-a693-bf7c2c4eb4b1",
      "width": 0,
      "x": 826,
      "y": 503,
      "zOrder": 49,
      "numberProperties": [],
      "stringProperties": [],
      "initialVariables": []
    },
    {
      "angle": 0,
      "customSize": false,
      "height": 0,
      "layer": "",
      "name": "book_choice",
      "persistentUuid": "3f1d3294-c577-4be1-80e1-a39bde473bc2",
      "width": 0,
      "x": 809,
      "y": 348,
      "zOrder": 50,
      "numberProperties": [],
      "stringProperties": [],
      "initialVariables": []
    },
    {
      "angle": 0,
      "customSize": false,
      "height": 0,
      "layer": "",
      "name": "pencil_choice",
      "persistentUuid": "163e83ea-3a6e-4feb-b78e-f76bd2ec42bd",
      "width": 0,
      "x": 553,
      "y": 503,
      "zOrder": 51,
      "numberProperties": [],
      "stringProperties": [],
      "initialVariables": []
    },
    {
      "angle": 0,
      "customSize": false,
      "height": 0,
      "layer": "",
      "name": "pen_choice",
      "persistentUuid": "e7568c38-86da-42f3-81d8-69a54fce96ce",
      "width": 0,
      "x": 246,
      "y": 503,
      "zOrder": 52,
      "numberProperties": [],
      "stringProperties": [],
      "initialVariables": []
    },
    {
      "angle": 0,
      "customSize": false,
      "height": 0,
      "layer": "",
      "name": "notebook_choice",
      "persistentUuid": "3e621d71-a701-4924-9bda-6717ae0824e9",
      "width": 0,
      "x": 661,
      "y": 424,
      "zOrder": 53,
      "numberProperties": [],
      "stringProperties": [],
      "initialVariables": []
    },
    {
      "angle": 0,
      "customSize": false,
      "height": 0,
      "layer": "",
      "name": "subtract_time",
      "persistentUuid": "706fa2a9-6db2-4b05-9ab5-860218ce55a8",
      "width": 0,
      "x": 1095,
      "y": 197,
      "zOrder": 54,
      "numberProperties": [],
      "stringProperties": [],
      "initialVariables": []
    },
    {
      "angle": 0,
      "customSize": true,
      "depth": 0,
      "height": 1055,
      "layer": "",
      "name": "Overlay_opacity",
      "persistentUuid": "fb756768-e0bf-482d-86b9-b2c61e025fa0",
      "width": 1813,
      "x": -248,
      "y": -190,
      "zOrder": 55,
      "numberProperties": [],
      "stringProperties": [],
      "initialVariables": []
    },
    {
      "angle": 0,
      "customSize": true,
      "depth": 0,
      "height": 300,
      "layer": "",
      "name": "tick_pass",
      "persistentUuid": "71356fe3-9fe4-4bde-944a-ba1a778f1eb7",
      "width": 300,
      "x": 611,
      "y": 1141,
      "zOrder": 64,
      "numberProperties": [],
      "stringProperties": [],
      "initialVariables": []
    },
    {
      "angle": 0,
      "customSize": true,
      "depth": 0,
      "height": 300,
      "layer": "",
      "name": "tick_fasle",
      "persistentUuid": "6a686444-8f0e-4d22-84d8-a3048a50ecd0",
      "width": 300,
      "x": -585,
      "y": 1091,
      "zOrder": 65,
      "numberProperties": [],
      "stringProperties": [],
      "initialVariables": []
    },
    {
      "angle": 0,
      "customSize": true,
      "depth": 0,
      "height": 962,
      "layer": "",
      "name": "notify_board",
      "persistentUuid": "3d4ea5df-01bc-4518-ae3e-f71a1599d0f1",
      "width": 964,
      "x": -335,
      "y": 1264,
      "zOrder": 63,
      "numberProperties": [],
      "stringProperties": [],
      "initialVariables": []
    },
    {
      "angle": 0,
      "customSize": false,
      "height": 0,
      "layer": "",
      "name": "Win_inGame",
      "persistentUuid": "3b4c78e0-e5a9-438f-9d15-260837bae847",
      "width": 0,
      "x": 1179,
      "y": 1137,
      "zOrder": 66,
      "numberProperties": [],
      "stringProperties": [],
      "initialVariables": []
    },
    {
      "angle": 0,
      "customSize": false,
      "height": 0,
      "layer": "",
      "name": "Time_Lose",
      "persistentUuid": "981fefc4-db57-4b54-8348-f345620c40ec",
      "width": 0,
      "x": 1056,
      "y": 1303,
      "zOrder": 67,
      "numberProperties": [],
      "stringProperties": [],
      "initialVariables": []
    },
    {
      "angle": 0,
      "customSize": true,
      "depth": 0,
      "height": 70,
      "layer": "",
      "name": "level1Text",
      "persistentUuid": "ebe06cdb-427d-46b2-94c3-592ee11a2fc1",
      "width": 287,
      "x": 110,
      "y": 80,
      "zOrder": 44,
      "numberProperties": [],
      "stringProperties": [],
      "initialVariables": []
    },
    {
      "angle": 0,
      "customSize": true,
      "depth": 0,
      "height": 90,
      "layer": "",
      "name": "starPoint",
      "persistentUuid": "0491478f-3338-4574-a9d2-29d4ca23b37a",
      "width": 90,
      "x": 980,
      "y": 540,
      "zOrder": 44,
      "numberProperties": [],
      "stringProperties": [],
      "initialVariables": []
    },
    {
      "angle": 0,
      "customSize": false,
      "height": 0,
      "layer": "",
      "name": "currentScore",
      "persistentUuid": "2c91c3be-2933-4a39-be10-80a1704d5572",
      "width": 0,
      "x": 1080,
      "y": 555,
      "zOrder": 45,
      "numberProperties": [],
      "stringProperties": [],
      "initialVariables": []
    },
    {
      "angle": 0,
      "customSize": false,
      "height": 0,
      "layer": "",
      "name": "bookcase",
      "persistentUuid": "c463412f-819a-43df-938e-12b099a85533",
      "width": 0,
      "x": 425,
      "y": 347,
      "zOrder": 52,
      "numberProperties": [],
      "stringProperties": [],
      "initialVariables": []
    }
  ],
  "objects": [
    {
      "assetStoreId": "",
      "bold": true,
      "italic": false,
      "name": "Time_level",
      "smoothed": true,
      "type": "TextObject::Text",
      "underlined": false,
      "variables": [],
      "effects": [],
      "behaviors": [],
      "string": "30",
      "font": "assets\\VNF-Comic Sans.ttf",
      "textAlignment": "left",
      "characterSize": 50,
      "color": {
        "b": 255,
        "g": 255,
        "r": 255
      }
    },
    {
      "assetStoreId": "569b45d3c7c34f7706563239938d04ca599016ff9857ee38c945c72330d4339e",
      "name": "Continue_btn",
      "type": "PanelSpriteButton::PanelSpriteButton",
      "variables": [],
      "effects": [],
      "behaviors": [],
      "content": {
        "LeftPadding": 16,
        "RightPadding": 16,
        "PressedLabelOffsetY": 3,
        "BottomPadding": 32,
        "TopPadding": 32,
        "HoveredFadeOutDuration": 0.25
      },
      "childrenContent": {
        "Hovered": {
          "bottomMargin": 16,
          "height": 69,
          "leftMargin": 16,
          "rightMargin": 16,
          "texture": "Green Button With Shadow_Hovered.png",
          "tiled": true,
          "topMargin": 16,
          "width": 192
        },
        "Idle": {
          "bottomMargin": 16,
          "height": 69,
          "leftMargin": 16,
          "rightMargin": 16,
          "texture": "Green Button With Shadow_Idle.png",
          "tiled": true,
          "topMargin": 16,
          "width": 192
        },
        "Label": {
          "bold": false,
          "italic": false,
          "smoothed": true,
          "underlined": false,
          "string": "CONTINUE",
          "font": "CantoraOne-Regular.ttf",
          "textAlignment": "center",
          "characterSize": 50,
          "color": {
            "b": 255,
            "g": 255,
            "r": 255
          }
        },
        "Pressed": {
          "bottomMargin": 16,
          "height": 69,
          "leftMargin": 16,
          "rightMargin": 16,
          "texture": "Green Button With Shadow_Pressed.png",
          "tiled": true,
          "topMargin": 16,
          "width": 192
        }
      }
    },
    {
      "adaptCollisionMaskAutomatically": false,
      "assetStoreId": "",
      "name": "board_icon",
      "type": "Sprite",
      "updateIfNotVisible": false,
      "variables": [],
      "effects": [],
      "behaviors": [],
      "animations": [
        {
          "name": "",
          "useMultipleDirections": false,
          "directions": [
            {
              "looping": false,
              "timeBetweenFrames": 0.08,
              "sprites": [
                {
                  "hasCustomCollisionMask": false,
                  "image": "assets\\bảng1.png",
                  "points": [],
                  "originPoint": {
                    "name": "origine",
                    "x": 0,
                    "y": 0
                  },
                  "centerPoint": {
                    "automatic": true,
                    "name": "centre",
                    "x": 0,
                    "y": 0
                  },
                  "customCollisionMask": []
                }
              ]
            }
          ]
        }
      ]
    },
    {
      "adaptCollisionMaskAutomatically": false,
      "assetStoreId": "",
      "name": "speaker",
      "type": "Sprite",
      "updateIfNotVisible": false,
      "variables": [],
      "effects": [],
      "behaviors": [],
      "animations": [
        {
          "name": "Off",
          "useMultipleDirections": false,
          "directions": [
            {
              "looping": false,
              "timeBetweenFrames": 0.08,
              "sprites": [
                {
                  "hasCustomCollisionMask": false,
                  "image": "assets\\Off.png",
                  "points": [],
                  "originPoint": {
                    "name": "origine",
                    "x": 0,
                    "y": 0
                  },
                  "centerPoint": {
                    "automatic": true,
                    "name": "centre",
                    "x": 0,
                    "y": 0
                  },
                  "customCollisionMask": []
                }
              ]
            }
          ]
        },
        {
          "name": "On",
          "useMultipleDirections": false,
          "directions": [
            {
              "looping": false,
              "timeBetweenFrames": 0.08,
              "sprites": [
                {
                  "hasCustomCollisionMask": false,
                  "image": "assets\\On.png",
                  "points": [],
                  "originPoint": {
                    "name": "origine",
                    "x": 0,
                    "y": 0
                  },
                  "centerPoint": {
                    "automatic": true,
                    "name": "centre",
                    "x": 0,
                    "y": 0
                  },
                  "customCollisionMask": []
                }
              ]
            }
          ]
        }
      ]
    },
    {
      "assetStoreId": "",
      "bold": true,
      "italic": false,
      "name": "bag_choice",
      "smoothed": true,
      "type": "TextObject::Text",
      "underlined": false,
      "variables": [],
      "effects": [],
      "behaviors": [],
      "string": "Bag",
      "font": "assets\\VNF-Comic Sans.ttf",
      "textAlignment": "left",
      "characterSize": 30,
      "color": {
        "b": 255,
        "g": 255,
        "r": 255
      }
    },
    {
      "assetStoreId": "",
      "bold": true,
      "italic": false,
      "name": "bookcase",
      "smoothed": true,
      "type": "TextObject::Text",
      "underlined": false,
      "variables": [],
      "effects": [],
      "behaviors": [],
      "string": "Bookcase",
      "font": "assets\\VNF-Comic Sans.ttf",
      "textAlignment": "left",
      "characterSize": 30,
      "color": {
        "b": 255,
        "g": 255,
        "r": 255
      }
    },
    {
      "assetStoreId": "",
      "bold": true,
      "italic": false,
      "name": "blackboard_choice",
      "smoothed": true,
      "type": "TextObject::Text",
      "underlined": false,
      "variables": [],
      "effects": [],
      "behaviors": [],
      "string": "Blackboard",
      "font": "assets\\VNF-Comic Sans.ttf",
      "textAlignment": "left",
      "characterSize": 30,
      "color": {
        "b": 255,
        "g": 255,
        "r": 255
      }
    },
    {
      "assetStoreId": "",
      "bold": true,
      "italic": false,
      "name": "eraser_choice",
      "smoothed": true,
      "type": "TextObject::Text",
      "underlined": false,
      "variables": [],
      "effects": [],
      "behaviors": [],
      "string": "Eraser",
      "font": "assets\\VNF-Comic Sans.ttf",
      "textAlignment": "left",
      "characterSize": 30,
      "color": {
        "b": 255,
        "g": 255,
        "r": 255
      }
    },
    {
      "assetStoreId": "",
      "bold": true,
      "italic": false,
      "name": "book_choice",
      "smoothed": true,
      "type": "TextObject::Text",
      "underlined": false,
      "variables": [],
      "effects": [],
      "behaviors": [],
      "string": "Book",
      "font": "assets\\VNF-Comic Sans.ttf",
      "textAlignment": "left",
      "characterSize": 30,
      "color": {
        "b": 255,
        "g": 255,
        "r": 255
      }
    },
    {
      "assetStoreId": "",
      "bold": true,
      "italic": false,
      "name": "pencil_choice",
      "smoothed": true,
      "type": "TextObject::Text",
      "underlined": false,
      "variables": [],
      "effects": [],
      "behaviors": [],
      "string": "Pencil",
      "font": "assets\\VNF-Comic Sans.ttf",
      "textAlignment": "left",
      "characterSize": 30,
      "color": {
        "b": 255,
        "g": 255,
        "r": 255
      }
    },
    {
      "assetStoreId": "",
      "bold": true,
      "italic": false,
      "name": "pen_choice",
      "smoothed": true,
      "type": "TextObject::Text",
      "underlined": false,
      "variables": [],
      "effects": [],
      "behaviors": [],
      "string": "Pen",
      "font": "assets\\VNF-Comic Sans.ttf",
      "textAlignment": "left",
      "characterSize": 30,
      "color": {
        "b": 255,
        "g": 255,
        "r": 255
      }
    },
    {
      "assetStoreId": "",
      "bold": true,
      "italic": false,
      "name": "notebook_choice",
      "smoothed": true,
      "type": "TextObject::Text",
      "underlined": false,
      "variables": [],
      "effects": [],
      "behaviors": [],
      "string": "Notebook",
      "font": "assets\\VNF-Comic Sans.ttf",
      "textAlignment": "left",
      "characterSize": 30,
      "color": {
        "b": 255,
        "g": 255,
        "r": 255
      }
    },
    {
      "adaptCollisionMaskAutomatically": false,
      "assetStoreId": "",
      "name": "keyArea",
      "type": "Sprite",
      "updateIfNotVisible": false,
      "variables": [],
      "effects": [],
      "behaviors": [],
      "animations": [
        {
          "name": "NewSprite",
          "useMultipleDirections": false,
          "directions": [
            {
              "looping": false,
              "metadata": "{\"pskl\":{}}",
              "timeBetweenFrames": 0.08,
              "sprites": [
                {
                  "hasCustomCollisionMask": false,
                  "image": "NewSprite22",
                  "points": [],
                  "originPoint": {
                    "name": "origine",
                    "x": 0,
                    "y": 0
                  },
                  "centerPoint": {
                    "automatic": true,
                    "name": "centre",
                    "x": 0,
                    "y": 0
                  },
                  "customCollisionMask": []
                }
              ]
            }
          ]
        }
      ]
    }
  ],
  "objectsFolderStructure": {
    "folderName": "__ROOT",
    "children": [
      {
        "objectName": "Time_level"
      },
      {
        "objectName": "Continue_btn"
      },
      {
        "objectName": "board_icon"
      },
      {
        "objectName": "speaker"
      },
      {
        "objectName": "bag_choice"
      },
      {
        "objectName": "bookcase"
      },
      {
        "objectName": "blackboard_choice"
      },
      {
        "objectName": "eraser_choice"
      },
      {
        "objectName": "book_choice"
      },
      {
        "objectName": "pencil_choice"
      },
      {
        "objectName": "pen_choice"
      },
      {
        "objectName": "notebook_choice"
      },
      {
        "objectName": "keyArea"
      }
    ]
  },
  "events": [
    {
      "type": "BuiltinCommonInstructions::Standard",
      "conditions": [
        {
          "type": {
            "value": "DepartScene"
          },
          "parameters": [
            ""
          ]
        }
      ],
      "actions": [
        {
          "type": {
            "value": "Cache"
          },
          "parameters": [
            "notify_board"
          ]
        },
        {
          "type": {
            "value": "Cache"
          },
          "parameters": [
            "Time_Lose"
          ]
        },
        {
          "type": {
            "value": "Cache"
          },
          "parameters": [
            "Win_inGame"
          ]
        },
        {
          "type": {
            "value": "Cache"
          },
          "parameters": [
            "Overlay_opacity"
          ]
        },
        {
          "type": {
            "value": "Cache"
          },
          "parameters": [
            "tick_pass"
          ]
        },
        {
          "type": {
            "value": "Cache"
          },
          "parameters": [
            "tick_fasle"
          ]
        },
        {
          "type": {
            "value": "ResetTimer"
          },
          "parameters": [
            "",
            "\"Time_level\""
          ]
        },
        {
          "type": {
            "value": "Cache"
          },
          "parameters": [
            "Continue_btn"
          ]
        },
        {
          "type": {
            "value": "ResetTimer"
          },
          "parameters": [
            "",
            "\"Time_pronounce\""
          ]
        },
        {
          "type": {
            "value": "Cache"
          },
          "parameters": [
            "subtract_time"
          ]
        },
        {
          "type": {
            "value": "PlaySound"
          },
          "parameters": [
            "",
            "audio\\ingame.mp3",
            "no",
            "30",
            "1"
          ]
        },
        {
          "type": {
            "value": "TextObject::String"
          },
          "parameters": [
            "currentScore",
            "=",
            "ToString(GlobalVariable(playerScore))"
          ]
        }
      ]
    },
    {
      "type": "BuiltinCommonInstructions::Standard",
      "conditions": [
        {
          "type": {
            "value": "CompareTimer"
          },
          "parameters": [
            "",
            "\"Time_level\"",
            ">=",
            "1"
          ]
        },
        {
          "type": {
            "value": "BuiltinCommonInstructions::Once"
          },
          "parameters": []
        }
      ],
      "actions": [
        {
          "type": {
            "value": "ModVarScene"
          },
          "parameters": [
            "Time_level",
            "-",
            "1"
          ]
        },
        {
          "type": {
            "value": "ResetTimer"
          },
          "parameters": [
            "",
            "\"Time_level\""
          ]
        }
      ]
    },
    {
      "type": "BuiltinCommonInstructions::Standard",
      "conditions": [],
      "actions": [
        {
          "type": {
            "value": "TextObject::String"
          },
          "parameters": [
            "Time_level",
            "=",
            "ToString(Variable(Time_level))"
          ]
        }
      ]
    },
    {
      "type": "BuiltinCommonInstructions::Standard",
      "conditions": [
        {
          "type": {
            "value": "CompareTimer"
          },
          "parameters": [
            "",
            "\"Time_pronounce\"",
            ">=",
            "1"
          ]
        },
        {
          "type": {
            "value": "BuiltinCommonInstructions::Once"
          },
          "parameters": []
        }
      ],
      "actions": [
        {
          "type": {
            "value": "ModVarScene"
          },
          "parameters": [
            "Time_pronounce",
            "+",
            "1"
          ]
        },
        {
          "type": {
            "value": "ResetTimer"
          },
          "parameters": [
            "",
            "\"Time_pronounce\""
          ]
        }
      ]
    },
    {
      "type": "BuiltinCommonInstructions::Standard",
      "conditions": [
        {
          "type": {
            "value": "MouseButtonReleased"
          },
          "parameters": [
            "",
            "Left"
          ]
        },
        {
          "type": {
            "value": "VarScene"
          },
          "parameters": [
            "Time_level",
            ">",
            "0"
          ]
        },
        {
          "type": {
            "value": "VarScene"
          },
          "parameters": [
            "Stack_pass",
            "<",
            "3"
          ]
        },
        {
          "type": {
            "value": "SourisSurObjet"
          },
          "parameters": [
            "notebook_choice",
            "",
            "",
            ""
          ]
        }
      ],
      "actions": [
        {
          "type": {
            "value": "PlaySound"
          },
          "parameters": [
            "",
            "audio\\false.mp3",
            "no",
            "100",
            "1"
          ]
        },
        {
          "type": {
            "value": "ModVarScene"
          },
          "parameters": [
            "Time_level",
            "-",
            "5"
          ]
        },
        {
          "type": {
            "value": "ResetTimer"
          },
          "parameters": [
            "",
            "\"Time_subtractTime\""
          ]
        },
        {
          "type": {
            "value": "Montre"
          },
          "parameters": [
            "subtract_time",
            ""
          ]
        }
      ]
    },
    {
      "type": "BuiltinCommonInstructions::Standard",
      "conditions": [
        {
          "type": {
            "value": "MouseButtonReleased"
          },
          "parameters": [
            "",
            "Left"
          ]
        },
        {
          "type": {
            "value": "VarScene"
          },
          "parameters": [
            "Time_level",
            ">",
            "0"
          ]
        },
        {
          "type": {
            "value": "VarScene"
          },
          "parameters": [
            "Stack_pass",
            "<",
            "3"
          ]
        },
        {
          "type": {
            "value": "SourisSurObjet"
          },
          "parameters": [
            "pen_choice",
            "",
            "",
            ""
          ]
        }
      ],
      "actions": [
        {
          "type": {
            "value": "PlaySound"
          },
          "parameters": [
            "",
            "audio\\false.mp3",
            "no",
            "100",
            "1"
          ]
        },
        {
          "type": {
            "value": "ModVarScene"
          },
          "parameters": [
            "Time_level",
            "-",
            "5"
          ]
        },
        {
          "type": {
            "value": "ResetTimer"
          },
          "parameters": [
            "",
            "\"Time_subtractTime\""
          ]
        },
        {
          "type": {
            "value": "Montre"
          },
          "parameters": [
            "subtract_time",
            ""
          ]
        }
      ]
    },
    {
      "type": "BuiltinCommonInstructions::Standard",
      "conditions": [
        {
          "type": {
            "value": "MouseButtonReleased"
          },
          "parameters": [
            "",
            "Left"
          ]
        },
        {
          "type": {
            "value": "VarScene"
          },
          "parameters": [
            "Time_level",
            ">",
            "0"
          ]
        },
        {
          "type": {
            "value": "VarScene"
          },
          "parameters": [
            "Stack_pass",
            "<",
            "3"
          ]
        },
        {
          "type": {
            "value": "SourisSurObjet"
          },
          "parameters": [
            "bag_choice",
            "",
            "",
            ""
          ]
        }
      ],
      "actions": [
        {
          "type": {
            "value": "PlaySound"
          },
          "parameters": [
            "",
            "audio\\false.mp3",
            "no",
            "100",
            "1"
          ]
        },
        {
          "type": {
            "value": "ResetTimer"
          },
          "parameters": [
            "",
            "\"Time_subtractTime\""
          ]
        },
        {
          "type": {
            "value": "Montre"
          },
          "parameters": [
            "subtract_time",
            ""
          ]
        },
        {
          "type": {
            "value": "ModVarScene"
          },
          "parameters": [
            "Time_level",
            "-",
            "5"
          ]
        }
      ]
    },
    {
      "type": "BuiltinCommonInstructions::Standard",
      "conditions": [
        {
          "type": {
            "value": "MouseButtonReleased"
          },
          "parameters": [
            "",
            "Left"
          ]
        },
        {
          "type": {
            "value": "VarScene"
          },
          "parameters": [
            "Time_level",
            ">",
            "0"
          ]
        },
        {
          "type": {
            "value": "VarScene"
          },
          "parameters": [
            "Stack_pass",
            "<",
            "3"
          ]
        },
        {
          "type": {
            "value": "SourisSurObjet"
          },
          "parameters": [
            "book_choice",
            "",
            "",
            ""
          ]
        }
      ],
      "actions": [
        {
          "type": {
            "value": "PlaySound"
          },
          "parameters": [
            "",
            "audio\\false.mp3",
            "no",
            "100",
            "1"
          ]
        },
        {
          "type": {
            "value": "ResetTimer"
          },
          "parameters": [
            "",
            "\"Time_subtractTime\""
          ]
        },
        {
          "type": {
            "value": "Montre"
          },
          "parameters": [
            "subtract_time",
            ""
          ]
        },
        {
          "type": {
            "value": "ModVarScene"
          },
          "parameters": [
            "Time_level",
            "-",
            "5"
          ]
        }
      ]
    },
    {
      "type": "BuiltinCommonInstructions::Standard",
      "conditions": [
        {
          "type": {
            "value": "MouseButtonReleased"
          },
          "parameters": [
            "",
            "Left"
          ]
        },
        {
          "type": {
            "value": "VarScene"
          },
          "parameters": [
            "Time_level",
            ">",
            "0"
          ]
        },
        {
          "type": {
            "value": "VarScene"
          },
          "parameters": [
            "Stack_pass",
            "<",
            "3"
          ]
        },
        {
          "type": {
            "value": "SourisSurObjet"
          },
          "parameters": [
            "blackboard_choice",
            "",
            "",
            ""
          ]
        }
      ],
      "actions": [
        {
          "type": {
            "value": "PlaySound"
          },
          "parameters": [
            "",
            "audio\\false.mp3",
            "no",
            "100",
            "1"
          ]
        },
        {
          "type": {
            "value": "ResetTimer"
          },
          "parameters": [
            "",
            "\"Time_subtractTime\""
          ]
        },
        {
          "type": {
            "value": "Montre"
          },
          "parameters": [
            "subtract_time",
            ""
          ]
        },
        {
          "type": {
            "value": "ModVarScene"
          },
          "parameters": [
            "Time_level",
            "-",
            "5"
          ]
        }
      ]
    },
    {
      "type": "BuiltinCommonInstructions::Standard",
      "conditions": [
        {
          "type": {
            "value": "MouseButtonReleased"
          },
          "parameters": [
            "",
            "Left"
          ]
        },
        {
          "type": {
            "value": "VarScene"
          },
          "parameters": [
            "Time_level",
            ">",
            "0"
          ]
        },
        {
          "type": {
            "value": "VarScene"
          },
          "parameters": [
            "Stack_pass",
            "<",
            "3"
          ]
        },
        {
          "type": {
            "value": "SourisSurObjet"
          },
          "parameters": [
            "pencil_choice",
            "",
            "",
            ""
          ]
        }
      ],
      "actions": [
        {
          "type": {
            "value": "PlaySound"
          },
          "parameters": [
            "",
            "audio\\true.mp3",
            "no",
            "100",
            "1"
          ]
        },
        {
          "type": {
            "value": "ModVarScene"
          },
          "parameters": [
            "Stack_pass",
            "+",
            "1"
          ]
        },
        {
          "type": {
            "value": "Delete"
          },
          "parameters": [
            "pencil_choice",
            ""
          ]
        }
      ]
    },
    {
      "type": "BuiltinCommonInstructions::Standard",
      "conditions": [
        {
          "type": {
            "value": "MouseButtonReleased"
          },
          "parameters": [
            "",
            "Left"
          ]
        },
        {
          "type": {
            "value": "VarScene"
          },
          "parameters": [
            "Time_level",
            ">",
            "0"
          ]
        },
        {
          "type": {
            "value": "VarScene"
          },
          "parameters": [
            "Stack_pass",
            "<",
            "3"
          ]
        },
        {
          "type": {
            "value": "SourisSurObjet"
          },
          "parameters": [
            "bookcase",
            "",
            "",
            ""
          ]
        }
      ],
      "actions": [
        {
          "type": {
            "value": "PlaySound"
          },
          "parameters": [
            "",
            "audio\\true.mp3",
            "no",
            "100",
            "1"
          ]
        },
        {
          "type": {
            "value": "ModVarScene"
          },
          "parameters": [
            "Stack_pass",
            "+",
            "1"
          ]
        },
        {
          "type": {
            "value": "Delete"
          },
          "parameters": [
            "bookcase",
            ""
          ]
        }
      ]
    },
    {
      "type": "BuiltinCommonInstructions::Standard",
      "conditions": [
        {
          "type": {
            "value": "MouseButtonReleased"
          },
          "parameters": [
            "",
            "Left"
          ]
        },
        {
          "type": {
            "value": "VarScene"
          },
          "parameters": [
            "Time_level",
            ">",
            "0"
          ]
        },
        {
          "type": {
            "value": "VarScene"
          },
          "parameters": [
            "Stack_pass",
            "<",
            "3"
          ]
        },
        {
          "type": {
            "value": "SourisSurObjet"
          },
          "parameters": [
            "eraser_choice",
            "",
            "",
            ""
          ]
        }
      ],
      "actions": [
        {
          "type": {
            "value": "PlaySound"
          },
          "parameters": [
            "",
            "audio\\true.mp3",
            "no",
            "100",
            "1"
          ]
        },
        {
          "type": {
            "value": "ModVarScene"
          },
          "parameters": [
            "Stack_pass",
            "+",
            "1"
          ]
        },
        {
          "type": {
            "value": "Delete"
          },
          "parameters": [
            "eraser_choice",
            ""
          ]
        }
      ]
    },
    {
      "type": "BuiltinCommonInstructions::Standard",
      "conditions": [
        {
          "type": {
            "value": "CompareTimer"
          },
          "parameters": [
            "",
            "\"Time_subtractTime\"",
            ">=",
            "0.8"
          ]
        }
      ],
      "actions": [
        {
          "type": {
            "value": "Cache"
          },
          "parameters": [
            "subtract_time"
          ]
        },
        {
          "type": {
            "value": "ResetTimer"
          },
          "parameters": [
            "",
            "\"Time_subtractTime\""
          ]
        }
      ]
    },
    {
      "type": "BuiltinCommonInstructions::Standard",
      "conditions": [
        {
          "type": {
            "value": "MouseButtonReleased"
          },
          "parameters": [
            "",
            "Left"
          ]
        },
        {
          "type": {
            "value": "VarScene"
          },
          "parameters": [
            "Time_level",
            ">",
            "0"
          ]
        },
        {
          "type": {
            "value": "VarScene"
          },
          "parameters": [
            "Stack_pass",
            "<",
            "3"
          ]
        },
        {
          "type": {
            "value": "SourisSurObjet"
          },
          "parameters": [
            "speaker",
            "",
            "",
            ""
          ]
        },
        {
          "type": {
            "value": "BuiltinCommonInstructions::Once"
          },
          "parameters": []
        }
      ],
      "actions": [
        {
          "type": {
            "value": "PlayMusic"
          },
          "parameters": [
            "",
            "audio\\tin_5.mp3",
            "",
            "100",
            "1"
          ]
        },
        {
          "type": {
            "value": "SetAnimationName"
          },
          "parameters": [
            "speaker",
            "\"On\""
          ]
        }
      ]
    },
    {
      "type": "BuiltinCommonInstructions::Standard",
      "conditions": [
        {
          "type": {
            "value": "VarScene"
          },
          "parameters": [
            "Stack_pass",
            "<",
            "3"
          ]
        },
        {
          "type": {
            "value": "VarScene"
          },
          "parameters": [
            "Time_level",
            "<=",
            "0"
          ]
        },
        {
          "type": {
            "value": "BuiltinCommonInstructions::Once"
          },
          "parameters": []
        }
      ],
      "actions": [
        {
          "type": {
            "value": "ChangeTimeScale"
          },
          "parameters": [
            "",
            "0"
          ]
        },
        {
          "type": {
            "value": "Montre"
          },
          "parameters": [
            "Overlay_opacity",
            ""
          ]
        },
        {
          "type": {
            "value": "Montre"
          },
          "parameters": [
            "notify_board",
            ""
          ]
        },
        {
          "type": {
            "value": "MettreX"
          },
          "parameters": [
            "notify_board",
            "=",
            "157"
          ]
        },
        {
          "type": {
            "value": "MettreY"
          },
          "parameters": [
            "notify_board",
            "=",
            "-58"
          ]
        },
        {
          "type": {
            "value": "Montre"
          },
          "parameters": [
            "Time_Lose",
            ""
          ]
        },
        {
          "type": {
            "value": "MettreX"
          },
          "parameters": [
            "Time_Lose",
            "=",
            "566"
          ]
        },
        {
          "type": {
            "value": "MettreY"
          },
          "parameters": [
            "Time_Lose",
            "=",
            "397"
          ]
        },
        {
          "type": {
            "value": "Montre"
          },
          "parameters": [
            "tick_fasle",
            ""
          ]
        },
        {
          "type": {
            "value": "MettreX"
          },
          "parameters": [
            "tick_fasle",
            "=",
            "497"
          ]
        },
        {
          "type": {
            "value": "MettreY"
          },
          "parameters": [
            "tick_fasle",
            "=",
            "112"
          ]
        },
        {
          "type": {
            "value": "Montre"
          },
          "parameters": [
            "Continue_btn",
            ""
          ]
        },
        {
          "type": {
            "value": "MettreX"
          },
          "parameters": [
            "Continue_btn",
            "=",
            "425"
          ]
        },
        {
          "type": {
            "value": "MettreY"
          },
          "parameters": [
            "Continue_btn",
            "=",
            "482"
          ]
        },
        {
          "type": {
            "value": "ModVarScene"
          },
          "parameters": [
            "bonusScore",
            "=",
            "0"
          ]
        },
        {
          "type": {
            "value": "ModVarGlobal"
          },
          "parameters": [
            "playerScore",
            "+",
            "30"
          ]
        }
      ]
    },
    {
      "type": "BuiltinCommonInstructions::Standard",
      "conditions": [
        {
          "type": {
            "value": "VarScene"
          },
          "parameters": [
            "Stack_pass",
            "=",
            "3"
          ]
        },
        {
          "type": {
            "value": "VarScene"
          },
          "parameters": [
            "Time_level",
            ">",
            "0"
          ]
        },
        {
          "type": {
            "value": "BuiltinCommonInstructions::Once"
          },
          "parameters": []
        }
      ],
      "actions": [
        {
          "type": {
            "value": "ChangeTimeScale"
          },
          "parameters": [
            "",
            "0"
          ]
        },
        {
          "type": {
            "value": "Montre"
          },
          "parameters": [
            "Overlay_opacity",
            ""
          ]
        },
        {
          "type": {
            "value": "Montre"
          },
          "parameters": [
            "notify_board",
            ""
          ]
        },
        {
          "type": {
            "value": "MettreX"
          },
          "parameters": [
            "notify_board",
            "=",
            "157"
          ]
        },
        {
          "type": {
            "value": "MettreY"
          },
          "parameters": [
            "notify_board",
            "=",
            "-58"
          ]
        },
        {
          "type": {
            "value": "Montre"
          },
          "parameters": [
            "tick_pass",
            ""
          ]
        },
        {
          "type": {
            "value": "MettreX"
          },
          "parameters": [
            "tick_pass",
            "=",
            "497"
          ]
        },
        {
          "type": {
            "value": "MettreY"
          },
          "parameters": [
            "tick_pass",
            "=",
            "112"
          ]
        },
        {
          "type": {
            "value": "Montre"
          },
          "parameters": [
            "Win_inGame",
            ""
          ]
        },
        {
          "type": {
            "value": "MettreX"
          },
          "parameters": [
            "Win_inGame",
            "=",
            "566"
          ]
        },
        {
          "type": {
            "value": "MettreY"
          },
          "parameters": [
            "Win_inGame",
            "=",
            "397"
          ]
        },
        {
          "type": {
            "value": "Montre"
          },
          "parameters": [
            "Continue_btn",
            ""
          ]
        },
        {
          "type": {
            "value": "MettreX"
          },
          "parameters": [
            "Continue_btn",
            "=",
            "425"
          ]
        },
        {
          "type": {
            "value": "MettreY"
          },
          "parameters": [
            "Continue_btn",
            "=",
            "482"
          ]
        },
        {
          "type": {
            "value": "ModVarScene"
          },
          "parameters": [
            "bonusScore",
            "=",
            "Variable(Time_level)"
          ]
        },
        {
          "type": {
            "value": "ModVarGlobal"
          },
          "parameters": [
            "playerScore",
            "+",
            "70 + Variable(bonusScore)"
          ]
        }
      ]
    },
    {
      "type": "BuiltinCommonInstructions::Standard",
      "conditions": [
        {
          "type": {
            "value": "PanelSpriteButton::PanelSpriteButton::IsClicked"
          },
          "parameters": [
            "Continue_btn",
            ""
          ]
        }
      ],
      "actions": [
        {
          "type": {
            "value": "ModVarGlobal"
          },
          "parameters": [
            "stackPassGame",
            "+",
            "1"
          ]
        },
        {
          "type": {
            "value": "Scene"
          },
          "parameters": [
            "",
            "\"R6_tutorDiffirentScene_2_10\"",
            ""
          ]
        }
      ]
    }
  ],
  "layers": [
    {
      "ambientLightColorB": 200,
      "ambientLightColorG": 200,
      "ambientLightColorR": 200,
      "camera3DFarPlaneDistance": 10000,
      "camera3DFieldOfView": 45,
      "camera3DNearPlaneDistance": 0.1,
      "followBaseLayerCamera": false,
      "isLightingLayer": false,
      "isLocked": false,
      "name": "",
      "renderingType": "",
      "visibility": true,
      "cameras": [
        {
          "defaultSize": true,
          "defaultViewport": true,
          "height": 0,
          "viewportBottom": 1,
          "viewportLeft": 0,
          "viewportRight": 1,
          "viewportTop": 0,
          "width": 0
        }
      ],
      "effects": []
    }
  ],
  "behaviorsSharedData": [
    {
      "name": "Animation",
      "type": "AnimatableCapability::AnimatableBehavior"
    },
    {
      "name": "Effect",
      "type": "EffectCapability::EffectBehavior"
    },
    {
      "name": "Flippable",
      "type": "FlippableCapability::FlippableBehavior"
    },
    {
      "name": "Opacity",
      "type": "OpacityCapability::OpacityBehavior"
    },
    {
      "name": "Resizable",
      "type": "ResizableCapability::ResizableBehavior"
    },
    {
      "name": "Scale",
      "type": "ScalableCapability::ScalableBehavior"
    },
    {
      "name": "Text",
      "type": "TextContainerCapability::TextContainerBehavior"
    }
  ]
}